<?xml version="1.0" encoding="UTF-8"?><svg stroke-dasharray="none" shape-rendering="auto" xmlns="http://www.w3.org/2000/svg" font-family="'Dialog'" width="852" text-rendering="auto" fill-opacity="1" contentScriptType="text/ecmascript" color-interpolation="auto" color-rendering="auto" preserveAspectRatio="xMidYMid meet" font-size="12" viewBox="0 0 852 362" fill="black" xmlns:xlink="http://www.w3.org/1999/xlink" stroke="black" image-rendering="auto" stroke-miterlimit="10" zoomAndPan="magnify" version="1.0" stroke-linecap="square" stroke-linejoin="miter" contentStyleType="text/css" font-style="normal" height="362" stroke-width="1" stroke-dashoffset="0" font-weight="normal" stroke-opacity="1">
<!--Generated by the Batik Graphics2D SVG Generator-->
<defs id="genericDefs"/>
<g>
<defs id="defs1">
<clipPath clipPathUnits="userSpaceOnUse" id="clipPath1">
<path d="M547 182 L705 182 L705 222 L547 222 L547 182 Z"/>
</clipPath>
<clipPath clipPathUnits="userSpaceOnUse" id="clipPath2">
<path d="M558 186 L691 186 L691 202 L558 202 L558 186 Z"/>
</clipPath>
<clipPath clipPathUnits="userSpaceOnUse" id="clipPath3">
<path d="M548 202 L701 202 L701 217 L548 217 L548 202 Z"/>
</clipPath>
<clipPath clipPathUnits="userSpaceOnUse" id="clipPath4">
<path d="M117 182 L323 182 L323 222 L117 222 L117 182 Z"/>
</clipPath>
<clipPath clipPathUnits="userSpaceOnUse" id="clipPath5">
<path d="M185 186 L253 186 L253 202 L185 202 L185 186 Z"/>
</clipPath>
<clipPath clipPathUnits="userSpaceOnUse" id="clipPath6">
<path d="M118 202 L319 202 L319 217 L118 217 L118 202 Z"/>
</clipPath>
<clipPath clipPathUnits="userSpaceOnUse" id="clipPath7">
<path d="M458 80 L608 80 L608 120 L458 120 L458 80 Z"/>
</clipPath>
<clipPath clipPathUnits="userSpaceOnUse" id="clipPath8">
<path d="M469 84 L594 84 L594 100 L469 100 L469 84 Z"/>
</clipPath>
<clipPath clipPathUnits="userSpaceOnUse" id="clipPath9">
<path d="M459 100 L604 100 L604 115 L459 115 L459 100 Z"/>
</clipPath>
<clipPath clipPathUnits="userSpaceOnUse" id="clipPath10">
<path d="M356 182 L521 182 L521 222 L356 222 L356 182 Z"/>
</clipPath>
<clipPath clipPathUnits="userSpaceOnUse" id="clipPath11">
<path d="M367 186 L507 186 L507 202 L367 202 L367 186 Z"/>
</clipPath>
<clipPath clipPathUnits="userSpaceOnUse" id="clipPath12">
<path d="M357 202 L517 202 L517 217 L357 217 L357 202 Z"/>
</clipPath>
<clipPath clipPathUnits="userSpaceOnUse" id="clipPath13">
<path d="M732 182 L844 182 L844 222 L732 222 L732 182 Z"/>
</clipPath>
<clipPath clipPathUnits="userSpaceOnUse" id="clipPath14">
<path d="M743 186 L830 186 L830 202 L743 202 L743 186 Z"/>
</clipPath>
<clipPath clipPathUnits="userSpaceOnUse" id="clipPath15">
<path d="M733 202 L840 202 L840 217 L733 217 L733 202 Z"/>
</clipPath>
<clipPath clipPathUnits="userSpaceOnUse" id="clipPath16">
<path d="M476 8 L592 8 L592 36 L476 36 L476 8 Z"/>
</clipPath>
<clipPath clipPathUnits="userSpaceOnUse" id="clipPath17">
<path d="M487 12 L578 12 L578 28 L487 28 L487 12 Z"/>
</clipPath>
<clipPath clipPathUnits="userSpaceOnUse" id="clipPath18">
<path d="M88 80 L169 80 L169 108 L88 108 L88 80 Z"/>
</clipPath>
<clipPath clipPathUnits="userSpaceOnUse" id="clipPath19">
<path d="M99 84 L155 84 L155 100 L99 100 L99 84 Z"/>
</clipPath>
<clipPath clipPathUnits="userSpaceOnUse" id="clipPath20">
<path d="M744 325 L831 325 L831 353 L744 353 L744 325 Z"/>
</clipPath>
<clipPath clipPathUnits="userSpaceOnUse" id="clipPath21">
<path d="M755 329 L817 329 L817 345 L755 345 L755 329 Z"/>
</clipPath>
<clipPath clipPathUnits="userSpaceOnUse" id="clipPath22">
<path d="M195 326 L263 326 L263 354 L195 354 L195 326 Z"/>
</clipPath>
<clipPath clipPathUnits="userSpaceOnUse" id="clipPath23">
<path d="M206 330 L249 330 L249 346 L206 346 L206 330 Z"/>
</clipPath>
<clipPath clipPathUnits="userSpaceOnUse" id="clipPath24">
<path d="M123 320 L178 320 L178 348 L123 348 L123 320 Z"/>
</clipPath>
<clipPath clipPathUnits="userSpaceOnUse" id="clipPath25">
<path d="M134 324 L164 324 L164 340 L134 340 L134 324 Z"/>
</clipPath>
<clipPath clipPathUnits="userSpaceOnUse" id="clipPath26">
<path d="M-1 -1 L853 -1 L853 363 L-1 363 L-1 -1 Z"/>
</clipPath>
<clipPath clipPathUnits="userSpaceOnUse" id="clipPath27">
<path d="M524 113 L538 113 L538 127 L524 127 L524 113 Z"/>
</clipPath>
<clipPath clipPathUnits="userSpaceOnUse" id="clipPath28">
<path d="M267 140 L292 140 L292 157 L267 157 L267 140 Z"/>
</clipPath>
<clipPath clipPathUnits="userSpaceOnUse" id="clipPath29">
<path d="M136 140 L261 140 L261 157 L136 157 L136 140 Z"/>
</clipPath>
<clipPath clipPathUnits="userSpaceOnUse" id="clipPath30">
<path d="M440 104 L450 104 L450 120 L440 120 L440 104 Z"/>
</clipPath>
<clipPath clipPathUnits="userSpaceOnUse" id="clipPath31">
<path d="M385 75 L449 75 L449 92 L385 92 L385 75 Z"/>
</clipPath>
<clipPath clipPathUnits="userSpaceOnUse" id="clipPath32">
<path d="M141 124 L262 124 L262 141 L141 141 L141 124 Z"/>
</clipPath>
<clipPath clipPathUnits="userSpaceOnUse" id="clipPath33">
<path d="M258 62 L451 62 L451 79 L258 79 L258 62 Z"/>
</clipPath>
<clipPath clipPathUnits="userSpaceOnUse" id="clipPath34">
<path d="M255 157 L268 157 L268 185 L255 185 L255 157 Z"/>
</clipPath>
<clipPath clipPathUnits="userSpaceOnUse" id="clipPath35">
<path d="M453 95 L461 95 L461 103 L453 103 L453 95 Z"/>
</clipPath>
<clipPath clipPathUnits="userSpaceOnUse" id="clipPath36">
<path d="M525 29 L539 29 L539 43 L525 43 L525 29 Z"/>
</clipPath>
<clipPath clipPathUnits="userSpaceOnUse" id="clipPath37">
<path d="M118 101 L132 101 L132 115 L118 115 L118 101 Z"/>
</clipPath>
<clipPath clipPathUnits="userSpaceOnUse" id="clipPath38">
<path d="M791 237 L816 237 L816 254 L791 254 L791 237 Z"/>
</clipPath>
<clipPath clipPathUnits="userSpaceOnUse" id="clipPath39">
<path d="M689 237 L779 237 L779 254 L689 254 L689 237 Z"/>
</clipPath>
<clipPath clipPathUnits="userSpaceOnUse" id="clipPath40">
<path d="M793 294 L803 294 L803 311 L793 311 L793 294 Z"/>
</clipPath>
<clipPath clipPathUnits="userSpaceOnUse" id="clipPath41">
<path d="M722 294 L782 294 L782 311 L722 311 L722 294 Z"/>
</clipPath>
<clipPath clipPathUnits="userSpaceOnUse" id="clipPath42">
<path d="M689 223 L784 223 L784 240 L689 240 L689 223 Z"/>
</clipPath>
<clipPath clipPathUnits="userSpaceOnUse" id="clipPath43">
<path d="M647 281 L790 281 L790 297 L647 297 L647 281 Z"/>
</clipPath>
<clipPath clipPathUnits="userSpaceOnUse" id="clipPath44">
<path d="M779 214 L793 214 L793 238 L779 238 L779 214 Z"/>
</clipPath>
<clipPath clipPathUnits="userSpaceOnUse" id="clipPath45">
<path d="M780 310 L793 310 L793 328 L780 328 L780 310 Z"/>
</clipPath>
<clipPath clipPathUnits="userSpaceOnUse" id="clipPath46">
<path d="M192 227 L217 227 L217 244 L192 244 L192 227 Z"/>
</clipPath>
<clipPath clipPathUnits="userSpaceOnUse" id="clipPath47">
<path d="M233 227 L306 227 L306 244 L233 244 L233 227 Z"/>
</clipPath>
<clipPath clipPathUnits="userSpaceOnUse" id="clipPath48">
<path d="M203 302 L213 302 L213 319 L203 319 L203 302 Z"/>
</clipPath>
<clipPath clipPathUnits="userSpaceOnUse" id="clipPath49">
<path d="M233 298 L281 298 L281 314 L233 314 L233 298 Z"/>
</clipPath>
<clipPath clipPathUnits="userSpaceOnUse" id="clipPath50">
<path d="M233 239 L328 239 L328 256 L233 256 L233 239 Z"/>
</clipPath>
<clipPath clipPathUnits="userSpaceOnUse" id="clipPath51">
<path d="M233 280 L376 280 L376 297 L233 297 L233 280 Z"/>
</clipPath>
<clipPath clipPathUnits="userSpaceOnUse" id="clipPath52">
<path d="M216 214 L230 214 L230 238 L216 238 L216 214 Z"/>
</clipPath>
<clipPath clipPathUnits="userSpaceOnUse" id="clipPath53">
<path d="M217 311 L230 311 L230 329 L217 329 L217 311 Z"/>
</clipPath>
<clipPath clipPathUnits="userSpaceOnUse" id="clipPath54">
<path d="M153 237 L178 237 L178 254 L153 254 L153 237 Z"/>
</clipPath>
<clipPath clipPathUnits="userSpaceOnUse" id="clipPath55">
<path d="M64 235 L137 235 L137 252 L64 252 L64 235 Z"/>
</clipPath>
<clipPath clipPathUnits="userSpaceOnUse" id="clipPath56">
<path d="M153 294 L163 294 L163 311 L153 311 L153 294 Z"/>
</clipPath>
<clipPath clipPathUnits="userSpaceOnUse" id="clipPath57">
<path d="M64 294 L138 294 L138 310 L64 310 L64 294 Z"/>
</clipPath>
<clipPath clipPathUnits="userSpaceOnUse" id="clipPath58">
<path d="M22 223 L143 223 L143 240 L22 240 L22 223 Z"/>
</clipPath>
<clipPath clipPathUnits="userSpaceOnUse" id="clipPath59">
<path d="M49 266 L140 266 L140 297 L49 297 L49 266 Z"/>
</clipPath>
<clipPath clipPathUnits="userSpaceOnUse" id="clipPath60">
<path d="M138 214 L152 214 L152 238 L138 238 L138 214 Z"/>
</clipPath>
<clipPath clipPathUnits="userSpaceOnUse" id="clipPath61">
<path d="M138 305 L151 305 L151 323 L138 323 L138 305 Z"/>
</clipPath>
</defs>
<g font-size="11" fill="white" font-family="'Tahoma'" stroke-linejoin="round" stroke="white" stroke-width="0" stroke-miterlimit="0">
<rect x="549" y="184" clip-path="url(#clipPath1)" width="151" height="32" stroke="none"/>
<rect x="549" y="184" clip-path="url(#clipPath1)" width="151" height="32" stroke="none"/>
</g>
<g font-size="11" font-family="'Tahoma'" stroke-linejoin="round" font-style="italic" font-weight="bold" stroke-width="0" stroke-miterlimit="0">
<text xml:space="preserve" x="559" y="198" clip-path="url(#clipPath2)" stroke="none">ExecutionSpecification</text>
</g>
<g font-size="11" stroke-width="1.1827" font-family="'Tahoma'" stroke-linecap="butt">
<line clip-path="url(#clipPath3)" fill="none" x1="549" x2="699" y1="203" y2="203"/>
<rect x="548" y="183" clip-path="url(#clipPath1)" fill="none" width="151" height="32"/>
<rect x="119" y="184" clip-path="url(#clipPath4)" fill="white" width="199" height="32" stroke="none"/>
<rect x="119" y="184" clip-path="url(#clipPath4)" fill="white" width="199" height="32" stroke="none"/>
<text x="186" y="198" clip-path="url(#clipPath5)" stroke="none" font-weight="bold" xml:space="preserve">Interaction</text>
<line clip-path="url(#clipPath6)" fill="none" x1="119" x2="317" y1="203" y2="203"/>
<rect x="118" y="183" clip-path="url(#clipPath4)" fill="none" width="199" height="32"/>
<rect x="460" y="82" clip-path="url(#clipPath7)" fill="white" width="143" height="32" stroke="none"/>
<rect x="460" y="82" clip-path="url(#clipPath7)" fill="white" width="143" height="32" stroke="none"/>
<text x="470" y="96" clip-path="url(#clipPath8)" font-style="italic" stroke="none" font-weight="bold" xml:space="preserve">InteractionFragment</text>
<line clip-path="url(#clipPath9)" fill="none" x1="460" x2="602" y1="101" y2="101"/>
<rect x="459" y="81" clip-path="url(#clipPath7)" fill="none" width="143" height="32"/>
<rect x="358" y="184" clip-path="url(#clipPath10)" fill="white" width="158" height="32" stroke="none"/>
<rect x="358" y="184" clip-path="url(#clipPath10)" fill="white" width="158" height="32" stroke="none"/>
<text x="368" y="198" clip-path="url(#clipPath11)" stroke="none" font-weight="bold" xml:space="preserve">OccurrenceSpecification</text>
<line clip-path="url(#clipPath12)" fill="none" x1="358" x2="515" y1="203" y2="203"/>
<rect x="357" y="183" clip-path="url(#clipPath10)" fill="none" width="158" height="32"/>
<rect x="734" y="184" clip-path="url(#clipPath13)" fill="white" width="105" height="32" stroke="none"/>
<rect x="734" y="184" clip-path="url(#clipPath13)" fill="white" width="105" height="32" stroke="none"/>
<text x="744" y="198" clip-path="url(#clipPath14)" stroke="none" font-weight="bold" xml:space="preserve">StateInvariant</text>
<line clip-path="url(#clipPath15)" fill="none" x1="734" x2="838" y1="203" y2="203"/>
<rect x="733" y="183" clip-path="url(#clipPath13)" fill="none" width="105" height="32"/>
<rect x="478" y="10" clip-path="url(#clipPath16)" fill="white" width="109" height="20" stroke="none"/>
<rect x="478" y="10" clip-path="url(#clipPath16)" fill="white" width="109" height="20" stroke="none"/>
<text x="488" y="24" clip-path="url(#clipPath17)" font-style="italic" stroke="none" font-weight="bold" xml:space="preserve">NamedElement</text>
<rect x="477" y="9" clip-path="url(#clipPath16)" fill="none" width="109" height="20"/>
<rect x="90" y="82" clip-path="url(#clipPath18)" fill="white" width="74" height="20" stroke="none"/>
<rect x="90" y="82" clip-path="url(#clipPath18)" fill="white" width="74" height="20" stroke="none"/>
<text x="100" y="96" clip-path="url(#clipPath19)" font-style="italic" stroke="none" font-weight="bold" xml:space="preserve">Behavior</text>
<rect x="89" y="81" clip-path="url(#clipPath18)" fill="none" width="74" height="20"/>
<rect x="746" y="327" clip-path="url(#clipPath20)" fill="white" width="80" height="20" stroke="none"/>
<rect x="746" y="327" clip-path="url(#clipPath20)" fill="white" width="80" height="20" stroke="none"/>
<text x="756" y="341" clip-path="url(#clipPath21)" stroke="none" font-weight="bold" xml:space="preserve">Constraint</text>
<rect x="745" y="326" clip-path="url(#clipPath20)" fill="none" width="80" height="20"/>
<rect x="197" y="328" clip-path="url(#clipPath22)" fill="white" width="61" height="20" stroke="none"/>
<rect x="197" y="328" clip-path="url(#clipPath22)" fill="white" width="61" height="20" stroke="none"/>
<text x="207" y="342" clip-path="url(#clipPath23)" font-style="italic" stroke="none" font-weight="bold" xml:space="preserve">Action</text>
<rect x="196" y="327" clip-path="url(#clipPath22)" fill="none" width="61" height="20"/>
<rect x="125" y="322" clip-path="url(#clipPath24)" fill="white" width="48" height="20" stroke="none"/>
<rect x="125" y="322" clip-path="url(#clipPath24)" fill="white" width="48" height="20" stroke="none"/>
<text x="135" y="336" clip-path="url(#clipPath25)" stroke="none" font-weight="bold" xml:space="preserve">Gate</text>
<rect x="124" y="321" clip-path="url(#clipPath24)" fill="none" width="48" height="20"/>
<line clip-path="url(#clipPath26)" fill="none" x1="786" x2="786" y1="183" y2="154"/>
<line clip-path="url(#clipPath26)" fill="none" x1="786" x2="531" y1="154" y2="154"/>
<line clip-path="url(#clipPath26)" fill="none" x1="531" x2="531" y1="154" y2="114"/>
<polygon fill="white" clip-path="url(#clipPath27)" points=" 531 114 536 124 526 124" stroke="none"/>
<polygon fill="none" clip-path="url(#clipPath27)" points=" 531 114 536 124 526 124"/>
<line clip-path="url(#clipPath26)" fill="none" x1="435" x2="435" y1="183" y2="154"/>
<line clip-path="url(#clipPath26)" fill="none" x1="435" x2="531" y1="154" y2="154"/>
<line clip-path="url(#clipPath26)" fill="none" x1="531" x2="531" y1="154" y2="114"/>
<polygon fill="white" clip-path="url(#clipPath27)" points=" 531 114 536 124 526 124" stroke="none"/>
<polygon fill="none" clip-path="url(#clipPath27)" points=" 531 114 536 124 526 124"/>
<line clip-path="url(#clipPath26)" fill="none" x1="621" x2="621" y1="183" y2="154"/>
<line clip-path="url(#clipPath26)" fill="none" x1="621" x2="531" y1="154" y2="154"/>
<line clip-path="url(#clipPath26)" fill="none" x1="531" x2="531" y1="154" y2="114"/>
<polygon fill="white" clip-path="url(#clipPath27)" points=" 531 114 536 124 526 124" stroke="none"/>
<polygon fill="none" clip-path="url(#clipPath27)" points=" 531 114 536 124 526 124"/>
<line clip-path="url(#clipPath26)" fill="none" x1="300" x2="300" y1="183" y2="154"/>
<line clip-path="url(#clipPath26)" fill="none" x1="300" x2="531" y1="154" y2="154"/>
<line clip-path="url(#clipPath26)" fill="none" x1="531" x2="531" y1="154" y2="114"/>
<polygon fill="white" clip-path="url(#clipPath27)" points=" 531 114 536 124 526 124" stroke="none"/>
<polygon fill="none" clip-path="url(#clipPath27)" points=" 531 114 536 124 526 124"/>
<line clip-path="url(#clipPath26)" fill="none" x1="261" x2="261" y1="183" y2="98"/>
<line clip-path="url(#clipPath26)" fill="none" x1="261" x2="459" y1="98" y2="98"/>
<text font-size="12" x="268" y="153" clip-path="url(#clipPath28)" stroke="none" xml:space="preserve">0..1</text>
<text font-size="12" x="137" y="153" clip-path="url(#clipPath29)" stroke="none" xml:space="preserve">+ enclosingInteraction</text>
<text font-size="12" x="441" y="117" clip-path="url(#clipPath30)" stroke="none" xml:space="preserve">*</text>
<text font-size="12" x="386" y="88" clip-path="url(#clipPath31)" stroke="none" xml:space="preserve">+ fragment</text>
<text font-size="12" x="142" y="137" clip-path="url(#clipPath32)" stroke="none" xml:space="preserve">{subsets namespace}</text>
<text font-size="12" x="259" y="75" clip-path="url(#clipPath33)" stroke="none" xml:space="preserve">{ordered, subsets ownedMember}</text>
<polygon clip-path="url(#clipPath34)" points=" 261 178 256 168 261 158 266 168" stroke="none"/>
<circle r="2.5" clip-path="url(#clipPath34)" cx="261.5" cy="180.5" stroke="none"/>
<polygon fill="none" stroke-width="1.1" clip-path="url(#clipPath34)" points=" 261 178 256 168 261 158 266 168"/>
<circle clip-path="url(#clipPath34)" fill="none" r="2.5" cx="261.5" cy="180.5" stroke-width="1.1"/>
<circle clip-path="url(#clipPath35)" r="2.5" cx="456.5" cy="98.5" stroke="none" stroke-width="1.1"/>
<circle clip-path="url(#clipPath35)" fill="none" r="2.5" cx="456.5" cy="98.5" stroke-width="1.1"/>
<line clip-path="url(#clipPath26)" fill="none" x1="532" x2="532" y1="81" y2="30"/>
<polygon fill="white" clip-path="url(#clipPath36)" points=" 532 30 537 40 527 40" stroke="none"/>
<polygon fill="none" clip-path="url(#clipPath36)" points=" 532 30 537 40 527 40"/>
<line clip-path="url(#clipPath26)" fill="none" x1="124" x2="124" y1="183" y2="102"/>
<polygon fill="white" clip-path="url(#clipPath37)" points=" 124 102 129 112 119 112" stroke="none"/>
<polygon fill="none" clip-path="url(#clipPath37)" points=" 124 102 129 112 119 112"/>
<line clip-path="url(#clipPath26)" fill="none" x1="786" x2="786" y1="216" y2="326"/>
<text font-size="12" x="792" y="250" clip-path="url(#clipPath38)" stroke="none" xml:space="preserve">0..1</text>
<text font-size="12" x="690" y="250" clip-path="url(#clipPath39)" stroke="none" xml:space="preserve">+ stateInvariant</text>
<text font-size="12" x="794" y="307" clip-path="url(#clipPath40)" stroke="none" xml:space="preserve">1</text>
<text font-size="12" x="723" y="307" clip-path="url(#clipPath41)" stroke="none" xml:space="preserve">+ invariant</text>
<text font-size="12" x="690" y="236" clip-path="url(#clipPath42)" stroke="none" xml:space="preserve">{subsets owner}</text>
<text font-size="12" x="648" y="294" clip-path="url(#clipPath43)" stroke="none" xml:space="preserve">{subsets ownedElement}</text>
<polygon clip-path="url(#clipPath44)" points=" 786 216 791 226 786 235 781 226" stroke="none"/>
<polygon fill="none" clip-path="url(#clipPath44)" points=" 786 216 791 226 786 235 781 226"/>
<circle r="2.5" clip-path="url(#clipPath45)" cx="785.5" cy="323.5" stroke="none"/>
<line clip-path="url(#clipPath45)" fill="none" x1="781" x2="786" y1="311" y2="321" stroke-width="1.1"/>
<line clip-path="url(#clipPath45)" fill="none" x1="786" x2="791" y1="321" y2="311" stroke-width="1.1"/>
<circle clip-path="url(#clipPath45)" fill="none" r="2.5" cx="785.5" cy="323.5" stroke-width="1.1"/>
<line clip-path="url(#clipPath26)" fill="none" x1="223" x2="223" y1="216" y2="327"/>
<text font-size="12" x="193" y="240" clip-path="url(#clipPath46)" stroke="none" xml:space="preserve">0..1</text>
<text font-size="12" x="234" y="240" clip-path="url(#clipPath47)" stroke="none" xml:space="preserve">+ interaction</text>
<text font-size="12" x="204" y="315" clip-path="url(#clipPath48)" stroke="none" xml:space="preserve">*</text>
<text font-size="12" x="234" y="311" clip-path="url(#clipPath49)" stroke="none" xml:space="preserve">+ action</text>
<text font-size="12" x="234" y="252" clip-path="url(#clipPath50)" stroke="none" xml:space="preserve">{subsets owner}</text>
<text font-size="12" x="234" y="293" clip-path="url(#clipPath51)" stroke="none" xml:space="preserve">{subsets ownedElement}</text>
<polygon clip-path="url(#clipPath52)" points=" 223 216 228 226 223 235 218 226" stroke="none"/>
<polygon fill="none" clip-path="url(#clipPath52)" points=" 223 216 228 226 223 235 218 226"/>
<circle r="2.5" clip-path="url(#clipPath53)" cx="222.5" cy="324.5" stroke="none"/>
<line clip-path="url(#clipPath53)" fill="none" x1="218" x2="223" y1="312" y2="322" stroke-width="1.1"/>
<line clip-path="url(#clipPath53)" fill="none" x1="223" x2="228" y1="322" y2="312" stroke-width="1.1"/>
<circle clip-path="url(#clipPath53)" fill="none" r="2.5" cx="222.5" cy="324.5" stroke-width="1.1"/>
<line clip-path="url(#clipPath26)" fill="none" x1="144" x2="144" y1="216" y2="321"/>
<text font-size="12" x="154" y="250" clip-path="url(#clipPath54)" stroke="none" xml:space="preserve">0..1</text>
<text font-size="12" x="65" y="248" clip-path="url(#clipPath55)" stroke="none" xml:space="preserve">+ interaction</text>
<text font-size="12" x="154" y="307" clip-path="url(#clipPath56)" stroke="none" xml:space="preserve">*</text>
<text font-size="12" x="65" y="307" clip-path="url(#clipPath57)" stroke="none" xml:space="preserve">+ formalGate</text>
<text font-size="12" x="23" y="236" clip-path="url(#clipPath58)" stroke="none" xml:space="preserve">{subsets namespace}</text>
<text font-size="12" x="50" y="279" clip-path="url(#clipPath59)" stroke="none" xml:space="preserve">{subsets</text>
<text font-size="12" x="50" y="293" clip-path="url(#clipPath59)" stroke="none" xml:space="preserve">ownedMember}</text>
<polygon clip-path="url(#clipPath60)" points=" 144 216 149 226 144 235 139 226" stroke="none"/>
<polygon fill="none" clip-path="url(#clipPath60)" points=" 144 216 149 226 144 235 139 226"/>
<ellipse clip-path="url(#clipPath61)" rx="2" cx="144" ry="2.5" cy="318.5" stroke="none"/>
<line clip-path="url(#clipPath61)" fill="none" x1="139" x2="144" y1="306" y2="316" stroke-width="1.1"/>
<line clip-path="url(#clipPath61)" fill="none" x1="144" x2="149" y1="316" y2="306" stroke-width="1.1"/>
<circle clip-path="url(#clipPath61)" fill="none" r="2.5" cx="144.5" cy="318.5" stroke-width="1.1"/>
</g>
</g>
</svg>