<?xml version="1.0" encoding="UTF-8"?>
<!DOCTYPE svg PUBLIC "-//W3C//DTD SVG 1.1//EN" "http://www.w3.org/Graphics/SVG/1.1/DTD/svg11.dtd">
<svg version="1.2" width="210mm" height="297mm" viewBox="0 0 21000 29700" preserveAspectRatio="xMidYMid" fill-rule="evenodd" clip-path="url(#presentation_clip_path)" stroke-width="28.222" stroke-linejoin="round" xmlns="http://www.w3.org/2000/svg" xmlns:ooo="http://xml.openoffice.org/svg/export" xmlns:xlink="http://www.w3.org/1999/xlink" xml:space="preserve">
 <defs class="ClipPathGroup">
  <clipPath id="presentation_clip_path" clipPathUnits="userSpaceOnUse">
   <rect x="0" y="0" width="21000" height="29700"/>
  </clipPath>
 </defs>
 <defs class="TextShapeIndex">
  <g ooo:slide="id1" ooo:id-list="id3 id4 id5 id6 id7 id8 id9 id10 id11 id12 id13 id14 id15 id16 id17 id18 id19 id20 id21 id22 id23 id24 id25 id26 id27 id28 id29 id30 id31 id32 id33 id34 id35 id36 id37 id38 id39 id40 id41 id42 id43 id44 id45 id46 id47 id48 id49 id50 id51 id52 id53 id54 id55 id56 id57 id58 id59 id60 id61 id62 id63 id64 id65 id66 id67 id68 id69 id70 id71 id72 id73 id74 id75 id76 id77 id78 id79 id80 id81 id82 id83 id84 id85 id86 id87 id88 id89 id90 id91 id92 id93 id94 id95 id96 id97 id98 id99 id100 id101 id102 id103 id104 id105 id106 id107 id108 id109 id110 id111 id112 id113 id114 id115 id116 id117 id118 id119 id120 id121 id122 id123 id124 id125 id126 id127 id128 id129 id130 id131 id132 id133 id134 id135 id136 id137 id138 id139 id140 id141 id142 id143 id144 id145 id146 id147 id148 id149 id150 id151 id152 id153 id154 id155 id156 id157 id158 id159 id160 id161 id162 id163 id164 id165 id166 id167 id168 id169 id170 id171 id172 id173 id174 id175 id176 id177 id178 id179 id180 id181 id182 id183 id184 id185 id186 id187 id188 id189 id190 id191 id192 id193 id194 id195 id196 id197 id198 id199 id200 id201 id202 id203 id204 id205 id206 id207 id208 id209 id210 id211 id212 id213 id214 id215 id216 id217 id218 id219 id220 id221 id222 id223 id224 id225 id226 id227 id228 id229 id230 id231 id232 id233 id234 id235 id236 id237 id238 id239 id240 id241 id242 id243 id244 id245 id246 id247 id248 id249 id250 id251 id252 id253 id254 id255 id256"/>
 </defs>
 <defs class="EmbeddedBulletChars">
  <g id="bullet-char-template(57356)" transform="scale(0.00048828125,-0.00048828125)">
   <path d="M 580,1141 L 1163,571 580,0 -4,571 580,1141 Z"/>
  </g>
  <g id="bullet-char-template(57354)" transform="scale(0.00048828125,-0.00048828125)">
   <path d="M 8,1128 L 1137,1128 1137,0 8,0 8,1128 Z"/>
  </g>
  <g id="bullet-char-template(10146)" transform="scale(0.00048828125,-0.00048828125)">
   <path d="M 174,0 L 602,739 174,1481 1456,739 174,0 Z M 1358,739 L 309,1346 659,739 1358,739 Z"/>
  </g>
  <g id="bullet-char-template(10132)" transform="scale(0.00048828125,-0.00048828125)">
   <path d="M 2015,739 L 1276,0 717,0 1260,543 174,543 174,936 1260,936 717,1481 1274,1481 2015,739 Z"/>
  </g>
  <g id="bullet-char-template(10007)" transform="scale(0.00048828125,-0.00048828125)">
   <path d="M 0,-2 C -7,14 -16,27 -25,37 L 356,567 C 262,823 215,952 215,954 215,979 228,992 255,992 264,992 276,990 289,987 310,991 331,999 354,1012 L 381,999 492,748 772,1049 836,1024 860,1049 C 881,1039 901,1025 922,1006 886,937 835,863 770,784 769,783 710,716 594,584 L 774,223 C 774,196 753,168 711,139 L 727,119 C 717,90 699,76 672,76 641,76 570,178 457,381 L 164,-76 C 142,-110 111,-127 72,-127 30,-127 9,-110 8,-76 1,-67 -2,-52 -2,-32 -2,-23 -1,-13 0,-2 Z"/>
  </g>
  <g id="bullet-char-template(10004)" transform="scale(0.00048828125,-0.00048828125)">
   <path d="M 285,-33 C 182,-33 111,30 74,156 52,228 41,333 41,471 41,549 55,616 82,672 116,743 169,778 240,778 293,778 328,747 346,684 L 369,508 C 377,444 397,411 428,410 L 1163,1116 C 1174,1127 1196,1133 1229,1133 1271,1133 1292,1118 1292,1087 L 1292,965 C 1292,929 1282,901 1262,881 L 442,47 C 390,-6 338,-33 285,-33 Z"/>
  </g>
  <g id="bullet-char-template(9679)" transform="scale(0.00048828125,-0.00048828125)">
   <path d="M 813,0 C 632,0 489,54 383,161 276,268 223,411 223,592 223,773 276,916 383,1023 489,1130 632,1184 813,1184 992,1184 1136,1130 1245,1023 1353,916 1407,772 1407,592 1407,412 1353,268 1245,161 1136,54 992,0 813,0 Z"/>
  </g>
  <g id="bullet-char-template(8226)" transform="scale(0.00048828125,-0.00048828125)">
   <path d="M 346,457 C 273,457 209,483 155,535 101,586 74,649 74,723 74,796 101,859 155,911 209,963 273,989 346,989 419,989 480,963 531,910 582,859 608,796 608,723 608,648 583,586 532,535 482,483 420,457 346,457 Z"/>
  </g>
  <g id="bullet-char-template(8211)" transform="scale(0.00048828125,-0.00048828125)">
   <path d="M -4,459 L 1135,459 1135,606 -4,606 -4,459 Z"/>
  </g>
 </defs>
 <defs class="TextEmbeddedBitmaps"/>
 <g>
  <g id="id2" class="Master_Slide">
   <g id="bg-id2" class="Background"/>
   <g id="bo-id2" class="BackgroundObjects"/>
  </g>
 </g>
 <g class="SlideGroup">
  <g>
   <g id="id1" class="Slide" clip-path="url(#presentation_clip_path)">
    <g class="Page">
     <g class="Group">
      <g class="com.sun.star.drawing.PolyPolygonShape">
       <g id="id3">
        <path fill="rgb(255,255,255)" stroke="none" d="M 11430,3665 L 11430,3665 11430,2395 11430,2395 11430,3665 Z"/>
       </g>
      </g>
      <g class="com.sun.star.drawing.TextShape">
       <g id="id4"/>
      </g>
     </g>
     <g class="Group">
      <g class="com.sun.star.drawing.PolyPolygonShape">
       <g id="id5">
        <path fill="rgb(255,255,255)" stroke="none" d="M 11430,3665 L 11430,3665 8890,3665 8890,3665 11430,3665 Z"/>
       </g>
      </g>
      <g class="com.sun.star.drawing.TextShape">
       <g id="id6"/>
      </g>
     </g>
     <g class="Group">
      <g class="com.sun.star.drawing.PolyPolygonShape">
       <g id="id7">
        <path fill="rgb(255,255,255)" stroke="none" d="M 11430,3665 L 11430,3665 8890,3665 8890,3665 11430,3665 Z"/>
       </g>
      </g>
      <g class="com.sun.star.drawing.TextShape">
       <g id="id8"/>
      </g>
     </g>
     <g class="Group">
      <g class="com.sun.star.drawing.PolyPolygonShape">
       <g id="id9">
        <path fill="rgb(255,255,255)" stroke="none" d="M 11430,3665 L 11430,3665 8890,3665 8890,3665 11430,3665 Z"/>
       </g>
      </g>
      <g class="com.sun.star.drawing.TextShape">
       <g id="id10"/>
      </g>
     </g>
     <g class="Group">
      <g class="Group">
       <g class="com.sun.star.drawing.PolyPolygonShape">
        <g id="id11">
         <path fill="rgb(255,255,255)" stroke="none" d="M 11430,3665 L 11430,2395 8890,2395 8890,3665 11430,3665 Z M 8890,2395 L 8890,2395 Z M 8890,3665 L 8890,3665 8890,2395 8890,3665 Z M 8890,2395 L 8890,2395 Z M 11430,2395 L 11430,2395 11430,3665 11430,3665 11430,2395 Z"/>
        </g>
       </g>
       <g class="com.sun.star.drawing.PolyLineShape">
        <g id="id12">
         <path fill="none" stroke="rgb(0,0,0)" stroke-width="8" d="M 8890,2395 L 8890,2395 Z"/>
         <path fill="none" stroke="rgb(0,0,0)" stroke-width="8" d="M 11430,3665 L 11430,2395"/>
         <path fill="none" stroke="rgb(0,0,0)" stroke-width="8" d="M 8890,3665 L 8890,2395"/>
         <path fill="none" stroke="rgb(0,0,0)" stroke-width="8" d="M 8890,2395 L 11430,2395"/>
         <path fill="none" stroke="rgb(0,0,0)" stroke-width="8" d="M 8890,3665 L 11430,3665"/>
        </g>
       </g>
      </g>
      <g class="com.sun.star.drawing.TextShape">
       <g id="id13"/>
      </g>
     </g>
     <g class="Group">
      <g class="com.sun.star.drawing.PolyPolygonShape">
       <g id="id14">
        <path fill="rgb(255,255,255)" stroke="none" d="M 7461,6840 L 7461,6840 7461,5570 7461,5570 7461,6840 Z"/>
       </g>
      </g>
      <g class="com.sun.star.drawing.TextShape">
       <g id="id15"/>
      </g>
     </g>
     <g class="Group">
      <g class="com.sun.star.drawing.PolyPolygonShape">
       <g id="id16">
        <path fill="rgb(255,255,255)" stroke="none" d="M 7461,6840 L 7461,6840 4921,6840 4921,6840 7461,6840 Z"/>
       </g>
      </g>
      <g class="com.sun.star.drawing.TextShape">
       <g id="id17"/>
      </g>
     </g>
     <g class="Group">
      <g class="com.sun.star.drawing.PolyPolygonShape">
       <g id="id18">
        <path fill="rgb(255,255,255)" stroke="none" d="M 7461,6840 L 7461,6840 4921,6840 4921,6840 7461,6840 Z"/>
       </g>
      </g>
      <g class="com.sun.star.drawing.TextShape">
       <g id="id19"/>
      </g>
     </g>
     <g class="Group">
      <g class="com.sun.star.drawing.PolyPolygonShape">
       <g id="id20">
        <path fill="rgb(255,255,255)" stroke="none" d="M 7461,6840 L 7461,6840 4921,6840 4921,6840 7461,6840 Z"/>
       </g>
      </g>
      <g class="com.sun.star.drawing.TextShape">
       <g id="id21"/>
      </g>
     </g>
     <g class="Group">
      <g class="Group">
       <g class="com.sun.star.drawing.PolyPolygonShape">
        <g id="id22">
         <path fill="rgb(255,255,255)" stroke="none" d="M 7461,6840 L 7461,5570 4921,5570 4921,6840 7461,6840 Z M 4921,5570 L 4921,5570 Z M 4921,6840 L 4921,6840 4921,5570 4921,6840 Z M 4921,5570 L 4921,5570 Z M 7461,5570 L 7461,5570 7461,6840 7461,6840 7461,5570 Z"/>
        </g>
       </g>
       <g class="com.sun.star.drawing.PolyLineShape">
        <g id="id23">
         <path fill="none" stroke="rgb(0,0,0)" stroke-width="8" d="M 4921,5570 L 4921,5570 Z"/>
         <path fill="none" stroke="rgb(0,0,0)" stroke-width="8" d="M 7461,6840 L 7461,5570"/>
         <path fill="none" stroke="rgb(0,0,0)" stroke-width="8" d="M 4921,6840 L 4921,5570"/>
         <path fill="none" stroke="rgb(0,0,0)" stroke-width="8" d="M 4921,5570 L 7461,5570"/>
         <path fill="none" stroke="rgb(0,0,0)" stroke-width="8" d="M 4921,6840 L 7461,6840"/>
        </g>
       </g>
      </g>
      <g class="com.sun.star.drawing.TextShape">
       <g id="id24"/>
      </g>
     </g>
     <g class="Group">
      <g class="com.sun.star.drawing.PolyPolygonShape">
       <g id="id25">
        <path fill="rgb(255,255,255)" stroke="none" d="M 11430,6840 L 11430,6840 11430,5570 11430,5570 11430,6840 Z"/>
       </g>
      </g>
      <g class="com.sun.star.drawing.TextShape">
       <g id="id26"/>
      </g>
     </g>
     <g class="Group">
      <g class="com.sun.star.drawing.PolyPolygonShape">
       <g id="id27">
        <path fill="rgb(255,255,255)" stroke="none" d="M 11430,6840 L 11430,6840 8890,6840 8890,6840 11430,6840 Z"/>
       </g>
      </g>
      <g class="com.sun.star.drawing.TextShape">
       <g id="id28"/>
      </g>
     </g>
     <g class="Group">
      <g class="com.sun.star.drawing.PolyPolygonShape">
       <g id="id29">
        <path fill="rgb(255,255,255)" stroke="none" d="M 11430,6840 L 11430,6840 8890,6840 8890,6840 11430,6840 Z"/>
       </g>
      </g>
      <g class="com.sun.star.drawing.TextShape">
       <g id="id30"/>
      </g>
     </g>
     <g class="Group">
      <g class="com.sun.star.drawing.PolyPolygonShape">
       <g id="id31">
        <path fill="rgb(255,255,255)" stroke="none" d="M 11430,6840 L 11430,6840 8890,6840 8890,6840 11430,6840 Z"/>
       </g>
      </g>
      <g class="com.sun.star.drawing.TextShape">
       <g id="id32"/>
      </g>
     </g>
     <g class="Group">
      <g class="Group">
       <g class="com.sun.star.drawing.PolyPolygonShape">
        <g id="id33">
         <path fill="rgb(255,255,255)" stroke="none" d="M 11430,6840 L 11430,5570 8890,5570 8890,6840 11430,6840 Z M 8890,5570 L 8890,5570 Z M 8890,6840 L 8890,6840 8890,5570 8890,6840 Z M 8890,5570 L 8890,5570 Z M 11430,5570 L 11430,5570 11430,6840 11430,6840 11430,5570 Z"/>
        </g>
       </g>
       <g class="com.sun.star.drawing.PolyLineShape">
        <g id="id34">
         <path fill="none" stroke="rgb(0,0,0)" stroke-width="8" d="M 8890,5570 L 8890,5570 Z"/>
         <path fill="none" stroke="rgb(0,0,0)" stroke-width="8" d="M 11430,6840 L 11430,5570"/>
         <path fill="none" stroke="rgb(0,0,0)" stroke-width="8" d="M 8890,6840 L 8890,5570"/>
         <path fill="none" stroke="rgb(0,0,0)" stroke-width="8" d="M 8890,5570 L 11430,5570"/>
         <path fill="none" stroke="rgb(0,0,0)" stroke-width="8" d="M 8890,6840 L 11430,6840"/>
        </g>
       </g>
      </g>
      <g class="com.sun.star.drawing.TextShape">
       <g id="id35"/>
      </g>
     </g>
     <g class="Group">
      <g class="com.sun.star.drawing.PolyPolygonShape">
       <g id="id36">
        <path fill="rgb(255,255,255)" stroke="none" d="M 15557,6840 L 15557,6840 15557,5570 15557,5570 15557,6840 Z"/>
       </g>
      </g>
      <g class="com.sun.star.drawing.TextShape">
       <g id="id37"/>
      </g>
     </g>
     <g class="Group">
      <g class="com.sun.star.drawing.PolyPolygonShape">
       <g id="id38">
        <path fill="rgb(255,255,255)" stroke="none" d="M 15557,6840 L 15557,6840 13017,6840 13017,6840 15557,6840 Z"/>
       </g>
      </g>
      <g class="com.sun.star.drawing.TextShape">
       <g id="id39"/>
      </g>
     </g>
     <g class="Group">
      <g class="com.sun.star.drawing.PolyPolygonShape">
       <g id="id40">
        <path fill="rgb(255,255,255)" stroke="none" d="M 15557,6840 L 15557,6840 13017,6840 13017,6840 15557,6840 Z"/>
       </g>
      </g>
      <g class="com.sun.star.drawing.TextShape">
       <g id="id41"/>
      </g>
     </g>
     <g class="Group">
      <g class="com.sun.star.drawing.PolyPolygonShape">
       <g id="id42">
        <path fill="rgb(255,255,255)" stroke="none" d="M 15557,6840 L 15557,6840 13017,6840 13017,6840 15557,6840 Z"/>
       </g>
      </g>
      <g class="com.sun.star.drawing.TextShape">
       <g id="id43"/>
      </g>
     </g>
     <g class="Group">
      <g class="Group">
       <g class="com.sun.star.drawing.PolyPolygonShape">
        <g id="id44">
         <path fill="rgb(255,255,255)" stroke="none" d="M 15557,6840 L 15557,5570 13017,5570 13017,6840 15557,6840 Z M 13017,5570 L 13017,5570 Z M 13017,6840 L 13017,6840 13017,5570 13017,6840 Z M 13017,5570 L 13017,5570 Z M 15557,5570 L 15557,5570 15557,6840 15557,6840 15557,5570 Z"/>
        </g>
       </g>
       <g class="com.sun.star.drawing.PolyLineShape">
        <g id="id45">
         <path fill="none" stroke="rgb(0,0,0)" stroke-width="8" d="M 13017,5570 L 13017,5570 Z"/>
         <path fill="none" stroke="rgb(0,0,0)" stroke-width="8" d="M 15557,6840 L 15557,5570"/>
         <path fill="none" stroke="rgb(0,0,0)" stroke-width="8" d="M 13017,6840 L 13017,5570"/>
         <path fill="none" stroke="rgb(0,0,0)" stroke-width="8" d="M 13017,5570 L 15557,5570"/>
         <path fill="none" stroke="rgb(0,0,0)" stroke-width="8" d="M 13017,6840 L 15557,6840"/>
        </g>
       </g>
      </g>
      <g class="com.sun.star.drawing.TextShape">
       <g id="id46"/>
      </g>
     </g>
     <g class="Group">
      <g class="com.sun.star.drawing.LineShape">
       <g id="id47">
        <path fill="none" stroke="rgb(0,0,0)" stroke-width="8" d="M 6191,5570 L 9112,3900"/>
        <path fill="rgb(0,0,0)" stroke="none" d="M 9524,3665 L 9011,3768 9175,4055 9524,3665 Z M 9352,3764 L 9095,3815 9177,3959 9352,3764 Z"/>
       </g>
      </g>
      <g class="com.sun.star.drawing.TextShape">
       <g id="id48"/>
      </g>
      <g class="com.sun.star.drawing.TextShape">
       <g id="id49">
        <text class="TextShape"><tspan class="TextParagraph" font-family="Tahoma, sans-serif" font-size="353px" font-weight="400"><tspan class="TextPosition" x="4585" y="4758"><tspan fill="rgb(0,0,0)" stroke="none">GeneralizationSet1</tspan></tspan></tspan></text>
       </g>
      </g>
      <g class="com.sun.star.drawing.TextShape">
       <g id="id50"/>
      </g>
      <g class="com.sun.star.drawing.TextShape">
       <g id="id51"/>
      </g>
      <g class="com.sun.star.drawing.TextShape">
       <g id="id52"/>
      </g>
     </g>
     <g class="Group">
      <g class="com.sun.star.drawing.LineShape">
       <g id="id53">
        <path fill="none" stroke="rgb(0,0,0)" stroke-width="8" d="M 10160,5570 L 10160,4139"/>
        <path fill="rgb(0,0,0)" stroke="none" d="M 10160,3665 L 9995,4162 10326,4162 10160,3665 Z M 10160,3864 L 10077,4112 10243,4112 10160,3864 Z"/>
       </g>
      </g>
      <g class="com.sun.star.drawing.TextShape">
       <g id="id54"/>
      </g>
      <g class="com.sun.star.drawing.TextShape">
       <g id="id55">
        <text class="TextShape"><tspan class="TextParagraph" font-family="Tahoma, sans-serif" font-size="353px" font-weight="400"><tspan class="TextPosition" x="7919" y="5075"><tspan fill="rgb(0,0,0)" stroke="none">GeneralizationSet1</tspan></tspan></tspan></text>
       </g>
      </g>
      <g class="com.sun.star.drawing.TextShape">
       <g id="id56"/>
      </g>
      <g class="com.sun.star.drawing.TextShape">
       <g id="id57"/>
      </g>
      <g class="com.sun.star.drawing.TextShape">
       <g id="id58"/>
      </g>
     </g>
     <g class="Group">
      <g class="com.sun.star.drawing.LineShape">
       <g id="id59">
        <path fill="none" stroke="rgb(0,0,0)" stroke-width="8" d="M 14287,5570 L 11211,3892"/>
        <path fill="rgb(0,0,0)" stroke="none" d="M 10795,3665 L 11152,4048 11310,3757 10795,3665 Z M 10969,3760 L 11148,3952 11227,3806 10969,3760 Z"/>
       </g>
      </g>
      <g class="com.sun.star.drawing.TextShape">
       <g id="id60"/>
      </g>
      <g class="com.sun.star.drawing.TextShape">
       <g id="id61"/>
      </g>
      <g class="com.sun.star.drawing.TextShape">
       <g id="id62">
        <text class="TextShape"><tspan class="TextParagraph" font-family="Tahoma, sans-serif" font-size="353px" font-weight="400"><tspan class="TextPosition" x="12999" y="4758"><tspan fill="rgb(0,0,0)" stroke="none">GeneralizationSet2</tspan></tspan></tspan></text>
       </g>
      </g>
      <g class="com.sun.star.drawing.TextShape">
       <g id="id63"/>
      </g>
      <g class="com.sun.star.drawing.TextShape">
       <g id="id64"/>
      </g>
     </g>
     <g class="Group">
      <g class="com.sun.star.drawing.PolyPolygonShape">
       <g id="id65">
        <path fill="rgb(255,255,255)" stroke="none" d="M 6191,10967 L 6191,10967 6191,9697 6191,9697 6191,10967 Z"/>
       </g>
      </g>
      <g class="com.sun.star.drawing.TextShape">
       <g id="id66"/>
      </g>
     </g>
     <g class="Group">
      <g class="com.sun.star.drawing.PolyPolygonShape">
       <g id="id67">
        <path fill="rgb(255,255,255)" stroke="none" d="M 6191,10967 L 6191,10967 3651,10967 3651,10967 6191,10967 Z"/>
       </g>
      </g>
      <g class="com.sun.star.drawing.TextShape">
       <g id="id68"/>
      </g>
     </g>
     <g class="Group">
      <g class="com.sun.star.drawing.PolyPolygonShape">
       <g id="id69">
        <path fill="rgb(255,255,255)" stroke="none" d="M 6191,10967 L 6191,10967 3651,10967 3651,10967 6191,10967 Z"/>
       </g>
      </g>
      <g class="com.sun.star.drawing.TextShape">
       <g id="id70"/>
      </g>
     </g>
     <g class="Group">
      <g class="com.sun.star.drawing.PolyPolygonShape">
       <g id="id71">
        <path fill="rgb(255,255,255)" stroke="none" d="M 6191,10967 L 6191,10967 3651,10967 3651,10967 6191,10967 Z"/>
       </g>
      </g>
      <g class="com.sun.star.drawing.TextShape">
       <g id="id72"/>
      </g>
     </g>
     <g class="Group">
      <g class="Group">
       <g class="com.sun.star.drawing.PolyPolygonShape">
        <g id="id73">
         <path fill="rgb(255,255,255)" stroke="none" d="M 6191,10967 L 6191,9697 3651,9697 3651,10967 6191,10967 Z M 3651,9697 L 3651,9697 Z M 3651,10967 L 3651,10967 3651,9697 3651,10967 Z M 3651,9697 L 3651,9697 Z M 6191,9697 L 6191,9697 6191,10967 6191,10967 6191,9697 Z"/>
        </g>
       </g>
       <g class="com.sun.star.drawing.PolyLineShape">
        <g id="id74">
         <path fill="none" stroke="rgb(0,0,0)" stroke-width="8" d="M 3651,9697 L 3651,9697 Z"/>
         <path fill="none" stroke="rgb(0,0,0)" stroke-width="8" d="M 6191,10967 L 6191,9697"/>
         <path fill="none" stroke="rgb(0,0,0)" stroke-width="8" d="M 3651,10967 L 3651,9697"/>
         <path fill="none" stroke="rgb(0,0,0)" stroke-width="8" d="M 3651,9697 L 6191,9697"/>
         <path fill="none" stroke="rgb(0,0,0)" stroke-width="8" d="M 3651,10967 L 6191,10967"/>
        </g>
       </g>
      </g>
      <g class="com.sun.star.drawing.TextShape">
       <g id="id75"/>
      </g>
     </g>
     <g class="Group">
      <g class="com.sun.star.drawing.PolyPolygonShape">
       <g id="id76">
        <path fill="rgb(255,255,255)" stroke="none" d="M 3016,14142 L 3016,14142 3016,12872 3016,12872 3016,14142 Z"/>
       </g>
      </g>
      <g class="com.sun.star.drawing.TextShape">
       <g id="id77"/>
      </g>
     </g>
     <g class="Group">
      <g class="com.sun.star.drawing.PolyPolygonShape">
       <g id="id78">
        <path fill="rgb(255,255,255)" stroke="none" d="M 3016,14142 L 3016,14142 476,14142 476,14142 3016,14142 Z"/>
       </g>
      </g>
      <g class="com.sun.star.drawing.TextShape">
       <g id="id79"/>
      </g>
     </g>
     <g class="Group">
      <g class="com.sun.star.drawing.PolyPolygonShape">
       <g id="id80">
        <path fill="rgb(255,255,255)" stroke="none" d="M 3016,14142 L 3016,14142 476,14142 476,14142 3016,14142 Z"/>
       </g>
      </g>
      <g class="com.sun.star.drawing.TextShape">
       <g id="id81"/>
      </g>
     </g>
     <g class="Group">
      <g class="com.sun.star.drawing.PolyPolygonShape">
       <g id="id82">
        <path fill="rgb(255,255,255)" stroke="none" d="M 3016,14142 L 3016,14142 476,14142 476,14142 3016,14142 Z"/>
       </g>
      </g>
      <g class="com.sun.star.drawing.TextShape">
       <g id="id83"/>
      </g>
     </g>
     <g class="Group">
      <g class="Group">
       <g class="com.sun.star.drawing.PolyPolygonShape">
        <g id="id84">
         <path fill="rgb(255,255,255)" stroke="none" d="M 3016,14142 L 3016,12872 476,12872 476,14142 3016,14142 Z M 476,12872 L 476,12872 Z M 476,14142 L 476,14142 476,12872 476,14142 Z M 476,12872 L 476,12872 Z M 3016,12872 L 3016,12872 3016,14142 3016,14142 3016,12872 Z"/>
        </g>
       </g>
       <g class="com.sun.star.drawing.PolyLineShape">
        <g id="id85">
         <path fill="none" stroke="rgb(0,0,0)" stroke-width="8" d="M 476,12872 L 476,12872 Z"/>
         <path fill="none" stroke="rgb(0,0,0)" stroke-width="8" d="M 3016,14142 L 3016,12872"/>
         <path fill="none" stroke="rgb(0,0,0)" stroke-width="8" d="M 476,14142 L 476,12872"/>
         <path fill="none" stroke="rgb(0,0,0)" stroke-width="8" d="M 476,12872 L 3016,12872"/>
         <path fill="none" stroke="rgb(0,0,0)" stroke-width="8" d="M 476,14142 L 3016,14142"/>
        </g>
       </g>
      </g>
      <g class="com.sun.star.drawing.TextShape">
       <g id="id86"/>
      </g>
     </g>
     <g class="Group">
      <g class="com.sun.star.drawing.PolyPolygonShape">
       <g id="id87">
        <path fill="rgb(255,255,255)" stroke="none" d="M 6191,14142 L 6191,14142 6191,12872 6191,12872 6191,14142 Z"/>
       </g>
      </g>
      <g class="com.sun.star.drawing.TextShape">
       <g id="id88"/>
      </g>
     </g>
     <g class="Group">
      <g class="com.sun.star.drawing.PolyPolygonShape">
       <g id="id89">
        <path fill="rgb(255,255,255)" stroke="none" d="M 6191,14142 L 6191,14142 3651,14142 3651,14142 6191,14142 Z"/>
       </g>
      </g>
      <g class="com.sun.star.drawing.TextShape">
       <g id="id90"/>
      </g>
     </g>
     <g class="Group">
      <g class="com.sun.star.drawing.PolyPolygonShape">
       <g id="id91">
        <path fill="rgb(255,255,255)" stroke="none" d="M 6191,14142 L 6191,14142 3651,14142 3651,14142 6191,14142 Z"/>
       </g>
      </g>
      <g class="com.sun.star.drawing.TextShape">
       <g id="id92"/>
      </g>
     </g>
     <g class="Group">
      <g class="com.sun.star.drawing.PolyPolygonShape">
       <g id="id93">
        <path fill="rgb(255,255,255)" stroke="none" d="M 6191,14142 L 6191,14142 3651,14142 3651,14142 6191,14142 Z"/>
       </g>
      </g>
      <g class="com.sun.star.drawing.TextShape">
       <g id="id94"/>
      </g>
     </g>
     <g class="Group">
      <g class="Group">
       <g class="com.sun.star.drawing.PolyPolygonShape">
        <g id="id95">
         <path fill="rgb(255,255,255)" stroke="none" d="M 6191,14142 L 6191,12872 3651,12872 3651,14142 6191,14142 Z M 3651,12872 L 3651,12872 Z M 3651,14142 L 3651,14142 3651,12872 3651,14142 Z M 3651,12872 L 3651,12872 Z M 6191,12872 L 6191,12872 6191,14142 6191,14142 6191,12872 Z"/>
        </g>
       </g>
       <g class="com.sun.star.drawing.PolyLineShape">
        <g id="id96">
         <path fill="none" stroke="rgb(0,0,0)" stroke-width="8" d="M 3651,12872 L 3651,12872 Z"/>
         <path fill="none" stroke="rgb(0,0,0)" stroke-width="8" d="M 6191,14142 L 6191,12872"/>
         <path fill="none" stroke="rgb(0,0,0)" stroke-width="8" d="M 3651,14142 L 3651,12872"/>
         <path fill="none" stroke="rgb(0,0,0)" stroke-width="8" d="M 3651,12872 L 6191,12872"/>
         <path fill="none" stroke="rgb(0,0,0)" stroke-width="8" d="M 3651,14142 L 6191,14142"/>
        </g>
       </g>
      </g>
      <g class="com.sun.star.drawing.TextShape">
       <g id="id97"/>
      </g>
     </g>
     <g class="Group">
      <g class="com.sun.star.drawing.PolyPolygonShape">
       <g id="id98">
        <path fill="rgb(255,255,255)" stroke="none" d="M 9366,14142 L 9366,14142 9366,12872 9366,12872 9366,14142 Z"/>
       </g>
      </g>
      <g class="com.sun.star.drawing.TextShape">
       <g id="id99"/>
      </g>
     </g>
     <g class="Group">
      <g class="com.sun.star.drawing.PolyPolygonShape">
       <g id="id100">
        <path fill="rgb(255,255,255)" stroke="none" d="M 9366,14142 L 9366,14142 6826,14142 6826,14142 9366,14142 Z"/>
       </g>
      </g>
      <g class="com.sun.star.drawing.TextShape">
       <g id="id101"/>
      </g>
     </g>
     <g class="Group">
      <g class="com.sun.star.drawing.PolyPolygonShape">
       <g id="id102">
        <path fill="rgb(255,255,255)" stroke="none" d="M 9366,14142 L 9366,14142 6826,14142 6826,14142 9366,14142 Z"/>
       </g>
      </g>
      <g class="com.sun.star.drawing.TextShape">
       <g id="id103"/>
      </g>
     </g>
     <g class="Group">
      <g class="com.sun.star.drawing.PolyPolygonShape">
       <g id="id104">
        <path fill="rgb(255,255,255)" stroke="none" d="M 9366,14142 L 9366,14142 6826,14142 6826,14142 9366,14142 Z"/>
       </g>
      </g>
      <g class="com.sun.star.drawing.TextShape">
       <g id="id105"/>
      </g>
     </g>
     <g class="Group">
      <g class="Group">
       <g class="com.sun.star.drawing.PolyPolygonShape">
        <g id="id106">
         <path fill="rgb(255,255,255)" stroke="none" d="M 9366,14142 L 9366,12872 6826,12872 6826,14142 9366,14142 Z M 6826,12872 L 6826,12872 Z M 6826,14142 L 6826,14142 6826,12872 6826,14142 Z M 6826,12872 L 6826,12872 Z M 9366,12872 L 9366,12872 9366,14142 9366,14142 9366,12872 Z"/>
        </g>
       </g>
       <g class="com.sun.star.drawing.PolyLineShape">
        <g id="id107">
         <path fill="none" stroke="rgb(0,0,0)" stroke-width="8" d="M 6826,12872 L 6826,12872 Z"/>
         <path fill="none" stroke="rgb(0,0,0)" stroke-width="8" d="M 9366,14142 L 9366,12872"/>
         <path fill="none" stroke="rgb(0,0,0)" stroke-width="8" d="M 6826,14142 L 6826,12872"/>
         <path fill="none" stroke="rgb(0,0,0)" stroke-width="8" d="M 6826,12872 L 9366,12872"/>
         <path fill="none" stroke="rgb(0,0,0)" stroke-width="8" d="M 6826,14142 L 9366,14142"/>
        </g>
       </g>
      </g>
      <g class="com.sun.star.drawing.TextShape">
       <g id="id108"/>
      </g>
     </g>
     <g class="Group">
      <g class="com.sun.star.drawing.PolyLineShape">
       <g id="id109">
        <path fill="none" stroke="rgb(0,0,0)" stroke-width="8" d="M 1746,12872 L 1746,12237 4921,12237 4921,11441"/>
        <path fill="rgb(0,0,0)" stroke="none" d="M 4921,10967 L 4756,11464 5087,11464 4921,10967 Z M 4921,11166 L 4838,11414 5004,11414 4921,11166 Z"/>
       </g>
      </g>
      <g class="com.sun.star.drawing.TextShape">
       <g id="id110"/>
      </g>
      <g class="com.sun.star.drawing.TextShape">
       <g id="id111">
        <text class="TextShape"><tspan class="TextParagraph" font-family="Tahoma, sans-serif" font-size="353px" font-weight="400"><tspan class="TextPosition" x="1886" y="12060"><tspan fill="rgb(0,0,0)" stroke="none">GeneralizationSet1</tspan></tspan></tspan></text>
       </g>
      </g>
      <g class="com.sun.star.drawing.TextShape">
       <g id="id112"/>
      </g>
      <g class="com.sun.star.drawing.TextShape">
       <g id="id113"/>
      </g>
      <g class="com.sun.star.drawing.TextShape">
       <g id="id114"/>
      </g>
     </g>
     <g class="Group">
      <g class="com.sun.star.drawing.LineShape">
       <g id="id115">
        <path fill="none" stroke="rgb(0,0,0)" stroke-width="8" d="M 8096,12872 L 5936,11252"/>
        <path fill="rgb(0,0,0)" stroke="none" d="M 5556,10967 L 5854,11397 6053,11133 5556,10967 Z M 5715,11086 L 5864,11301 5963,11169 5715,11086 Z"/>
       </g>
      </g>
      <g class="com.sun.star.drawing.TextShape">
       <g id="id116"/>
      </g>
      <g class="com.sun.star.drawing.TextShape">
       <g id="id117"/>
      </g>
      <g class="com.sun.star.drawing.TextShape">
       <g id="id118">
        <text class="TextShape"><tspan class="TextParagraph" font-family="Tahoma, sans-serif" font-size="353px" font-weight="400"><tspan class="TextPosition" x="6649" y="11743"><tspan fill="rgb(0,0,0)" stroke="none">GeneralizationSet2</tspan></tspan></tspan></text>
       </g>
      </g>
      <g class="com.sun.star.drawing.TextShape">
       <g id="id119"/>
      </g>
      <g class="com.sun.star.drawing.TextShape">
       <g id="id120"/>
      </g>
     </g>
     <g class="Group">
      <g class="com.sun.star.drawing.LineShape">
       <g id="id121">
        <path fill="none" stroke="rgb(0,0,0)" stroke-width="8" d="M 4921,12872 L 4921,11441"/>
        <path fill="rgb(0,0,0)" stroke="none" d="M 4921,10967 L 4756,11464 5087,11464 4921,10967 Z M 4921,11166 L 4838,11414 5004,11414 4921,11166 Z"/>
       </g>
      </g>
      <g class="com.sun.star.drawing.TextShape">
       <g id="id122"/>
      </g>
      <g class="com.sun.star.drawing.TextShape">
       <g id="id123"/>
      </g>
      <g class="com.sun.star.drawing.TextShape">
       <g id="id124"/>
      </g>
      <g class="com.sun.star.drawing.TextShape">
       <g id="id125"/>
      </g>
      <g class="com.sun.star.drawing.TextShape">
       <g id="id126"/>
      </g>
     </g>
     <g class="Group">
      <g class="com.sun.star.drawing.PolyPolygonShape">
       <g id="id127">
        <path fill="rgb(255,255,255)" stroke="none" d="M 16827,10967 L 16827,10967 16827,9697 16827,9697 16827,10967 Z"/>
       </g>
      </g>
      <g class="com.sun.star.drawing.TextShape">
       <g id="id128"/>
      </g>
     </g>
     <g class="Group">
      <g class="com.sun.star.drawing.PolyPolygonShape">
       <g id="id129">
        <path fill="rgb(255,255,255)" stroke="none" d="M 16827,10967 L 16827,10967 14287,10967 14287,10967 16827,10967 Z"/>
       </g>
      </g>
      <g class="com.sun.star.drawing.TextShape">
       <g id="id130"/>
      </g>
     </g>
     <g class="Group">
      <g class="com.sun.star.drawing.PolyPolygonShape">
       <g id="id131">
        <path fill="rgb(255,255,255)" stroke="none" d="M 16827,10967 L 16827,10967 14287,10967 14287,10967 16827,10967 Z"/>
       </g>
      </g>
      <g class="com.sun.star.drawing.TextShape">
       <g id="id132"/>
      </g>
     </g>
     <g class="Group">
      <g class="com.sun.star.drawing.PolyPolygonShape">
       <g id="id133">
        <path fill="rgb(255,255,255)" stroke="none" d="M 16827,10967 L 16827,10967 14287,10967 14287,10967 16827,10967 Z"/>
       </g>
      </g>
      <g class="com.sun.star.drawing.TextShape">
       <g id="id134"/>
      </g>
     </g>
     <g class="Group">
      <g class="Group">
       <g class="com.sun.star.drawing.PolyPolygonShape">
        <g id="id135">
         <path fill="rgb(255,255,255)" stroke="none" d="M 16827,10967 L 16827,9697 14287,9697 14287,10967 16827,10967 Z M 14287,9697 L 14287,9697 Z M 14287,10967 L 14287,10967 14287,9697 14287,10967 Z M 14287,9697 L 14287,9697 Z M 16827,9697 L 16827,9697 16827,10967 16827,10967 16827,9697 Z"/>
        </g>
       </g>
       <g class="com.sun.star.drawing.PolyLineShape">
        <g id="id136">
         <path fill="none" stroke="rgb(0,0,0)" stroke-width="8" d="M 14287,9697 L 14287,9697 Z"/>
         <path fill="none" stroke="rgb(0,0,0)" stroke-width="8" d="M 16827,10967 L 16827,9697"/>
         <path fill="none" stroke="rgb(0,0,0)" stroke-width="8" d="M 14287,10967 L 14287,9697"/>
         <path fill="none" stroke="rgb(0,0,0)" stroke-width="8" d="M 14287,9697 L 16827,9697"/>
         <path fill="none" stroke="rgb(0,0,0)" stroke-width="8" d="M 14287,10967 L 16827,10967"/>
        </g>
       </g>
      </g>
      <g class="com.sun.star.drawing.TextShape">
       <g id="id137"/>
      </g>
     </g>
     <g class="Group">
      <g class="com.sun.star.drawing.PolyPolygonShape">
       <g id="id138">
        <path fill="rgb(255,255,255)" stroke="none" d="M 14287,14142 L 14287,14142 14287,12872 14287,12872 14287,14142 Z"/>
       </g>
      </g>
      <g class="com.sun.star.drawing.TextShape">
       <g id="id139"/>
      </g>
     </g>
     <g class="Group">
      <g class="com.sun.star.drawing.PolyPolygonShape">
       <g id="id140">
        <path fill="rgb(255,255,255)" stroke="none" d="M 14287,14142 L 14287,14142 11747,14142 11747,14142 14287,14142 Z"/>
       </g>
      </g>
      <g class="com.sun.star.drawing.TextShape">
       <g id="id141"/>
      </g>
     </g>
     <g class="Group">
      <g class="com.sun.star.drawing.PolyPolygonShape">
       <g id="id142">
        <path fill="rgb(255,255,255)" stroke="none" d="M 14287,14142 L 14287,14142 11747,14142 11747,14142 14287,14142 Z"/>
       </g>
      </g>
      <g class="com.sun.star.drawing.TextShape">
       <g id="id143"/>
      </g>
     </g>
     <g class="Group">
      <g class="com.sun.star.drawing.PolyPolygonShape">
       <g id="id144">
        <path fill="rgb(255,255,255)" stroke="none" d="M 14287,14142 L 14287,14142 11747,14142 11747,14142 14287,14142 Z"/>
       </g>
      </g>
      <g class="com.sun.star.drawing.TextShape">
       <g id="id145"/>
      </g>
     </g>
     <g class="Group">
      <g class="Group">
       <g class="com.sun.star.drawing.PolyPolygonShape">
        <g id="id146">
         <path fill="rgb(255,255,255)" stroke="none" d="M 14287,14142 L 14287,12872 11747,12872 11747,14142 14287,14142 Z M 11747,12872 L 11747,12872 Z M 11747,14142 L 11747,14142 11747,12872 11747,14142 Z M 11747,12872 L 11747,12872 Z M 14287,12872 L 14287,12872 14287,14142 14287,14142 14287,12872 Z"/>
        </g>
       </g>
       <g class="com.sun.star.drawing.PolyLineShape">
        <g id="id147">
         <path fill="none" stroke="rgb(0,0,0)" stroke-width="8" d="M 11747,12872 L 11747,12872 Z"/>
         <path fill="none" stroke="rgb(0,0,0)" stroke-width="8" d="M 14287,14142 L 14287,12872"/>
         <path fill="none" stroke="rgb(0,0,0)" stroke-width="8" d="M 11747,14142 L 11747,12872"/>
         <path fill="none" stroke="rgb(0,0,0)" stroke-width="8" d="M 11747,12872 L 14287,12872"/>
         <path fill="none" stroke="rgb(0,0,0)" stroke-width="8" d="M 11747,14142 L 14287,14142"/>
        </g>
       </g>
      </g>
      <g class="com.sun.star.drawing.TextShape">
       <g id="id148"/>
      </g>
     </g>
     <g class="Group">
      <g class="com.sun.star.drawing.PolyPolygonShape">
       <g id="id149">
        <path fill="rgb(255,255,255)" stroke="none" d="M 14287,15730 L 14287,15730 14287,14460 14287,14460 14287,15730 Z"/>
       </g>
      </g>
      <g class="com.sun.star.drawing.TextShape">
       <g id="id150"/>
      </g>
     </g>
     <g class="Group">
      <g class="com.sun.star.drawing.PolyPolygonShape">
       <g id="id151">
        <path fill="rgb(255,255,255)" stroke="none" d="M 14287,15730 L 14287,15730 11747,15730 11747,15730 14287,15730 Z"/>
       </g>
      </g>
      <g class="com.sun.star.drawing.TextShape">
       <g id="id152"/>
      </g>
     </g>
     <g class="Group">
      <g class="com.sun.star.drawing.PolyPolygonShape">
       <g id="id153">
        <path fill="rgb(255,255,255)" stroke="none" d="M 14287,15730 L 14287,15730 11747,15730 11747,15730 14287,15730 Z"/>
       </g>
      </g>
      <g class="com.sun.star.drawing.TextShape">
       <g id="id154"/>
      </g>
     </g>
     <g class="Group">
      <g class="com.sun.star.drawing.PolyPolygonShape">
       <g id="id155">
        <path fill="rgb(255,255,255)" stroke="none" d="M 14287,15730 L 14287,15730 11747,15730 11747,15730 14287,15730 Z"/>
       </g>
      </g>
      <g class="com.sun.star.drawing.TextShape">
       <g id="id156"/>
      </g>
     </g>
     <g class="Group">
      <g class="Group">
       <g class="com.sun.star.drawing.PolyPolygonShape">
        <g id="id157">
         <path fill="rgb(255,255,255)" stroke="none" d="M 14287,15730 L 14287,14460 11747,14460 11747,15730 14287,15730 Z M 11747,14460 L 11747,14460 Z M 11747,15730 L 11747,15730 11747,14460 11747,15730 Z M 11747,14460 L 11747,14460 Z M 14287,14460 L 14287,14460 14287,15730 14287,15730 14287,14460 Z"/>
        </g>
       </g>
       <g class="com.sun.star.drawing.PolyLineShape">
        <g id="id158">
         <path fill="none" stroke="rgb(0,0,0)" stroke-width="8" d="M 11747,14460 L 11747,14460 Z"/>
         <path fill="none" stroke="rgb(0,0,0)" stroke-width="8" d="M 14287,15730 L 14287,14460"/>
         <path fill="none" stroke="rgb(0,0,0)" stroke-width="8" d="M 11747,15730 L 11747,14460"/>
         <path fill="none" stroke="rgb(0,0,0)" stroke-width="8" d="M 11747,14460 L 14287,14460"/>
         <path fill="none" stroke="rgb(0,0,0)" stroke-width="8" d="M 11747,15730 L 14287,15730"/>
        </g>
       </g>
      </g>
      <g class="com.sun.star.drawing.TextShape">
       <g id="id159"/>
      </g>
     </g>
     <g class="Group">
      <g class="com.sun.star.drawing.PolyPolygonShape">
       <g id="id160">
        <path fill="rgb(255,255,255)" stroke="none" d="M 19209,14142 L 19209,14142 19209,12872 19209,12872 19209,14142 Z"/>
       </g>
      </g>
      <g class="com.sun.star.drawing.TextShape">
       <g id="id161"/>
      </g>
     </g>
     <g class="Group">
      <g class="com.sun.star.drawing.PolyPolygonShape">
       <g id="id162">
        <path fill="rgb(255,255,255)" stroke="none" d="M 19209,14142 L 19209,14142 16669,14142 16669,14142 19209,14142 Z"/>
       </g>
      </g>
      <g class="com.sun.star.drawing.TextShape">
       <g id="id163"/>
      </g>
     </g>
     <g class="Group">
      <g class="com.sun.star.drawing.PolyPolygonShape">
       <g id="id164">
        <path fill="rgb(255,255,255)" stroke="none" d="M 19209,14142 L 19209,14142 16669,14142 16669,14142 19209,14142 Z"/>
       </g>
      </g>
      <g class="com.sun.star.drawing.TextShape">
       <g id="id165"/>
      </g>
     </g>
     <g class="Group">
      <g class="com.sun.star.drawing.PolyPolygonShape">
       <g id="id166">
        <path fill="rgb(255,255,255)" stroke="none" d="M 19209,14142 L 19209,14142 16669,14142 16669,14142 19209,14142 Z"/>
       </g>
      </g>
      <g class="com.sun.star.drawing.TextShape">
       <g id="id167"/>
      </g>
     </g>
     <g class="Group">
      <g class="Group">
       <g class="com.sun.star.drawing.PolyPolygonShape">
        <g id="id168">
         <path fill="rgb(255,255,255)" stroke="none" d="M 19209,14142 L 19209,12872 16669,12872 16669,14142 19209,14142 Z M 16669,12872 L 16669,12872 Z M 16669,14142 L 16669,14142 16669,12872 16669,14142 Z M 16669,12872 L 16669,12872 Z M 19209,12872 L 19209,12872 19209,14142 19209,14142 19209,12872 Z"/>
        </g>
       </g>
       <g class="com.sun.star.drawing.PolyLineShape">
        <g id="id169">
         <path fill="none" stroke="rgb(0,0,0)" stroke-width="8" d="M 16669,12872 L 16669,12872 Z"/>
         <path fill="none" stroke="rgb(0,0,0)" stroke-width="8" d="M 19209,14142 L 19209,12872"/>
         <path fill="none" stroke="rgb(0,0,0)" stroke-width="8" d="M 16669,14142 L 16669,12872"/>
         <path fill="none" stroke="rgb(0,0,0)" stroke-width="8" d="M 16669,12872 L 19209,12872"/>
         <path fill="none" stroke="rgb(0,0,0)" stroke-width="8" d="M 16669,14142 L 19209,14142"/>
        </g>
       </g>
      </g>
      <g class="com.sun.star.drawing.TextShape">
       <g id="id170"/>
      </g>
     </g>
     <g class="Group">
      <g class="com.sun.star.drawing.PolyLineShape">
       <g id="id171">
        <path fill="none" stroke="rgb(0,0,0)" stroke-width="8" d="M 14287,13507 L 14922,13507 14922,11441"/>
        <path fill="rgb(0,0,0)" stroke="none" d="M 14922,10967 L 14757,11464 15088,11464 14922,10967 Z M 14922,11166 L 14839,11414 15005,11414 14922,11166 Z"/>
       </g>
      </g>
      <g class="com.sun.star.drawing.TextShape">
       <g id="id172"/>
      </g>
      <g class="com.sun.star.drawing.TextShape">
       <g id="id173"/>
      </g>
      <g class="com.sun.star.drawing.TextShape">
       <g id="id174"/>
      </g>
      <g class="com.sun.star.drawing.TextShape">
       <g id="id175"/>
      </g>
      <g class="com.sun.star.drawing.TextShape">
       <g id="id176"/>
      </g>
     </g>
     <g class="Group">
      <g class="com.sun.star.drawing.PolyLineShape">
       <g id="id177">
        <path fill="none" stroke="rgb(0,0,0)" stroke-width="8" d="M 14287,15094 L 14922,15094 14922,11441"/>
        <path fill="rgb(0,0,0)" stroke="none" d="M 14922,10967 L 14757,11464 15088,11464 14922,10967 Z M 14922,11166 L 14839,11414 15005,11414 14922,11166 Z"/>
       </g>
      </g>
      <g class="com.sun.star.drawing.TextShape">
       <g id="id178">
        <text class="TextShape"><tspan class="TextParagraph" font-family="Tahoma, sans-serif" font-size="353px" font-weight="400"><tspan class="TextPosition" x="11887" y="12219"><tspan fill="rgb(0,0,0)" stroke="none">GeneralizationSet1</tspan></tspan></tspan></text>
       </g>
      </g>
      <g class="com.sun.star.drawing.TextShape">
       <g id="id179"/>
      </g>
      <g class="com.sun.star.drawing.TextShape">
       <g id="id180"/>
      </g>
      <g class="com.sun.star.drawing.TextShape">
       <g id="id181"/>
      </g>
      <g class="com.sun.star.drawing.TextShape">
       <g id="id182"/>
      </g>
     </g>
     <g class="Group">
      <g class="com.sun.star.drawing.PolyLineShape">
       <g id="id183">
        <path fill="none" stroke="rgb(0,0,0)" stroke-width="8" d="M 16669,13507 L 16193,13507 16193,11441"/>
        <path fill="rgb(0,0,0)" stroke="none" d="M 16193,10967 L 16028,11464 16359,11464 16193,10967 Z M 16193,11166 L 16110,11414 16276,11414 16193,11166 Z"/>
       </g>
      </g>
      <g class="com.sun.star.drawing.TextShape">
       <g id="id184"/>
      </g>
      <g class="com.sun.star.drawing.TextShape">
       <g id="id185"/>
      </g>
      <g class="com.sun.star.drawing.TextShape">
       <g id="id186"/>
      </g>
      <g class="com.sun.star.drawing.TextShape">
       <g id="id187">
        <text class="TextShape"><tspan class="TextParagraph" font-family="Tahoma, sans-serif" font-size="353px" font-weight="400"><tspan class="TextPosition" x="16253" y="12139"><tspan fill="rgb(0,0,0)" stroke="none">GeneralizationSet2</tspan></tspan></tspan></text>
       </g>
      </g>
      <g class="com.sun.star.drawing.TextShape">
       <g id="id188"/>
      </g>
     </g>
     <g class="Group">
      <g class="com.sun.star.drawing.PolyPolygonShape">
       <g id="id189">
        <path fill="rgb(255,255,255)" stroke="none" d="M 11906,19540 L 11906,19540 11906,18270 11906,18270 11906,19540 Z"/>
       </g>
      </g>
      <g class="com.sun.star.drawing.TextShape">
       <g id="id190"/>
      </g>
     </g>
     <g class="Group">
      <g class="com.sun.star.drawing.PolyPolygonShape">
       <g id="id191">
        <path fill="rgb(255,255,255)" stroke="none" d="M 11906,19540 L 11906,19540 9366,19540 9366,19540 11906,19540 Z"/>
       </g>
      </g>
      <g class="com.sun.star.drawing.TextShape">
       <g id="id192"/>
      </g>
     </g>
     <g class="Group">
      <g class="com.sun.star.drawing.PolyPolygonShape">
       <g id="id193">
        <path fill="rgb(255,255,255)" stroke="none" d="M 11906,19540 L 11906,19540 9366,19540 9366,19540 11906,19540 Z"/>
       </g>
      </g>
      <g class="com.sun.star.drawing.TextShape">
       <g id="id194"/>
      </g>
     </g>
     <g class="Group">
      <g class="com.sun.star.drawing.PolyPolygonShape">
       <g id="id195">
        <path fill="rgb(255,255,255)" stroke="none" d="M 11906,19540 L 11906,19540 9366,19540 9366,19540 11906,19540 Z"/>
       </g>
      </g>
      <g class="com.sun.star.drawing.TextShape">
       <g id="id196"/>
      </g>
     </g>
     <g class="Group">
      <g class="Group">
       <g class="com.sun.star.drawing.PolyPolygonShape">
        <g id="id197">
         <path fill="rgb(255,255,255)" stroke="none" d="M 11906,19540 L 11906,18270 9366,18270 9366,19540 11906,19540 Z M 9366,18270 L 9366,18270 Z M 9366,19540 L 9366,19540 9366,18270 9366,19540 Z M 9366,18270 L 9366,18270 Z M 11906,18270 L 11906,18270 11906,19540 11906,19540 11906,18270 Z"/>
        </g>
       </g>
       <g class="com.sun.star.drawing.PolyLineShape">
        <g id="id198">
         <path fill="none" stroke="rgb(0,0,0)" stroke-width="8" d="M 9366,18270 L 9366,18270 Z"/>
         <path fill="none" stroke="rgb(0,0,0)" stroke-width="8" d="M 11906,19540 L 11906,18270"/>
         <path fill="none" stroke="rgb(0,0,0)" stroke-width="8" d="M 9366,19540 L 9366,18270"/>
         <path fill="none" stroke="rgb(0,0,0)" stroke-width="8" d="M 9366,18270 L 11906,18270"/>
         <path fill="none" stroke="rgb(0,0,0)" stroke-width="8" d="M 9366,19540 L 11906,19540"/>
        </g>
       </g>
      </g>
      <g class="com.sun.star.drawing.TextShape">
       <g id="id199"/>
      </g>
     </g>
     <g class="Group">
      <g class="com.sun.star.drawing.PolyPolygonShape">
       <g id="id200">
        <path fill="rgb(255,255,255)" stroke="none" d="M 7938,22715 L 7938,22715 7938,21445 7938,21445 7938,22715 Z"/>
       </g>
      </g>
      <g class="com.sun.star.drawing.TextShape">
       <g id="id201"/>
      </g>
     </g>
     <g class="Group">
      <g class="com.sun.star.drawing.PolyPolygonShape">
       <g id="id202">
        <path fill="rgb(255,255,255)" stroke="none" d="M 7938,22715 L 7938,22715 5398,22715 5398,22715 7938,22715 Z"/>
       </g>
      </g>
      <g class="com.sun.star.drawing.TextShape">
       <g id="id203"/>
      </g>
     </g>
     <g class="Group">
      <g class="com.sun.star.drawing.PolyPolygonShape">
       <g id="id204">
        <path fill="rgb(255,255,255)" stroke="none" d="M 7938,22715 L 7938,22715 5398,22715 5398,22715 7938,22715 Z"/>
       </g>
      </g>
      <g class="com.sun.star.drawing.TextShape">
       <g id="id205"/>
      </g>
     </g>
     <g class="Group">
      <g class="com.sun.star.drawing.PolyPolygonShape">
       <g id="id206">
        <path fill="rgb(255,255,255)" stroke="none" d="M 7938,22715 L 7938,22715 5398,22715 5398,22715 7938,22715 Z"/>
       </g>
      </g>
      <g class="com.sun.star.drawing.TextShape">
       <g id="id207"/>
      </g>
     </g>
     <g class="Group">
      <g class="Group">
       <g class="com.sun.star.drawing.PolyPolygonShape">
        <g id="id208">
         <path fill="rgb(255,255,255)" stroke="none" d="M 7938,22715 L 7938,21445 5398,21445 5398,22715 7938,22715 Z M 5398,21445 L 5398,21445 Z M 5398,22715 L 5398,22715 5398,21445 5398,22715 Z M 5398,21445 L 5398,21445 Z M 7938,21445 L 7938,21445 7938,22715 7938,22715 7938,21445 Z"/>
        </g>
       </g>
       <g class="com.sun.star.drawing.PolyLineShape">
        <g id="id209">
         <path fill="none" stroke="rgb(0,0,0)" stroke-width="8" d="M 5398,21445 L 5398,21445 Z"/>
         <path fill="none" stroke="rgb(0,0,0)" stroke-width="8" d="M 7938,22715 L 7938,21445"/>
         <path fill="none" stroke="rgb(0,0,0)" stroke-width="8" d="M 5398,22715 L 5398,21445"/>
         <path fill="none" stroke="rgb(0,0,0)" stroke-width="8" d="M 5398,21445 L 7938,21445"/>
         <path fill="none" stroke="rgb(0,0,0)" stroke-width="8" d="M 5398,22715 L 7938,22715"/>
        </g>
       </g>
      </g>
      <g class="com.sun.star.drawing.TextShape">
       <g id="id210"/>
      </g>
     </g>
     <g class="Group">
      <g class="com.sun.star.drawing.PolyPolygonShape">
       <g id="id211">
        <path fill="rgb(255,255,255)" stroke="none" d="M 11906,22715 L 11906,22715 11906,21445 11906,21445 11906,22715 Z"/>
       </g>
      </g>
      <g class="com.sun.star.drawing.TextShape">
       <g id="id212"/>
      </g>
     </g>
     <g class="Group">
      <g class="com.sun.star.drawing.PolyPolygonShape">
       <g id="id213">
        <path fill="rgb(255,255,255)" stroke="none" d="M 11906,22715 L 11906,22715 9366,22715 9366,22715 11906,22715 Z"/>
       </g>
      </g>
      <g class="com.sun.star.drawing.TextShape">
       <g id="id214"/>
      </g>
     </g>
     <g class="Group">
      <g class="com.sun.star.drawing.PolyPolygonShape">
       <g id="id215">
        <path fill="rgb(255,255,255)" stroke="none" d="M 11906,22715 L 11906,22715 9366,22715 9366,22715 11906,22715 Z"/>
       </g>
      </g>
      <g class="com.sun.star.drawing.TextShape">
       <g id="id216"/>
      </g>
     </g>
     <g class="Group">
      <g class="com.sun.star.drawing.PolyPolygonShape">
       <g id="id217">
        <path fill="rgb(255,255,255)" stroke="none" d="M 11906,22715 L 11906,22715 9366,22715 9366,22715 11906,22715 Z"/>
       </g>
      </g>
      <g class="com.sun.star.drawing.TextShape">
       <g id="id218"/>
      </g>
     </g>
     <g class="Group">
      <g class="Group">
       <g class="com.sun.star.drawing.PolyPolygonShape">
        <g id="id219">
         <path fill="rgb(255,255,255)" stroke="none" d="M 11906,22715 L 11906,21445 9366,21445 9366,22715 11906,22715 Z M 9366,21445 L 9366,21445 Z M 9366,22715 L 9366,22715 9366,21445 9366,22715 Z M 9366,21445 L 9366,21445 Z M 11906,21445 L 11906,21445 11906,22715 11906,22715 11906,21445 Z"/>
        </g>
       </g>
       <g class="com.sun.star.drawing.PolyLineShape">
        <g id="id220">
         <path fill="none" stroke="rgb(0,0,0)" stroke-width="8" d="M 9366,21445 L 9366,21445 Z"/>
         <path fill="none" stroke="rgb(0,0,0)" stroke-width="8" d="M 11906,22715 L 11906,21445"/>
         <path fill="none" stroke="rgb(0,0,0)" stroke-width="8" d="M 9366,22715 L 9366,21445"/>
         <path fill="none" stroke="rgb(0,0,0)" stroke-width="8" d="M 9366,21445 L 11906,21445"/>
         <path fill="none" stroke="rgb(0,0,0)" stroke-width="8" d="M 9366,22715 L 11906,22715"/>
        </g>
       </g>
      </g>
      <g class="com.sun.star.drawing.TextShape">
       <g id="id221"/>
      </g>
     </g>
     <g class="Group">
      <g class="com.sun.star.drawing.PolyPolygonShape">
       <g id="id222">
        <path fill="rgb(255,255,255)" stroke="none" d="M 16034,22715 L 16034,22715 16034,21445 16034,21445 16034,22715 Z"/>
       </g>
      </g>
      <g class="com.sun.star.drawing.TextShape">
       <g id="id223"/>
      </g>
     </g>
     <g class="Group">
      <g class="com.sun.star.drawing.PolyPolygonShape">
       <g id="id224">
        <path fill="rgb(255,255,255)" stroke="none" d="M 16034,22715 L 16034,22715 13494,22715 13494,22715 16034,22715 Z"/>
       </g>
      </g>
      <g class="com.sun.star.drawing.TextShape">
       <g id="id225"/>
      </g>
     </g>
     <g class="Group">
      <g class="com.sun.star.drawing.PolyPolygonShape">
       <g id="id226">
        <path fill="rgb(255,255,255)" stroke="none" d="M 16034,22715 L 16034,22715 13494,22715 13494,22715 16034,22715 Z"/>
       </g>
      </g>
      <g class="com.sun.star.drawing.TextShape">
       <g id="id227"/>
      </g>
     </g>
     <g class="Group">
      <g class="com.sun.star.drawing.PolyPolygonShape">
       <g id="id228">
        <path fill="rgb(255,255,255)" stroke="none" d="M 16034,22715 L 16034,22715 13494,22715 13494,22715 16034,22715 Z"/>
       </g>
      </g>
      <g class="com.sun.star.drawing.TextShape">
       <g id="id229"/>
      </g>
     </g>
     <g class="Group">
      <g class="Group">
       <g class="com.sun.star.drawing.PolyPolygonShape">
        <g id="id230">
         <path fill="rgb(255,255,255)" stroke="none" d="M 16034,22715 L 16034,21445 13494,21445 13494,22715 16034,22715 Z M 13494,21445 L 13494,21445 Z M 13494,22715 L 13494,22715 13494,21445 13494,22715 Z M 13494,21445 L 13494,21445 Z M 16034,21445 L 16034,21445 16034,22715 16034,22715 16034,21445 Z"/>
        </g>
       </g>
       <g class="com.sun.star.drawing.PolyLineShape">
        <g id="id231">
         <path fill="none" stroke="rgb(0,0,0)" stroke-width="8" d="M 13494,21445 L 13494,21445 Z"/>
         <path fill="none" stroke="rgb(0,0,0)" stroke-width="8" d="M 16034,22715 L 16034,21445"/>
         <path fill="none" stroke="rgb(0,0,0)" stroke-width="8" d="M 13494,22715 L 13494,21445"/>
         <path fill="none" stroke="rgb(0,0,0)" stroke-width="8" d="M 13494,21445 L 16034,21445"/>
         <path fill="none" stroke="rgb(0,0,0)" stroke-width="8" d="M 13494,22715 L 16034,22715"/>
        </g>
       </g>
      </g>
      <g class="com.sun.star.drawing.TextShape">
       <g id="id232"/>
      </g>
     </g>
     <g class="Group">
      <g class="com.sun.star.drawing.LineShape">
       <g id="id233">
        <path fill="none" stroke="rgb(0,0,0)" stroke-width="8" d="M 6668,21445 L 9589,19775"/>
        <path fill="rgb(0,0,0)" stroke="none" d="M 10001,19540 L 9488,19643 9652,19930 10001,19540 Z M 9829,19639 L 9572,19690 9654,19834 9829,19639 Z"/>
       </g>
      </g>
      <g class="com.sun.star.drawing.TextShape">
       <g id="id234"/>
      </g>
      <g class="com.sun.star.drawing.TextShape">
       <g id="id235"/>
      </g>
      <g class="com.sun.star.drawing.TextShape">
       <g id="id236"/>
      </g>
      <g class="com.sun.star.drawing.TextShape">
       <g id="id237"/>
      </g>
      <g class="com.sun.star.drawing.TextShape">
       <g id="id238"/>
      </g>
     </g>
     <g class="Group">
      <g class="com.sun.star.drawing.LineShape">
       <g id="id239">
        <path fill="none" stroke="rgb(0,0,0)" stroke-width="8" d="M 10636,21445 L 10636,20014"/>
        <path fill="rgb(0,0,0)" stroke="none" d="M 10636,19540 L 10471,20037 10802,20037 10636,19540 Z M 10636,19739 L 10553,19987 10719,19987 10636,19739 Z"/>
       </g>
      </g>
      <g class="com.sun.star.drawing.TextShape">
       <g id="id240"/>
      </g>
      <g class="com.sun.star.drawing.TextShape">
       <g id="id241"/>
      </g>
      <g class="com.sun.star.drawing.TextShape">
       <g id="id242"/>
      </g>
      <g class="com.sun.star.drawing.TextShape">
       <g id="id243"/>
      </g>
      <g class="com.sun.star.drawing.TextShape">
       <g id="id244"/>
      </g>
     </g>
     <g class="Group">
      <g class="com.sun.star.drawing.LineShape">
       <g id="id245">
        <path fill="none" stroke="rgb(0,0,0)" stroke-width="8" d="M 14763,21445 L 11687,19767"/>
        <path fill="rgb(0,0,0)" stroke="none" d="M 11271,19540 L 11628,19923 11786,19632 11271,19540 Z M 11445,19635 L 11624,19827 11703,19681 11445,19635 Z"/>
       </g>
      </g>
      <g class="com.sun.star.drawing.TextShape">
       <g id="id246"/>
      </g>
      <g class="com.sun.star.drawing.TextShape">
       <g id="id247"/>
      </g>
      <g class="com.sun.star.drawing.TextShape">
       <g id="id248">
        <text class="TextShape"><tspan class="TextParagraph" font-family="Tahoma, sans-serif" font-size="353px" font-weight="400"><tspan class="TextPosition" x="13475" y="20633"><tspan fill="rgb(0,0,0)" stroke="none">GeneralizationSet2</tspan></tspan></tspan></text>
       </g>
      </g>
      <g class="com.sun.star.drawing.TextShape">
       <g id="id249"/>
      </g>
      <g class="com.sun.star.drawing.TextShape">
       <g id="id250"/>
      </g>
     </g>
     <g class="Group">
      <g class="com.sun.star.drawing.PolyLineShape">
       <g id="id251">
        <path fill="none" stroke="rgb(0,0,0)" stroke-width="8" d="M 7620,20492 L 7668,20492"/>
        <path fill="none" stroke="rgb(0,0,0)" stroke-width="8" d="M 7692,20492 L 7740,20492"/>
        <path fill="none" stroke="rgb(0,0,0)" stroke-width="8" d="M 7764,20492 L 7812,20492"/>
        <path fill="none" stroke="rgb(0,0,0)" stroke-width="8" d="M 7836,20492 L 7884,20492"/>
        <path fill="none" stroke="rgb(0,0,0)" stroke-width="8" d="M 7908,20492 L 7956,20492"/>
        <path fill="none" stroke="rgb(0,0,0)" stroke-width="8" d="M 7980,20492 L 8028,20492"/>
        <path fill="none" stroke="rgb(0,0,0)" stroke-width="8" d="M 8052,20492 L 8100,20492"/>
        <path fill="none" stroke="rgb(0,0,0)" stroke-width="8" d="M 8124,20492 L 8172,20492"/>
        <path fill="none" stroke="rgb(0,0,0)" stroke-width="8" d="M 8196,20492 L 8244,20492"/>
        <path fill="none" stroke="rgb(0,0,0)" stroke-width="8" d="M 8417,20492 L 8465,20492"/>
        <path fill="none" stroke="rgb(0,0,0)" stroke-width="8" d="M 8489,20492 L 8537,20492"/>
        <path fill="none" stroke="rgb(0,0,0)" stroke-width="8" d="M 8561,20492 L 8609,20492"/>
        <path fill="none" stroke="rgb(0,0,0)" stroke-width="8" d="M 8633,20492 L 8681,20492"/>
        <path fill="none" stroke="rgb(0,0,0)" stroke-width="8" d="M 8705,20492 L 8753,20492"/>
        <path fill="none" stroke="rgb(0,0,0)" stroke-width="8" d="M 8777,20492 L 8825,20492"/>
        <path fill="none" stroke="rgb(0,0,0)" stroke-width="8" d="M 8849,20492 L 8897,20492"/>
        <path fill="none" stroke="rgb(0,0,0)" stroke-width="8" d="M 8921,20492 L 8969,20492"/>
        <path fill="none" stroke="rgb(0,0,0)" stroke-width="8" d="M 8993,20492 L 9041,20492"/>
        <path fill="none" stroke="rgb(0,0,0)" stroke-width="8" d="M 9065,20492 L 9113,20492"/>
        <path fill="none" stroke="rgb(0,0,0)" stroke-width="8" d="M 9137,20492 L 9185,20492"/>
        <path fill="none" stroke="rgb(0,0,0)" stroke-width="8" d="M 9209,20492 L 9257,20492"/>
        <path fill="none" stroke="rgb(0,0,0)" stroke-width="8" d="M 9281,20492 L 9329,20492"/>
        <path fill="none" stroke="rgb(0,0,0)" stroke-width="8" d="M 9353,20492 L 9401,20492"/>
        <path fill="none" stroke="rgb(0,0,0)" stroke-width="8" d="M 9425,20492 L 9473,20492"/>
        <path fill="none" stroke="rgb(0,0,0)" stroke-width="8" d="M 9497,20492 L 9545,20492"/>
        <path fill="none" stroke="rgb(0,0,0)" stroke-width="8" d="M 9569,20492 L 9617,20492"/>
        <path fill="none" stroke="rgb(0,0,0)" stroke-width="8" d="M 9641,20492 L 9689,20492"/>
        <path fill="none" stroke="rgb(0,0,0)" stroke-width="8" d="M 9713,20492 L 9761,20492"/>
        <path fill="none" stroke="rgb(0,0,0)" stroke-width="8" d="M 9785,20492 L 9833,20492"/>
        <path fill="none" stroke="rgb(0,0,0)" stroke-width="8" d="M 9857,20492 L 9905,20492"/>
        <path fill="none" stroke="rgb(0,0,0)" stroke-width="8" d="M 9929,20492 L 9977,20492"/>
        <path fill="none" stroke="rgb(0,0,0)" stroke-width="8" d="M 10001,20492 L 10049,20492"/>
        <path fill="none" stroke="rgb(0,0,0)" stroke-width="8" d="M 10073,20492 L 10121,20492"/>
        <path fill="none" stroke="rgb(0,0,0)" stroke-width="8" d="M 10145,20492 L 10193,20492"/>
        <path fill="none" stroke="rgb(0,0,0)" stroke-width="8" d="M 10217,20492 L 10265,20492"/>
        <path fill="none" stroke="rgb(0,0,0)" stroke-width="8" d="M 10289,20492 L 10337,20492"/>
        <path fill="none" stroke="rgb(0,0,0)" stroke-width="8" d="M 10361,20492 L 10409,20492"/>
        <path fill="none" stroke="rgb(0,0,0)" stroke-width="8" d="M 10433,20492 L 10481,20492"/>
        <path fill="none" stroke="rgb(0,0,0)" stroke-width="8" d="M 10505,20492 L 10552,20492"/>
        <path fill="none" stroke="rgb(0,0,0)" stroke-width="8" d="M 10719,20492 L 10767,20492"/>
        <path fill="none" stroke="rgb(0,0,0)" stroke-width="8" d="M 10791,20492 L 10839,20492"/>
        <path fill="none" stroke="rgb(0,0,0)" stroke-width="8" d="M 10863,20492 L 10911,20492"/>
        <path fill="none" stroke="rgb(0,0,0)" stroke-width="8" d="M 10935,20492 L 10983,20492"/>
        <path fill="none" stroke="rgb(0,0,0)" stroke-width="8" d="M 11007,20492 L 11055,20492"/>
        <path fill="none" stroke="rgb(0,0,0)" stroke-width="8" d="M 11079,20492 L 11112,20492"/>
       </g>
      </g>
      <g class="com.sun.star.drawing.TextShape">
       <g id="id252"/>
      </g>
      <g class="com.sun.star.drawing.TextShape">
       <g id="id253"/>
      </g>
      <g class="com.sun.star.drawing.TextShape">
       <g id="id254"/>
      </g>
      <g class="com.sun.star.drawing.TextShape">
       <g id="id255"/>
      </g>
      <g class="com.sun.star.drawing.TextShape">
       <g id="id256">
        <text class="TextShape"><tspan class="TextParagraph" font-family="Tahoma, sans-serif" font-size="353px" font-weight="400"><tspan class="TextPosition" x="5379" y="20394"><tspan fill="rgb(0,0,0)" stroke="none">GeneralizationSet1</tspan></tspan></tspan></text>
       </g>
      </g>
     </g>
    </g>
   </g>
  </g>
 </g>
</svg>