<?xml version="1.0" encoding="UTF-8" standalone="no"?>
<svg
   xmlns:dc="http://purl.org/dc/elements/1.1/"
   xmlns:cc="http://creativecommons.org/ns#"
   xmlns:rdf="http://www.w3.org/1999/02/22-rdf-syntax-ns#"
   xmlns:svg="http://www.w3.org/2000/svg"
   xmlns="http://www.w3.org/2000/svg"
   xmlns:sodipodi="http://sodipodi.sourceforge.net/DTD/sodipodi-0.dtd"
   xmlns:inkscape="http://www.inkscape.org/namespaces/inkscape"
   viewBox="0 0 271.22 223.16"
   id="svg2"
   height="223.16mm"
   width="271.22mm"
   version="1.0"
   inkscape:version="0.91 r13725"
   sodipodi:docname="ExamplesTemplatePackage.svg">
  <sodipodi:namedview
     pagecolor="#ffffff"
     bordercolor="#666666"
     borderopacity="1"
     objecttolerance="10"
     gridtolerance="10"
     guidetolerance="10"
     inkscape:pageopacity="0"
     inkscape:pageshadow="2"
     inkscape:window-width="1388"
     inkscape:window-height="825"
     id="namedview5346"
     showgrid="false"
     inkscape:zoom="0.99"
     inkscape:cx="480.50788"
     inkscape:cy="569.50126"
     inkscape:window-x="0"
     inkscape:window-y="0"
     inkscape:window-maximized="0"
     inkscape:current-layer="svg2" />
  <metadata
     id="metadata591">
    <rdf:RDF>
      <cc:Work
         rdf:about="">
        <dc:format>image/svg+xml</dc:format>
        <dc:type
           rdf:resource="http://purl.org/dc/dcmitype/StillImage" />
        <dc:title />
      </cc:Work>
    </rdf:RDF>
  </metadata>
  <defs
     id="defs4">
    <pattern
       y="0"
       x="0"
       height="6"
       width="6"
       patternUnits="userSpaceOnUse"
       id="EMFhbasepattern" />
  </defs>
  <path
     id="path7"
     d="m 0.74941571,11.086959 0,137.209251 244.66256429,0 0,-137.209251 -244.66256429,0 z"
     style="fill:#ffffff;fill-opacity:1;fill-rule:evenodd;stroke:none;stroke-width:0.5;stroke-miterlimit:4;stroke-dasharray:none" />
  <path
     id="path9"
     d="m 245.41198,11.086959 -244.66256429,0 244.66256429,0 z m -160.573722,0 0,-10.33754329 -84.08884229,0 0,10.33754329 84.08884229,0 z M 0.74941571,148.29621 l 0,-137.209251 0,-10.33754329 0,147.54679429 z M 245.41198,11.086959 l 0,137.209251 0,-137.209251 z"
     style="fill:#ffffff;fill-opacity:1;fill-rule:evenodd;stroke:none;stroke-width:0.5;stroke-miterlimit:4;stroke-dasharray:none" />
  <path
     id="path11"
     d="m 84.838258,11.086959 0,-10.33754329 -84.08884229,0 0,10.33754329 M 245.41198,148.29621 l 0,-137.209251 M 0.74941571,148.29621 l 0,-147.54679429 m 0,10.33754329 244.66256429,0 m -244.66256429,0 244.66256429,0 M 0.74941571,148.29621 l 244.66256429,0"
     style="fill:none;stroke:#000000;stroke-width:0.5;stroke-linecap:round;stroke-linejoin:round;stroke-miterlimit:4;stroke-dasharray:none;stroke-opacity:1" />
  <text
     id="text13"
     y="7.4060001"
     x="20.807333"
     style="font-style:normal;font-variant:normal;font-weight:700;font-size:4.58611107px;line-height:125%;font-family:Arial;text-align:start;letter-spacing:0px;word-spacing:0px;text-anchor:start;fill:#000000;fill-opacity:1;stroke:none;stroke-width:0.5;stroke-miterlimit:4;stroke-dasharray:none"
     xml:space="preserve"><tspan
       id="tspan15"
       y="7.4060001"
       x="20.807333"><tspan
         id="tspan17"
         style="font-style:normal;font-variant:normal;font-weight:700;font-size:4.58611107px;font-family:Arial;fill:#000000;stroke-width:0.5;stroke-miterlimit:4;stroke-dasharray:none"
         dy="0"
         dx="0">ResourceAllocation</tspan></tspan></text>
  <path
     id="path19"
     d="m 203.09191,5.0034613 0,21.6228787 67.44744,0 0,-21.6228787 -67.44744,0 z"
     style="fill:#ffffff;fill-opacity:1;fill-rule:evenodd;stroke:none;stroke-width:0.5;stroke-miterlimit:4;stroke-dasharray:none" />
  <path
     id="path21"
     d="m 203.2683,5.3561262 0,2.4686542 c 0,0.088166 -0.0883,0.1763325 -0.17639,0.1763325 -0.11007,0 -0.17639,-0.088166 -0.17639,-0.1763325 l 0,-2.4686542 c 0,-0.1102078 0.0663,-0.1763324 0.17639,-0.1763324 0.088,0 0.17639,0.066125 0.17639,0.1763324 z m 0,4.2320069 0,2.4686539 c 0,0.08817 -0.0883,0.176333 -0.17639,0.176333 -0.11007,0 -0.17639,-0.08817 -0.17639,-0.176333 l 0,-2.4686539 c 0,-0.1102078 0.0663,-0.1763324 0.17639,-0.1763324 0.088,0 0.17639,0.066125 0.17639,0.1763324 z m 0,4.2319789 0,2.468682 c 0,0.08817 -0.0883,0.176333 -0.17639,0.176333 -0.11007,0 -0.17639,-0.08817 -0.17639,-0.176333 l 0,-2.468682 c 0,-0.110208 0.0663,-0.176333 0.17639,-0.176333 0.088,0 0.17639,0.06612 0.17639,0.176333 z m 0,4.232007 0,2.468682 c 0,0.08817 -0.0883,0.176333 -0.17639,0.176333 -0.11007,0 -0.17639,-0.08817 -0.17639,-0.176333 l 0,-2.468682 c 0,-0.110208 0.0663,-0.176333 0.17639,-0.176333 0.088,0 0.17639,0.06612 0.17639,0.176333 z m 0,4.232007 0,2.468654 c 0,0.08817 -0.0883,0.176332 -0.17639,0.176332 -0.11007,0 -0.17639,-0.08817 -0.17639,-0.176332 l 0,-2.468654 c 0,-0.110208 0.0663,-0.176333 0.17639,-0.176333 0.088,0 0.17639,0.06612 0.17639,0.176333 z m 0,4.232006 0,0.110208 -0.17639,-0.176332 2.33652,0 c 0.11006,0 0.1761,0.08817 0.1761,0.176332 0,0.110208 -0.066,0.176333 -0.1761,0.176333 l -2.33652,0 c -0.11007,0 -0.17639,-0.06612 -0.17639,-0.176333 l 0,-0.110208 c 0,-0.110207 0.0663,-0.176332 0.17639,-0.176332 0.088,0 0.17639,0.06612 0.17639,0.176332 z m 3.92345,-0.06612 2.4686,0 c 0.11007,0 0.17639,0.08817 0.17639,0.176332 0,0.110208 -0.0663,0.176333 -0.17639,0.176333 l -2.4686,0 c -0.0883,0 -0.17639,-0.06612 -0.17639,-0.176333 0,-0.08817 0.0881,-0.176332 0.17639,-0.176332 z m 4.23192,0 2.4686,0 c 0.11035,0 0.17639,0.08817 0.17639,0.176332 0,0.110208 -0.066,0.176333 -0.17639,0.176333 l -2.4686,0 c -0.088,0 -0.17639,-0.06612 -0.17639,-0.176333 0,-0.08817 0.0883,-0.176332 0.17639,-0.176332 z m 4.23193,0 2.46859,0 c 0.11035,0 0.17639,0.08817 0.17639,0.176332 0,0.110208 -0.066,0.176333 -0.17639,0.176333 l -2.46859,0 c -0.0881,0 -0.17639,-0.06612 -0.17639,-0.176333 0,-0.08817 0.0883,-0.176332 0.17639,-0.176332 z m 4.2322,0 2.4686,0 c 0.11006,0 0.17639,0.08817 0.17639,0.176332 0,0.110208 -0.0663,0.176333 -0.17639,0.176333 l -2.4686,0 c -0.0883,0 -0.17639,-0.06612 -0.17639,-0.176333 0,-0.08817 0.0881,-0.176332 0.17639,-0.176332 z m 4.23192,0 2.4686,0 c 0.11035,0 0.17639,0.08817 0.17639,0.176332 0,0.110208 -0.066,0.176333 -0.17639,0.176333 l -2.4686,0 c -0.0883,0 -0.17639,-0.06612 -0.17639,-0.176333 0,-0.08817 0.0881,-0.176332 0.17639,-0.176332 z m 4.23192,0 2.4686,0 c 0.11035,0 0.17639,0.08817 0.17639,0.176332 0,0.110208 -0.066,0.176333 -0.17639,0.176333 l -2.4686,0 c -0.0881,0 -0.17638,-0.06612 -0.17638,-0.176333 0,-0.08817 0.0883,-0.176332 0.17638,-0.176332 z m 4.23193,0 2.46888,0 c 0.11006,0 0.1761,0.08817 0.1761,0.176332 0,0.110208 -0.066,0.176333 -0.1761,0.176333 l -2.46888,0 c -0.0881,0 -0.17611,-0.06612 -0.17611,-0.176333 0,-0.08817 0.0881,-0.176332 0.17611,-0.176332 z m 4.2322,0 2.4686,0 c 0.11007,0 0.17639,0.08817 0.17639,0.176332 0,0.110208 -0.0663,0.176333 -0.17639,0.176333 l -2.4686,0 c -0.0883,0 -0.17639,-0.06612 -0.17639,-0.176333 0,-0.08817 0.0881,-0.176332 0.17639,-0.176332 z m 4.23192,0 2.4686,0 c 0.11035,0 0.17639,0.08817 0.17639,0.176332 0,0.110208 -0.066,0.176333 -0.17639,0.176333 l -2.4686,0 c -0.088,0 -0.17639,-0.06612 -0.17639,-0.176333 0,-0.08817 0.0883,-0.176332 0.17639,-0.176332 z m 4.23193,0 2.46859,0 c 0.11035,0 0.17639,0.08817 0.17639,0.176332 0,0.110208 -0.066,0.176333 -0.17639,0.176333 l -2.46859,0 c -0.0881,0 -0.17639,-0.06612 -0.17639,-0.176333 0,-0.08817 0.0883,-0.176332 0.17639,-0.176332 z m 4.23192,0 2.46888,0 c 0.11006,0 0.17639,0.08817 0.17639,0.176332 0,0.110208 -0.0663,0.176333 -0.17639,0.176333 l -2.46888,0 c -0.0881,0 -0.17611,-0.06612 -0.17611,-0.176333 0,-0.08817 0.0881,-0.176332 0.17611,-0.176332 z m 4.2322,0 2.4686,0 c 0.11007,0 0.17639,0.08817 0.17639,0.176332 0,0.110208 -0.0663,0.176333 -0.17639,0.176333 l -2.4686,0 c -0.0883,0 -0.17639,-0.06612 -0.17639,-0.176333 0,-0.08817 0.0881,-0.176332 0.17639,-0.176332 z m 4.23192,0 2.4686,0 c 0.11035,0 0.17639,0.08817 0.17639,0.176332 0,0.110208 -0.066,0.176333 -0.17639,0.176333 l -2.4686,0 c -0.0881,0 -0.17638,-0.06612 -0.17638,-0.176333 0,-0.08817 0.0883,-0.176332 0.17638,-0.176332 z m 4.23193,0 2.46888,0 c 0.11006,0 0.1761,0.08817 0.1761,0.176332 0,0.110208 -0.066,0.176333 -0.1761,0.176333 l -2.46888,0 c -0.0881,0 -0.17639,-0.06612 -0.17639,-0.176333 0,-0.08817 0.0883,-0.176332 0.17639,-0.176332 z m 4.2322,0 2.4686,0 c 0.11007,0 0.17639,0.08817 0.17639,0.176332 0,0.110208 -0.0663,0.176333 -0.17639,0.176333 l -2.4686,0 c -0.0883,0 -0.17639,-0.06612 -0.17639,-0.176333 0,-0.08817 0.0881,-0.176332 0.17639,-0.176332 z m 3.92317,0.04408 0,-2.468683 c 0,-0.110207 0.0663,-0.176332 0.17639,-0.176332 0.0883,0 0.17639,0.06612 0.17639,0.176332 l 0,2.468683 c 0,0.08817 -0.0881,0.176332 -0.17639,0.176332 -0.11007,0 -0.17639,-0.08817 -0.17639,-0.176332 z m 0,-4.232007 0,-2.468654 c 0,-0.110208 0.0663,-0.176333 0.17639,-0.176333 0.0883,0 0.17639,0.06612 0.17639,0.176333 l 0,2.468654 c 0,0.08817 -0.0881,0.176332 -0.17639,0.176332 -0.11007,0 -0.17639,-0.08817 -0.17639,-0.176332 z m 0,-4.232007 0,-2.468654 c 0,-0.110208 0.0663,-0.176333 0.17639,-0.176333 0.0883,0 0.17639,0.06612 0.17639,0.176333 l 0,2.468654 c 0,0.08817 -0.0881,0.176333 -0.17639,0.176333 -0.11007,0 -0.17639,-0.08817 -0.17639,-0.176333 z m 0,-4.232007 0,-2.468654 c 0,-0.110208 0.0663,-0.176332 0.17639,-0.176332 0.0883,0 0.17639,0.06612 0.17639,0.176332 l 0,2.468654 c 0,0.08817 -0.0881,0.176333 -0.17639,0.176333 -0.11007,0 -0.17639,-0.08817 -0.17639,-0.176333 z m 0,-4.2319784 0,-2.4686825 c 0,-0.1102078 0.0663,-0.1763324 0.17639,-0.1763324 0.0883,0 0.17639,0.066125 0.17639,0.1763324 l 0,2.4686825 c 0,0.088166 -0.0881,0.1763324 -0.17639,0.1763324 -0.11007,0 -0.17639,-0.088166 -0.17639,-0.1763324 z m 0,-4.2320069 0,-0.3306234 0.17639,0.1763325 -2.13811,0 c -0.11007,0 -0.17611,-0.088166 -0.17611,-0.1763325 0,-0.1102077 0.066,-0.1763324 0.17611,-0.1763324 l 2.13811,0 c 0.0883,0 0.17639,0.066125 0.17639,0.1763324 l 0,0.3306234 c 0,0.088166 -0.0881,0.1763324 -0.17639,0.1763324 -0.11007,0 -0.17639,-0.088166 -0.17639,-0.1763324 z m -3.72505,-0.1542909 -2.4686,0 c -0.11006,0 -0.17639,-0.088166 -0.17639,-0.1763325 0,-0.1102077 0.0663,-0.1763324 0.17639,-0.1763324 l 2.4686,0 c 0.0883,0 0.17639,0.066125 0.17639,0.1763324 0,0.088166 -0.0881,0.1763325 -0.17639,0.1763325 z m -4.23192,0 -2.4686,0 c -0.11035,0 -0.17639,-0.088166 -0.17639,-0.1763325 0,-0.1102077 0.066,-0.1763324 0.17639,-0.1763324 l 2.4686,0 c 0.0883,0 0.17639,0.066125 0.17639,0.1763324 0,0.088166 -0.0881,0.1763325 -0.17639,0.1763325 z m -4.23192,0 -2.4686,0 c -0.11035,0 -0.17639,-0.088166 -0.17639,-0.1763325 0,-0.1102077 0.066,-0.1763324 0.17639,-0.1763324 l 2.4686,0 c 0.0881,0 0.17639,0.066125 0.17639,0.1763324 0,0.088166 -0.0883,0.1763325 -0.17639,0.1763325 z m -4.23193,0 -2.46888,0 c -0.11006,0 -0.1761,-0.088166 -0.1761,-0.1763325 0,-0.1102077 0.066,-0.1763324 0.1761,-0.1763324 l 2.46888,0 c 0.0881,0 0.17611,0.066125 0.17611,0.1763324 0,0.088166 -0.088,0.1763325 -0.17611,0.1763325 z m -4.2322,0 -2.4686,0 c -0.11006,0 -0.17639,-0.088166 -0.17639,-0.1763325 0,-0.1102077 0.0663,-0.1763324 0.17639,-0.1763324 l 2.4686,0 c 0.0883,0 0.17639,0.066125 0.17639,0.1763324 0,0.088166 -0.088,0.1763325 -0.17639,0.1763325 z m -4.23192,0 -2.4686,0 c -0.11035,0 -0.17639,-0.088166 -0.17639,-0.1763325 0,-0.1102077 0.066,-0.1763324 0.17639,-0.1763324 l 2.4686,0 c 0.0881,0 0.17639,0.066125 0.17639,0.1763324 0,0.088166 -0.0883,0.1763325 -0.17639,0.1763325 z m -4.23192,0 -2.4686,0 c -0.11035,0 -0.17639,-0.088166 -0.17639,-0.1763325 0,-0.1102077 0.066,-0.1763324 0.17639,-0.1763324 l 2.4686,0 c 0.088,0 0.17638,0.066125 0.17638,0.1763324 0,0.088166 -0.0883,0.1763325 -0.17638,0.1763325 z m -4.23193,0 -2.46888,0 c -0.11006,0 -0.17639,-0.088166 -0.17639,-0.1763325 0,-0.1102077 0.0663,-0.1763324 0.17639,-0.1763324 l 2.46888,0 c 0.0881,0 0.17611,0.066125 0.17611,0.1763324 0,0.088166 -0.0881,0.1763325 -0.17611,0.1763325 z m -4.2322,0 -2.4686,0 c -0.11007,0 -0.17639,-0.088166 -0.17639,-0.1763325 0,-0.1102077 0.0663,-0.1763324 0.17639,-0.1763324 l 2.4686,0 c 0.0883,0 0.17639,0.066125 0.17639,0.1763324 0,0.088166 -0.0881,0.1763325 -0.17639,0.1763325 z m -4.23192,0 -2.4686,0 c -0.11035,0 -0.17639,-0.088166 -0.17639,-0.1763325 0,-0.1102077 0.066,-0.1763324 0.17639,-0.1763324 l 2.4686,0 c 0.0881,0 0.17639,0.066125 0.17639,0.1763324 0,0.088166 -0.0883,0.1763325 -0.17639,0.1763325 z m -4.23193,0 -2.46888,0 c -0.11006,0 -0.1761,-0.088166 -0.1761,-0.1763325 0,-0.1102077 0.066,-0.1763324 0.1761,-0.1763324 l 2.46888,0 c 0.0881,0 0.17639,0.066125 0.17639,0.1763324 0,0.088166 -0.0883,0.1763325 -0.17639,0.1763325 z m -4.2322,0 -2.4686,0 c -0.11006,0 -0.17639,-0.088166 -0.17639,-0.1763325 0,-0.1102077 0.0663,-0.1763324 0.17639,-0.1763324 l 2.4686,0 c 0.0883,0 0.17639,0.066125 0.17639,0.1763324 0,0.088166 -0.0881,0.1763325 -0.17639,0.1763325 z m -4.23192,0 -2.4686,0 c -0.11035,0 -0.17639,-0.088166 -0.17639,-0.1763325 0,-0.1102077 0.066,-0.1763324 0.17639,-0.1763324 l 2.4686,0 c 0.0883,0 0.17639,0.066125 0.17639,0.1763324 0,0.088166 -0.0881,0.1763325 -0.17639,0.1763325 z m -4.23192,0 -2.4686,0 c -0.11035,0 -0.17639,-0.088166 -0.17639,-0.1763325 0,-0.1102077 0.066,-0.1763324 0.17639,-0.1763324 l 2.4686,0 c 0.088,0 0.17638,0.066125 0.17638,0.1763324 0,0.088166 -0.0883,0.1763325 -0.17638,0.1763325 z m -4.23193,0 -2.46888,0 c -0.11006,0 -0.1761,-0.088166 -0.1761,-0.1763325 0,-0.1102077 0.066,-0.1763324 0.1761,-0.1763324 l 2.46888,0 c 0.0881,0 0.17611,0.066125 0.17611,0.1763324 0,0.088166 -0.0881,0.1763325 -0.17611,0.1763325 z m -4.2322,0 -0.066,0 c -0.11007,0 -0.17639,-0.088166 -0.17639,-0.1763325 0,-0.1102077 0.0663,-0.1763324 0.17639,-0.1763324 l 0.066,0 c 0.0883,0 0.17639,0.066125 0.17639,0.1763324 0,0.088166 -0.0881,0.1763325 -0.17639,0.1763325 z"
     style="fill:#000000;fill-opacity:1;fill-rule:nonzero;stroke:#000000;stroke-width:0.5;stroke-linecap:butt;stroke-linejoin:bevel;stroke-miterlimit:4;stroke-dasharray:none;stroke-opacity:1" />
  <path
     id="path49"
     d="m 54.971809,64.978844 0,-21.159893 -42.3199,0 0,21.159893 42.3199,0 z m -42.3199,0 0,-21.159893 0,21.159893 z m 42.3199,-21.159893 0,21.159893 0,-21.159893 z"
     style="fill:#ffffff;fill-opacity:1;fill-rule:evenodd;stroke:none;stroke-width:0.5;stroke-miterlimit:4;stroke-dasharray:none" />
  <path
     id="path51"
     d="m 54.971809,64.978844 0,-21.159893 m -42.3199,21.159893 0,-21.159893 m 0,0 42.3199,0 m -42.3199,21.159893 42.3199,0"
     style="fill:none;stroke:#000000;stroke-width:0.5;stroke-linecap:round;stroke-linejoin:round;stroke-miterlimit:4;stroke-dasharray:none;stroke-opacity:1" />
  <text
     id="text53"
     y="55.721333"
     x="17.633333"
     style="font-style:normal;font-variant:normal;font-weight:700;font-size:4.58611107px;line-height:125%;font-family:Arial;text-align:start;letter-spacing:0px;word-spacing:0px;text-anchor:start;fill:#000000;fill-opacity:1;stroke:none;stroke-width:0.5;stroke-miterlimit:4;stroke-dasharray:none"
     xml:space="preserve"><tspan
       id="tspan55"
       y="55.721333"
       x="17.633333"><tspan
         id="tspan57"
         style="font-style:normal;font-variant:normal;font-weight:700;font-size:4.58611107px;font-family:Arial;fill:#000000;stroke-width:0.5;stroke-miterlimit:4;stroke-dasharray:none"
         dy="0"
         dx="0">$&lt;</tspan></tspan></text>
  <text
     id="text59"
     y="55.721333"
     x="22.923334"
     style="font-style:normal;font-variant:normal;font-weight:700;font-size:4.58611107px;line-height:125%;font-family:Arial;text-align:start;letter-spacing:0px;word-spacing:0px;text-anchor:start;fill:#000000;fill-opacity:1;stroke:none;stroke-width:0.5;stroke-miterlimit:4;stroke-dasharray:none"
     xml:space="preserve"><tspan
       id="tspan61"
       y="55.721333"
       x="22.923334"><tspan
         id="tspan63"
         style="font-style:normal;font-variant:normal;font-weight:700;font-size:4.58611107px;font-family:Arial;fill:#000000;stroke-width:0.5;stroke-miterlimit:4;stroke-dasharray:none"
         dy="0"
         dx="0">Resource</tspan><tspan
         id="tspan65"
         style="font-style:normal;font-variant:normal;font-weight:700;font-size:4.58611107px;font-family:Arial;fill:#000000;stroke-width:0.5;stroke-miterlimit:4;stroke-dasharray:none"
         dy="0"
         dx="0">&gt;$</tspan></tspan></text>
  <path
     id="path67"
     d="m 163.41683,64.978844 0,-21.159893 -63.479966,0 0,21.159893 63.479966,0 z m -63.479966,0 0,-21.159893 0,21.159893 z m 63.479966,-21.159893 0,21.159893 0,-21.159893 z"
     style="fill:#ffffff;fill-opacity:1;fill-rule:evenodd;stroke:none;stroke-width:0.5;stroke-miterlimit:4;stroke-dasharray:none" />
  <path
     id="path69"
     d="m 163.41683,64.978844 0,-21.159893 m -63.479966,21.159893 0,-21.159893 m 0,0 63.479966,0 m -63.479966,21.159893 63.479966,0"
     style="fill:none;stroke:#000000;stroke-width:0.5;stroke-linecap:round;stroke-linejoin:round;stroke-miterlimit:4;stroke-dasharray:none;stroke-opacity:1" />
  <text
     id="text71"
     y="52.899998"
     x="120.25933"
     style="font-style:normal;font-variant:normal;font-weight:700;font-size:4.58611107px;line-height:125%;font-family:Arial;text-align:start;letter-spacing:0px;word-spacing:0px;text-anchor:start;fill:#000000;fill-opacity:1;stroke:none;stroke-width:0.5;stroke-miterlimit:4;stroke-dasharray:none"
     xml:space="preserve"><tspan
       id="tspan73"
       y="52.899998"
       x="120.25933"><tspan
         id="tspan75"
         style="font-style:normal;font-variant:normal;font-weight:700;font-size:4.58611107px;font-family:Arial;fill:#000000;stroke-width:0.5;stroke-miterlimit:4;stroke-dasharray:none"
         dy="0"
         dx="0">Allocation</tspan></tspan></text>
  <text
     id="text77"
     y="58.542667"
     x="104.38934"
     style="font-style:normal;font-variant:normal;font-weight:700;font-size:4.58611107px;line-height:125%;font-family:Arial;text-align:start;letter-spacing:0px;word-spacing:0px;text-anchor:start;fill:#000000;fill-opacity:1;stroke:none;stroke-width:0.5;stroke-miterlimit:4;stroke-dasharray:none"
     xml:space="preserve"><tspan
       id="tspan79"
       y="58.542667"
       x="104.38934"><tspan
         id="tspan81"
         style="font-style:normal;font-variant:normal;font-weight:700;font-size:4.58611107px;font-family:Arial;fill:#000000;stroke-width:0.5;stroke-miterlimit:4;stroke-dasharray:none"
         dy="0"
         dx="0">$&lt;</tspan></tspan></text>
  <text
     id="text83"
     y="58.542667"
     x="109.67934"
     style="font-style:normal;font-variant:normal;font-weight:700;font-size:4.58611107px;line-height:125%;font-family:Arial;text-align:start;letter-spacing:0px;word-spacing:0px;text-anchor:start;fill:#000000;fill-opacity:1;stroke:none;stroke-width:0.5;stroke-miterlimit:4;stroke-dasharray:none"
     xml:space="preserve"><tspan
       id="tspan85"
       y="58.542667"
       x="109.67934"><tspan
         id="tspan87"
         style="font-style:normal;font-variant:normal;font-weight:700;font-size:4.58611107px;font-family:Arial;fill:#000000;stroke-width:0.5;stroke-miterlimit:4;stroke-dasharray:none"
         dy="0"
         dx="0">Resource</tspan><tspan
         id="tspan89"
         style="font-style:normal;font-variant:normal;font-weight:700;font-size:4.58611107px;font-family:Arial;fill:#000000;stroke-width:0.5;stroke-miterlimit:4;stroke-dasharray:none"
         dy="0"
         dx="0">&gt;</tspan></tspan></text>
  <text
     id="text91"
     y="58.542667"
     x="133.66066"
     style="font-style:normal;font-variant:normal;font-weight:700;font-size:4.58611107px;line-height:125%;font-family:Arial;text-align:start;letter-spacing:0px;word-spacing:0px;text-anchor:start;fill:#000000;fill-opacity:1;stroke:none;stroke-width:0.5;stroke-miterlimit:4;stroke-dasharray:none"
     xml:space="preserve"><tspan
       id="tspan93"
       y="58.542667"
       x="133.66066"><tspan
         id="tspan95"
         style="font-style:normal;font-variant:normal;font-weight:700;font-size:4.58611107px;font-family:Arial;fill:#000000;stroke-width:0.5;stroke-miterlimit:4;stroke-dasharray:none"
         dy="0"
         dx="0">Allocation</tspan><tspan
         id="tspan97"
         style="font-style:normal;font-variant:normal;font-weight:700;font-size:4.58611107px;font-family:Arial;fill:#000000;stroke-width:0.5;stroke-miterlimit:4;stroke-dasharray:none"
         dy="0"
         dx="0">$</tspan></tspan></text>
  <path
     id="path99"
     d="m 58.278042,132.42629 0,-21.1599 -48.932366,0 0,21.1599 48.932366,0 z m -48.932366,0 0,-21.1599 0,21.1599 z m 48.932366,-21.1599 0,21.1599 0,-21.1599 z"
     style="fill:#ffffff;fill-opacity:1;fill-rule:evenodd;stroke:none;stroke-width:0.5;stroke-miterlimit:4;stroke-dasharray:none" />
  <path
     id="path101"
     d="m 58.278042,132.42629 0,-21.1599 m -48.932366,21.1599 0,-21.1599 m 0,0 48.932366,0 m -48.932366,21.1599 48.932366,0"
     style="fill:none;stroke:#000000;stroke-width:0.5;stroke-linecap:round;stroke-linejoin:round;stroke-miterlimit:4;stroke-dasharray:none;stroke-opacity:1" />
  <text
     id="text103"
     y="123.08067"
     x="12.343333"
     style="font-style:normal;font-variant:normal;font-weight:700;font-size:4.58611107px;line-height:125%;font-family:Arial;text-align:start;letter-spacing:0px;word-spacing:0px;text-anchor:start;fill:#000000;fill-opacity:1;stroke:none;stroke-width:0.5;stroke-miterlimit:4;stroke-dasharray:none"
     xml:space="preserve"><tspan
       id="tspan105"
       y="123.08067"
       x="12.343333"><tspan
         id="tspan107"
         style="font-style:normal;font-variant:normal;font-weight:700;font-size:4.58611107px;font-family:Arial;fill:#000000;stroke-width:0.5;stroke-miterlimit:4;stroke-dasharray:none"
         dy="0"
         dx="0">$&lt;</tspan></tspan></text>
  <text
     id="text109"
     y="123.08067"
     x="17.986"
     style="font-style:normal;font-variant:normal;font-weight:700;font-size:4.58611107px;line-height:125%;font-family:Arial;text-align:start;letter-spacing:0px;word-spacing:0px;text-anchor:start;fill:#000000;fill-opacity:1;stroke:none;stroke-width:0.5;stroke-miterlimit:4;stroke-dasharray:none"
     xml:space="preserve"><tspan
       id="tspan111"
       y="123.08067"
       x="17.986"><tspan
         id="tspan113"
         style="font-style:normal;font-variant:normal;font-weight:700;font-size:4.58611107px;font-family:Arial;fill:#000000;stroke-width:0.5;stroke-miterlimit:4;stroke-dasharray:none"
         dy="0"
         dx="0">ResourceKind</tspan><tspan
         id="tspan115"
         style="font-style:normal;font-variant:normal;font-weight:700;font-size:4.58611107px;font-family:Arial;fill:#000000;stroke-width:0.5;stroke-miterlimit:4;stroke-dasharray:none"
         dy="0"
         dx="0">&gt;$</tspan></tspan></text>
  <path
     id="path117"
     d="m 160.77184,132.42629 0,-21.1599 -42.31979,0 0,21.1599 42.31979,0 z m -42.31979,0 0,-21.1599 0,21.1599 z m 42.31979,-21.1599 0,21.1599 0,-21.1599 z"
     style="fill:#ffffff;fill-opacity:1;fill-rule:evenodd;stroke:none;stroke-width:0.5;stroke-miterlimit:4;stroke-dasharray:none" />
  <path
     id="path119"
     d="m 160.77184,132.42629 0,-21.1599 m -42.31979,21.1599 0,-21.1599 m 0,0 42.31979,0 m -42.31979,21.1599 42.31979,0"
     style="fill:none;stroke:#000000;stroke-width:0.5;stroke-linecap:round;stroke-linejoin:round;stroke-miterlimit:4;stroke-dasharray:none;stroke-opacity:1" />
  <text
     id="text121"
     y="123.08067"
     x="130.48666"
     style="font-style:normal;font-variant:normal;font-weight:700;font-size:4.58611107px;line-height:125%;font-family:Arial;text-align:start;letter-spacing:0px;word-spacing:0px;text-anchor:start;fill:#000000;fill-opacity:1;stroke:none;stroke-width:0.5;stroke-miterlimit:4;stroke-dasharray:none"
     xml:space="preserve"><tspan
       id="tspan123"
       y="123.08067"
       x="130.48666"><tspan
         id="tspan125"
         style="font-style:normal;font-variant:normal;font-weight:700;font-size:4.58611107px;font-family:Arial;fill:#000000;stroke-width:0.5;stroke-miterlimit:4;stroke-dasharray:none"
         dy="0"
         dx="0">Request</tspan></tspan></text>
  <path
     id="path127"
     d="m 105.22684,98.04146 0,-21.160176 -42.319789,0 0,21.160176 42.319789,0 z m -42.319789,0 0,-21.160176 0,21.160176 z m 42.319789,-21.160176 0,21.160176 0,-21.160176 z"
     style="fill:#ffffff;fill-opacity:1;fill-rule:evenodd;stroke:none;stroke-width:0.5;stroke-miterlimit:4;stroke-dasharray:none" />
  <path
     id="path129"
     d="m 105.22684,98.04146 0,-21.160176 m -42.319789,21.160176 0,-21.160176 m 0,0 42.319789,0 m -42.319789,21.160176 42.319789,0"
     style="fill:none;stroke:#000000;stroke-width:0.5;stroke-linecap:round;stroke-linejoin:round;stroke-miterlimit:4;stroke-dasharray:none;stroke-opacity:1" />
  <text
     id="text131"
     y="88.872002"
     x="74.059998"
     style="font-style:normal;font-variant:normal;font-weight:700;font-size:4.58611107px;line-height:125%;font-family:Arial;text-align:start;letter-spacing:0px;word-spacing:0px;text-anchor:start;fill:#000000;fill-opacity:1;stroke:none;stroke-width:0.5;stroke-miterlimit:4;stroke-dasharray:none"
     xml:space="preserve"><tspan
       id="tspan133"
       y="88.872002"
       x="74.059998"><tspan
         id="tspan135"
         style="font-style:normal;font-variant:normal;font-weight:700;font-size:4.58611107px;font-family:Arial;fill:#000000;stroke-width:0.5;stroke-miterlimit:4;stroke-dasharray:none"
         dy="0"
         dx="0">TimeSlot</tspan></tspan></text>
  <path
     id="path137"
     d="m 230.86455,96.718967 0,-21.160176 -42.32007,0 0,21.160176 42.32007,0 z m -42.32007,0 0,-21.160176 0,21.160176 z m 42.32007,-21.160176 0,21.160176 0,-21.160176 z"
     style="fill:#ffffff;fill-opacity:1;fill-rule:evenodd;stroke:none;stroke-width:0.5;stroke-miterlimit:4;stroke-dasharray:none" />
  <path
     id="path139"
     d="m 230.86455,96.718967 0,-21.160176 m -42.32007,21.160176 0,-21.160176 m 0,0 42.32007,0 m -42.32007,21.160176 42.32007,0"
     style="fill:none;stroke:#000000;stroke-width:0.5;stroke-linecap:round;stroke-linejoin:round;stroke-miterlimit:4;stroke-dasharray:none;stroke-opacity:1" />
  <text
     id="text141"
     y="87.461334"
     x="201.37267"
     style="font-style:normal;font-variant:normal;font-weight:700;font-size:4.58611107px;line-height:125%;font-family:Arial;text-align:start;letter-spacing:0px;word-spacing:0px;text-anchor:start;fill:#000000;fill-opacity:1;stroke:none;stroke-width:0.5;stroke-miterlimit:4;stroke-dasharray:none"
     xml:space="preserve"><tspan
       id="tspan143"
       y="87.461334"
       x="201.37267"><tspan
         id="tspan145"
         style="font-style:normal;font-variant:normal;font-weight:700;font-size:4.58611107px;font-family:Arial;fill:#000000;stroke-width:0.5;stroke-miterlimit:4;stroke-dasharray:none"
         dy="0"
         dx="0">System</tspan></tspan></text>
  <path
     id="path147"
     d="m 171.74859,55.28056 0,5.642469 2.33652,0 0,-5.642469 -2.33652,0 z"
     style="fill:#ffffff;fill-opacity:1;fill-rule:evenodd;stroke:none;stroke-width:0.5;stroke-miterlimit:4;stroke-dasharray:none" />
  <text
     id="text149"
     y="59.600666"
     x="171.74867"
     style="font-style:normal;font-variant:normal;font-weight:400;font-size:4.58611107px;line-height:125%;font-family:Calibri;text-align:start;letter-spacing:0px;word-spacing:0px;text-anchor:start;fill:#000000;fill-opacity:1;stroke:none;stroke-width:0.5;stroke-miterlimit:4;stroke-dasharray:none"
     xml:space="preserve"><tspan
       id="tspan151"
       y="59.600666"
       x="171.74867"><tspan
         id="tspan153"
         style="font-style:normal;font-variant:normal;font-weight:400;font-size:4.58611107px;font-family:Calibri;fill:#000000;stroke-width:0.5;stroke-miterlimit:4;stroke-dasharray:none"
         dy="0"
         dx="0">*</tspan></tspan></text>
  <path
     id="path155"
     d="m 164.44808,40.821187 0,11.28522 48.55774,0 0,-11.28522 -48.55774,0 z"
     style="fill:#ffffff;fill-opacity:1;fill-rule:evenodd;stroke:none;stroke-width:0.5;stroke-miterlimit:4;stroke-dasharray:none"
     inkscape:connector-curvature="0" />
  <path
     id="path189"
     d="m 209.70438,75.558791 0,-21.159893 -46.28755,0"
     style="fill:none;stroke:#000000;stroke-width:0.5;stroke-linecap:round;stroke-linejoin:round;stroke-miterlimit:4;stroke-dasharray:none;stroke-opacity:1" />
  <path
     id="path191"
     d="m 168.26597,52.767653 -4.84914,1.631245 4.84914,1.630962"
     style="fill:none;stroke:#000000;stroke-width:0.5;stroke-linecap:round;stroke-linejoin:round;stroke-miterlimit:4;stroke-dasharray:none;stroke-opacity:1" />
  <path
     id="path193"
     d="m 33.018307,25.127486 0,5.642638 29.359577,0 0,-5.642638 -29.359577,0 z"
     style="fill:#ffffff;fill-opacity:1;fill-rule:evenodd;stroke:none;stroke-width:0.5;stroke-miterlimit:4;stroke-dasharray:none" />
  <path
     id="path213"
     d="m 29.337564,31.740122 0,5.642469 2.336236,0 0,-5.642469 -2.336236,0 z"
     style="fill:#ffffff;fill-opacity:1;fill-rule:evenodd;stroke:none;stroke-width:0.5;stroke-miterlimit:4;stroke-dasharray:none" />
  <text
     id="text215"
     y="35.972"
     x="29.271332"
     style="font-style:normal;font-variant:normal;font-weight:400;font-size:4.58611107px;line-height:125%;font-family:Calibri;text-align:start;letter-spacing:0px;word-spacing:0px;text-anchor:start;fill:#000000;fill-opacity:1;stroke:none;stroke-width:0.5;stroke-miterlimit:4;stroke-dasharray:none"
     xml:space="preserve"><tspan
       id="tspan217"
       y="35.972"
       x="29.271332"><tspan
         id="tspan219"
         style="font-style:normal;font-variant:normal;font-weight:400;font-size:4.58611107px;font-family:Calibri;fill:#000000;stroke-width:0.5;stroke-miterlimit:4;stroke-dasharray:none"
         dy="0"
         dx="0">*</tspan></tspan></text>
  <path
     id="path221"
     d="m 220.28432,75.558791 0,-44.171447 -186.472404,0 0,12.431607"
     style="fill:none;stroke:#000000;stroke-width:0.5;stroke-linecap:round;stroke-linejoin:round;stroke-miterlimit:4;stroke-dasharray:none;stroke-opacity:1" />
  <path
     id="path223"
     d="m 32.180953,38.947513 1.630963,4.871438 1.608948,-4.871438"
     style="fill:none;stroke:#000000;stroke-width:0.5;stroke-linecap:round;stroke-linejoin:round;stroke-miterlimit:4;stroke-dasharray:none;stroke-opacity:1" />
  <path
     id="path225"
     d="m 62.5983,55.28056 0,5.642469 2.380544,0 0,-5.642469 -2.380544,0 z"
     style="fill:#ffffff;fill-opacity:1;fill-rule:evenodd;stroke:none;stroke-width:0.5;stroke-miterlimit:4;stroke-dasharray:none" />
  <text
     id="text227"
     y="59.600666"
     x="62.421997"
     style="font-style:normal;font-variant:normal;font-weight:400;font-size:4.58611107px;line-height:125%;font-family:Calibri;text-align:start;letter-spacing:0px;word-spacing:0px;text-anchor:start;fill:#000000;fill-opacity:1;stroke:none;stroke-width:0.5;stroke-miterlimit:4;stroke-dasharray:none"
     xml:space="preserve"><tspan
       id="tspan229"
       y="59.600666"
       x="62.421997"><tspan
         id="tspan231"
         style="font-style:normal;font-variant:normal;font-weight:400;font-size:4.58611107px;font-family:Calibri;fill:#000000;stroke-width:0.5;stroke-miterlimit:4;stroke-dasharray:none"
         dy="0"
         dx="0">1</tspan></tspan></text>
  <path
     id="path233"
     d="m 57.837211,47.610042 0,5.642751 16.729851,0 0,-5.642751 -16.729851,0 z"
     style="fill:#ffffff;fill-opacity:1;fill-rule:evenodd;stroke:none;stroke-width:0.5;stroke-miterlimit:4;stroke-dasharray:none" />
  <text
     id="text235"
     y="51.842003"
     x="57.837334"
     style="font-style:normal;font-variant:normal;font-weight:400;font-size:4.58611107px;line-height:125%;font-family:Calibri;text-align:start;letter-spacing:0px;word-spacing:0px;text-anchor:start;fill:#000000;fill-opacity:1;stroke:none;stroke-width:0.5;stroke-miterlimit:4;stroke-dasharray:none"
     xml:space="preserve"><tspan
       id="tspan237"
       y="51.842003"
       x="57.837334"><tspan
         id="tspan239"
         style="font-style:normal;font-variant:normal;font-weight:400;font-size:4.58611107px;font-family:Calibri;fill:#000000;stroke-width:0.5;stroke-miterlimit:4;stroke-dasharray:none"
         dy="0"
         dx="0">resource</tspan></tspan></text>
  <path
     id="path241"
     d="m 99.936864,54.398898 -44.965055,0"
     style="fill:none;stroke:#000000;stroke-width:0.5;stroke-linecap:round;stroke-linejoin:round;stroke-miterlimit:4;stroke-dasharray:none;stroke-opacity:1" />
  <path
     id="path243"
     d="m 59.820951,52.767653 -4.849142,1.631245 4.849142,1.630962"
     style="fill:none;stroke:#000000;stroke-width:0.5;stroke-linecap:round;stroke-linejoin:round;stroke-miterlimit:4;stroke-dasharray:none;stroke-opacity:1" />
  <path
     id="path245"
     d="m 158.3913,100.51006 0,5.64247 14.67978,0 0,-5.64247 -14.67978,0 z"
     style="fill:#ffffff;fill-opacity:1;fill-rule:evenodd;stroke:none;stroke-width:0.5;stroke-miterlimit:4;stroke-dasharray:none" />
  <text
     id="text247"
     y="104.742"
     x="158.34734"
     style="font-style:normal;font-variant:normal;font-weight:400;font-size:4.58611107px;line-height:125%;font-family:Calibri;text-align:start;letter-spacing:0px;word-spacing:0px;text-anchor:start;fill:#000000;fill-opacity:1;stroke:none;stroke-width:0.5;stroke-miterlimit:4;stroke-dasharray:none"
     xml:space="preserve"><tspan
       id="tspan249"
       y="104.742"
       x="158.34734"><tspan
         id="tspan251"
         style="font-style:normal;font-variant:normal;font-weight:400;font-size:4.58611107px;font-family:Calibri;fill:#000000;stroke-width:0.5;stroke-miterlimit:4;stroke-dasharray:none"
         dy="0"
         dx="0">request</tspan></tspan></text>
  <path
     id="path253"
     d="m 141.50763,100.3777 0,5.64275 2.38027,0 0,-5.64275 -2.38027,0 z"
     style="fill:#ffffff;fill-opacity:1;fill-rule:evenodd;stroke:none;stroke-width:0.5;stroke-miterlimit:4;stroke-dasharray:none" />
  <text
     id="text255"
     y="104.742"
     x="141.41934"
     style="font-style:normal;font-variant:normal;font-weight:400;font-size:4.58611107px;line-height:125%;font-family:Calibri;text-align:start;letter-spacing:0px;word-spacing:0px;text-anchor:start;fill:#000000;fill-opacity:1;stroke:none;stroke-width:0.5;stroke-miterlimit:4;stroke-dasharray:none"
     xml:space="preserve"><tspan
       id="tspan257"
       y="104.742"
       x="141.41934"><tspan
         id="tspan259"
         style="font-style:normal;font-variant:normal;font-weight:400;font-size:4.58611107px;font-family:Calibri;fill:#000000;stroke-width:0.5;stroke-miterlimit:4;stroke-dasharray:none"
         dy="0"
         dx="0">1</tspan></tspan></text>
  <path
     id="path261"
     d="m 140.93444,64.978844 9.25745,0 0,46.287546"
     style="fill:none;stroke:#000000;stroke-width:0.5;stroke-linecap:round;stroke-linejoin:round;stroke-miterlimit:4;stroke-dasharray:none;stroke-opacity:1" />
  <path
     id="path263"
     d="m 148.56093,106.39524 1.63096,4.87115 1.60895,-4.87115"
     style="fill:none;stroke:#000000;stroke-width:0.5;stroke-linecap:round;stroke-linejoin:round;stroke-miterlimit:4;stroke-dasharray:none;stroke-opacity:1" />
  <path
     id="path265"
     d="m 169.30201,122.728 0,5.64275 2.33651,0 0,-5.64275 -2.33651,0 z"
     style="fill:#ffffff;fill-opacity:1;fill-rule:evenodd;stroke:none;stroke-width:0.5;stroke-miterlimit:4;stroke-dasharray:none" />
  <text
     id="text267"
     y="126.96"
     x="169.28"
     style="font-style:normal;font-variant:normal;font-weight:400;font-size:4.58611107px;line-height:125%;font-family:Calibri;text-align:start;letter-spacing:0px;word-spacing:0px;text-anchor:start;fill:#000000;fill-opacity:1;stroke:none;stroke-width:0.5;stroke-miterlimit:4;stroke-dasharray:none"
     xml:space="preserve"><tspan
       id="tspan269"
       y="126.96"
       x="169.28"><tspan
         id="tspan271"
         style="font-style:normal;font-variant:normal;font-weight:400;font-size:4.58611107px;font-family:Calibri;fill:#000000;stroke-width:0.5;stroke-miterlimit:4;stroke-dasharray:none"
         dy="0"
         dx="0">*</tspan></tspan></text>
  <path
     id="path273"
     d="m 164.67328,113.73499 0,5.64275 14.67979,0 0,-5.64275 -14.67979,0 z"
     style="fill:#ffffff;fill-opacity:1;fill-rule:evenodd;stroke:none;stroke-width:0.5;stroke-miterlimit:4;stroke-dasharray:none" />
  <text
     id="text275"
     y="117.79066"
     x="164.69533"
     style="font-style:normal;font-variant:normal;font-weight:400;font-size:4.58611107px;line-height:125%;font-family:Calibri;text-align:start;letter-spacing:0px;word-spacing:0px;text-anchor:start;fill:#000000;fill-opacity:1;stroke:none;stroke-width:0.5;stroke-miterlimit:4;stroke-dasharray:none"
     xml:space="preserve"><tspan
       id="tspan277"
       y="117.79066"
       x="164.69533"><tspan
         id="tspan279"
         style="font-style:normal;font-variant:normal;font-weight:400;font-size:4.58611107px;font-family:Calibri;fill:#000000;stroke-width:0.5;stroke-miterlimit:4;stroke-dasharray:none"
         dy="0"
         dx="0">request</tspan></tspan></text>
  <path
     id="path281"
     d="m 209.70438,96.718967 0,25.127373 -48.93254,0"
     style="fill:none;stroke:#000000;stroke-width:0.5;stroke-linecap:round;stroke-linejoin:round;stroke-miterlimit:4;stroke-dasharray:none;stroke-opacity:1" />
  <path
     id="path283"
     d="m 165.62098,120.21538 -4.84914,1.63096 4.84914,1.63096"
     style="fill:none;stroke:#000000;stroke-width:0.5;stroke-linecap:round;stroke-linejoin:round;stroke-miterlimit:4;stroke-dasharray:none;stroke-opacity:1" />
  <path
     id="path285"
     d="m 28.014958,138.86236 0,5.64276 2.336349,0 0,-5.64276 -2.336349,0 z"
     style="fill:#ffffff;fill-opacity:1;fill-rule:evenodd;stroke:none;stroke-width:0.5;stroke-miterlimit:4;stroke-dasharray:none" />
  <text
     id="text287"
     y="143.18266"
     x="27.860666"
     style="font-style:normal;font-variant:normal;font-weight:400;font-size:4.58611107px;line-height:125%;font-family:Calibri;text-align:start;letter-spacing:0px;word-spacing:0px;text-anchor:start;fill:#000000;fill-opacity:1;stroke:none;stroke-width:0.5;stroke-miterlimit:4;stroke-dasharray:none"
     xml:space="preserve"><tspan
       id="tspan289"
       y="143.18266"
       x="27.860666"><tspan
         id="tspan291"
         style="font-style:normal;font-variant:normal;font-weight:400;font-size:4.58611107px;font-family:Calibri;fill:#000000;stroke-width:0.5;stroke-miterlimit:4;stroke-dasharray:none"
         dy="0"
         dx="0">*</tspan></tspan></text>
  <path
     id="path293"
     d="m 38.043838,136.21738 0,5.64275 37.801409,0 0,-5.64275 -37.801409,0 z"
     style="fill:#ffffff;fill-opacity:1;fill-rule:evenodd;stroke:none;stroke-width:0.5;stroke-miterlimit:4;stroke-dasharray:none" />
  <text
     id="text295"
     y="140.36133"
     x="38.088001"
     style="font-style:normal;font-variant:normal;font-weight:400;font-size:4.58611107px;line-height:125%;font-family:Calibri;text-align:start;letter-spacing:0px;word-spacing:0px;text-anchor:start;fill:#000000;fill-opacity:1;stroke:none;stroke-width:0.5;stroke-miterlimit:4;stroke-dasharray:none"
     xml:space="preserve"><tspan
       id="tspan297"
       y="140.36133"
       x="38.088001"><tspan
         id="tspan299"
         style="font-style:normal;font-variant:normal;font-weight:400;font-size:4.58611107px;font-family:Calibri;fill:#000000;stroke-width:0.5;stroke-miterlimit:4;stroke-dasharray:none"
         dy="0"
         dx="0">$</tspan><tspan
         id="tspan301"
         style="font-style:normal;font-variant:normal;font-weight:400;font-size:4.58611107px;font-family:Calibri;fill:#000000;stroke-width:0.5;stroke-miterlimit:4;stroke-dasharray:none"
         dy="0"
         dx="0">a</tspan><tspan
         id="tspan303"
         style="font-style:normal;font-variant:normal;font-weight:400;font-size:4.58611107px;font-family:Calibri;fill:#000000;stroke-width:0.5;stroke-miterlimit:4;stroke-dasharray:none"
         dy="0"
         dx="0">&lt;</tspan></tspan></text>
  <text
     id="text305"
     y="140.36133"
     x="45.141335"
     style="font-style:normal;font-variant:normal;font-weight:400;font-size:4.58611107px;line-height:125%;font-family:Calibri;text-align:start;letter-spacing:0px;word-spacing:0px;text-anchor:start;fill:#000000;fill-opacity:1;stroke:none;stroke-width:0.5;stroke-miterlimit:4;stroke-dasharray:none"
     xml:space="preserve"><tspan
       id="tspan307"
       y="140.36133"
       x="45.141335"><tspan
         id="tspan309"
         style="font-style:normal;font-variant:normal;font-weight:400;font-size:4.58611107px;font-family:Calibri;fill:#000000;stroke-width:0.5;stroke-miterlimit:4;stroke-dasharray:none"
         dy="0"
         dx="0">ResourceKind</tspan><tspan
         id="tspan311"
         style="font-style:normal;font-variant:normal;font-weight:400;font-size:4.58611107px;font-family:Calibri;fill:#000000;stroke-width:0.5;stroke-miterlimit:4;stroke-dasharray:none"
         dy="0"
         dx="0">&gt;$</tspan></tspan></text>
  <path
     id="path313"
     d="m 220.28432,96.718967 0,45.229493 -186.472404,0 0,-9.52217"
     style="fill:none;stroke:#000000;stroke-width:0.5;stroke-linecap:round;stroke-linejoin:round;stroke-miterlimit:4;stroke-dasharray:none;stroke-opacity:1" />
  <path
     id="path315"
     d="m 35.420864,137.29744 -1.608948,-4.87115 -1.630963,4.87115"
     style="fill:none;stroke:#000000;stroke-width:0.5;stroke-linecap:round;stroke-linejoin:round;stroke-miterlimit:4;stroke-dasharray:none;stroke-opacity:1" />
  <path
     id="path317"
     d="m 66.367378,122.728 0,5.64275 2.380544,0 0,-5.64275 -2.380544,0 z"
     style="fill:#ffffff;fill-opacity:1;fill-rule:evenodd;stroke:none;stroke-width:0.5;stroke-miterlimit:4;stroke-dasharray:none" />
  <text
     id="text319"
     y="126.96"
     x="66.301331"
     style="font-style:normal;font-variant:normal;font-weight:400;font-size:4.58611107px;line-height:125%;font-family:Calibri;text-align:start;letter-spacing:0px;word-spacing:0px;text-anchor:start;fill:#000000;fill-opacity:1;stroke:none;stroke-width:0.5;stroke-miterlimit:4;stroke-dasharray:none"
     xml:space="preserve"><tspan
       id="tspan321"
       y="126.96"
       x="66.301331"><tspan
         id="tspan323"
         style="font-style:normal;font-variant:normal;font-weight:400;font-size:4.58611107px;font-family:Calibri;fill:#000000;stroke-width:0.5;stroke-miterlimit:4;stroke-dasharray:none"
         dy="0"
         dx="0">1</tspan></tspan></text>
  <path
     id="path325"
     d="m 59.776924,113.73499 0,5.64275 41.945276,0 0,-5.64275 -41.945276,0 z"
     style="fill:#ffffff;fill-opacity:1;fill-rule:evenodd;stroke:none;stroke-width:0.5;stroke-miterlimit:4;stroke-dasharray:none" />
  <text
     id="text327"
     y="117.79066"
     x="59.600666"
     style="font-style:normal;font-variant:normal;font-weight:400;font-size:4.58611107px;line-height:125%;font-family:Calibri;text-align:start;letter-spacing:0px;word-spacing:0px;text-anchor:start;fill:#000000;fill-opacity:1;stroke:none;stroke-width:0.5;stroke-miterlimit:4;stroke-dasharray:none"
     xml:space="preserve"><tspan
       id="tspan329"
       y="117.79066"
       x="59.600666"><tspan
         id="tspan331"
         style="font-style:normal;font-variant:normal;font-weight:400;font-size:4.58611107px;font-family:Calibri;fill:#000000;stroke-width:0.5;stroke-miterlimit:4;stroke-dasharray:none"
         dy="0"
         dx="0">$</tspan><tspan
         id="tspan333"
         style="font-style:normal;font-variant:normal;font-weight:400;font-size:4.58611107px;font-family:Calibri;fill:#000000;stroke-width:0.5;stroke-miterlimit:4;stroke-dasharray:none"
         dy="0"
         dx="0">the</tspan><tspan
         id="tspan335"
         style="font-style:normal;font-variant:normal;font-weight:400;font-size:4.58611107px;font-family:Calibri;fill:#000000;stroke-width:0.5;stroke-miterlimit:4;stroke-dasharray:none"
         dy="0"
         dx="0">&lt;</tspan></tspan></text>
  <text
     id="text337"
     y="117.79066"
     x="70.886002"
     style="font-style:normal;font-variant:normal;font-weight:400;font-size:4.58611107px;line-height:125%;font-family:Calibri;text-align:start;letter-spacing:0px;word-spacing:0px;text-anchor:start;fill:#000000;fill-opacity:1;stroke:none;stroke-width:0.5;stroke-miterlimit:4;stroke-dasharray:none"
     xml:space="preserve"><tspan
       id="tspan339"
       y="117.79066"
       x="70.886002"><tspan
         id="tspan341"
         style="font-style:normal;font-variant:normal;font-weight:400;font-size:4.58611107px;font-family:Calibri;fill:#000000;stroke-width:0.5;stroke-miterlimit:4;stroke-dasharray:none"
         dy="0"
         dx="0">ResourceKind</tspan><tspan
         id="tspan343"
         style="font-style:normal;font-variant:normal;font-weight:400;font-size:4.58611107px;font-family:Calibri;fill:#000000;stroke-width:0.5;stroke-miterlimit:4;stroke-dasharray:none"
         dy="0"
         dx="0">&gt;$</tspan></tspan></text>
  <path
     id="path345"
     d="m 118.45205,121.84634 -60.174008,0"
     style="fill:none;stroke:#000000;stroke-width:0.5;stroke-linecap:round;stroke-linejoin:round;stroke-miterlimit:4;stroke-dasharray:none;stroke-opacity:1" />
  <path
     id="path347"
     d="m 63.127467,120.21538 -4.849425,1.63096 4.849425,1.63096"
     style="fill:none;stroke:#000000;stroke-width:0.5;stroke-linecap:round;stroke-linejoin:round;stroke-miterlimit:4;stroke-dasharray:none;stroke-opacity:1" />
  <path
     id="path349"
     d="m 112.94138,88.342893 0,5.642751 2.38055,0 0,-5.642751 -2.38055,0 z"
     style="fill:#ffffff;fill-opacity:1;fill-rule:evenodd;stroke:none;stroke-width:0.5;stroke-miterlimit:4;stroke-dasharray:none" />
  <text
     id="text351"
     y="92.398666"
     x="112.85333"
     style="font-style:normal;font-variant:normal;font-weight:400;font-size:4.58611107px;line-height:125%;font-family:Calibri;text-align:start;letter-spacing:0px;word-spacing:0px;text-anchor:start;fill:#000000;fill-opacity:1;stroke:none;stroke-width:0.5;stroke-miterlimit:4;stroke-dasharray:none"
     xml:space="preserve"><tspan
       id="tspan353"
       y="92.398666"
       x="112.85333"><tspan
         id="tspan355"
         style="font-style:normal;font-variant:normal;font-weight:400;font-size:4.58611107px;font-family:Calibri;fill:#000000;stroke-width:0.5;stroke-miterlimit:4;stroke-dasharray:none"
         dy="0"
         dx="0">1</tspan></tspan></text>
  <path
     id="path357"
     d="m 109.10626,80.672376 0,5.642751 16.04631,0 0,-5.642751 -16.04631,0 z"
     style="fill:#ffffff;fill-opacity:1;fill-rule:evenodd;stroke:none;stroke-width:0.5;stroke-miterlimit:4;stroke-dasharray:none" />
  <text
     id="text359"
     y="84.992668"
     x="108.974"
     style="font-style:normal;font-variant:normal;font-weight:400;font-size:4.58611107px;line-height:125%;font-family:Calibri;text-align:start;letter-spacing:0px;word-spacing:0px;text-anchor:start;fill:#000000;fill-opacity:1;stroke:none;stroke-width:0.5;stroke-miterlimit:4;stroke-dasharray:none"
     xml:space="preserve"><tspan
       id="tspan361"
       y="84.992668"
       x="108.974"><tspan
         id="tspan363"
         style="font-style:normal;font-variant:normal;font-weight:400;font-size:4.58611107px;font-family:Calibri;fill:#000000;stroke-width:0.5;stroke-miterlimit:4;stroke-dasharray:none"
         dy="0"
         dx="0">timeSlot</tspan></tspan></text>
  <path
     id="path365"
     d="m 129.032,111.26639 0,-23.805159 -23.80516,0"
     style="fill:none;stroke:#000000;stroke-width:0.5;stroke-linecap:round;stroke-linejoin:round;stroke-miterlimit:4;stroke-dasharray:none;stroke-opacity:1" />
  <path
     id="path367"
     d="m 110.07598,85.830269 -4.84914,1.630962 4.84914,1.631245"
     style="fill:none;stroke:#000000;stroke-width:0.5;stroke-linecap:round;stroke-linejoin:round;stroke-miterlimit:4;stroke-dasharray:none;stroke-opacity:1" />
  <path
     id="path369"
     d="m 36.919747,104.80802 0,5.64275 2.380544,0 0,-5.64275 -2.380544,0 z"
     style="fill:#ffffff;fill-opacity:1;fill-rule:evenodd;stroke:none;stroke-width:0.5;stroke-miterlimit:4;stroke-dasharray:none" />
  <text
     id="text371"
     y="108.974"
     x="37.029999"
     style="font-style:normal;font-variant:normal;font-weight:400;font-size:4.58611107px;line-height:125%;font-family:Calibri;text-align:start;letter-spacing:0px;word-spacing:0px;text-anchor:start;fill:#000000;fill-opacity:1;stroke:none;stroke-width:0.5;stroke-miterlimit:4;stroke-dasharray:none"
     xml:space="preserve"><tspan
       id="tspan373"
       y="108.974"
       x="37.029999"><tspan
         id="tspan375"
         style="font-style:normal;font-variant:normal;font-weight:400;font-size:4.58611107px;font-family:Calibri;fill:#000000;stroke-width:0.5;stroke-miterlimit:4;stroke-dasharray:none"
         dy="0"
         dx="0">1</tspan></tspan></text>
  <path
     id="path377"
     d="m 38.595018,67.11696 0,5.642469 2.336235,0 0,-5.642469 -2.336235,0 z"
     style="fill:#ffffff;fill-opacity:1;fill-rule:evenodd;stroke:none;stroke-width:0.5;stroke-miterlimit:4;stroke-dasharray:none" />
  <text
     id="text379"
     y="71.238663"
     x="38.440666"
     style="font-style:normal;font-variant:normal;font-weight:400;font-size:4.58611107px;line-height:125%;font-family:Calibri;text-align:start;letter-spacing:0px;word-spacing:0px;text-anchor:start;fill:#000000;fill-opacity:1;stroke:none;stroke-width:0.5;stroke-miterlimit:4;stroke-dasharray:none"
     xml:space="preserve"><tspan
       id="tspan381"
       y="71.238663"
       x="38.440666"><tspan
         id="tspan383"
         style="font-style:normal;font-variant:normal;font-weight:400;font-size:4.58611107px;font-family:Calibri;fill:#000000;stroke-width:0.5;stroke-miterlimit:4;stroke-dasharray:none"
         dy="0"
         dx="0">*</tspan></tspan></text>
  <path
     id="path385"
     d="m 14.194846,66.455713 0,5.642469 16.729654,0 0,-5.642469 -16.729654,0 z"
     style="fill:#ffffff;fill-opacity:1;fill-rule:evenodd;stroke:none;stroke-width:0.5;stroke-miterlimit:4;stroke-dasharray:none" />
  <text
     id="text387"
     y="70.533333"
     x="14.106667"
     style="font-style:normal;font-variant:normal;font-weight:400;font-size:4.58611107px;line-height:125%;font-family:Calibri;text-align:start;letter-spacing:0px;word-spacing:0px;text-anchor:start;fill:#000000;fill-opacity:1;stroke:none;stroke-width:0.5;stroke-miterlimit:4;stroke-dasharray:none"
     xml:space="preserve"><tspan
       id="tspan389"
       y="70.533333"
       x="14.106667"><tspan
         id="tspan391"
         style="font-style:normal;font-variant:normal;font-weight:400;font-size:4.58611107px;font-family:Calibri;fill:#000000;stroke-width:0.5;stroke-miterlimit:4;stroke-dasharray:none"
         dy="0"
         dx="0">resource</tspan></tspan></text>
  <path
     id="path393"
     d="m 23.121705,104.47754 0,5.64275 8.155291,0 0,-5.64275 -8.155291,0 z"
     style="fill:#ffffff;fill-opacity:1;fill-rule:evenodd;stroke:none;stroke-width:0.5;stroke-miterlimit:4;stroke-dasharray:none" />
  <text
     id="text395"
     y="108.62133"
     x="23.276001"
     style="font-style:normal;font-variant:normal;font-weight:400;font-size:4.58611107px;line-height:125%;font-family:Calibri;text-align:start;letter-spacing:0px;word-spacing:0px;text-anchor:start;fill:#000000;fill-opacity:1;stroke:none;stroke-width:0.5;stroke-miterlimit:4;stroke-dasharray:none"
     xml:space="preserve"><tspan
       id="tspan397"
       y="108.62133"
       x="23.276001"><tspan
         id="tspan399"
         style="font-style:normal;font-variant:normal;font-weight:400;font-size:4.58611107px;font-family:Calibri;fill:#000000;stroke-width:0.5;stroke-miterlimit:4;stroke-dasharray:none"
         dy="0"
         dx="0">kind</tspan></tspan></text>
  <path
     id="path401"
     d="m 33.811916,64.978844 0,46.287546"
     style="fill:none;stroke:#000000;stroke-width:0.5;stroke-linecap:round;stroke-linejoin:round;stroke-miterlimit:4;stroke-dasharray:none;stroke-opacity:1" />
  <path
     id="path403"
     d="m 142.25693,222.3564 0,-21.16018 -42.320066,0 0,21.16018 42.320066,0 z m -33.06261,-21.16018 0,-5.28997 -9.257456,0 0,5.28997 9.257456,0 z m -9.257456,21.16018 0,-21.16018 0,-5.28997 0,26.45015 z m 42.320066,-21.16018 0,21.16018 0,-21.16018 z"
     style="fill:#ffffff;fill-opacity:1;fill-rule:evenodd;stroke:none;stroke-width:0.5;stroke-miterlimit:4;stroke-dasharray:none" />
  <path
     id="path405"
     d="m 109.19432,201.19622 0,-5.28997 -9.257456,0 0,5.28997 m 42.320066,21.16018 0,-21.16018 m -42.320066,21.16018 0,-26.45015 m 0,5.28997 42.320066,0 m -42.320066,21.16018 42.320066,0"
     style="fill:none;stroke:#000000;stroke-width:0.5;stroke-linecap:round;stroke-linejoin:round;stroke-miterlimit:4;stroke-dasharray:none;stroke-opacity:1" />
  <text
     id="text407"
     y="213.01067"
     x="104.38934"
     style="font-style:normal;font-variant:normal;font-weight:700;font-size:4.58611107px;line-height:125%;font-family:Arial;text-align:start;letter-spacing:0px;word-spacing:0px;text-anchor:start;fill:#000000;fill-opacity:1;stroke:none;stroke-width:0.5;stroke-miterlimit:4;stroke-dasharray:none"
     xml:space="preserve"><tspan
       id="tspan409"
       y="213.01067"
       x="104.38934"><tspan
         id="tspan411"
         style="font-style:normal;font-variant:normal;font-weight:700;font-size:4.58611107px;font-family:Arial;fill:#000000;stroke-width:0.5;stroke-miterlimit:4;stroke-dasharray:none"
         dy="0"
         dx="0">TrainingAdmin</tspan></tspan></text>
  <path
     id="path413"
     d="m 120.96468,201.32858 -1.82937,-1.65325 c -0.0663,-0.066 -0.0883,-0.17611 -0.022,-0.24243 0.066,-0.066 0.17611,-0.066 0.24243,-0.022 l 1.85138,1.65326 c 0.066,0.066 0.088,0.17639 0.022,0.24243 -0.066,0.0881 -0.17639,0.0881 -0.26444,0.022 z m -3.15186,-2.82137 -1.82965,-1.65298 c -0.088,-0.0443 -0.088,-0.17639 -0.022,-0.24243 0.066,-0.0663 0.17639,-0.0663 0.24243,0 l 1.85166,1.63097 c 0.066,0.066 0.066,0.17639 0,0.24243 -0.044,0.0881 -0.17639,0.0881 -0.24243,0.022 z m -3.15214,-2.82138 -1.82936,-1.63096 c -0.0881,-0.066 -0.0881,-0.17639 -0.022,-0.26444 0.066,-0.0663 0.17639,-0.0663 0.24243,0 l 1.85138,1.63096 c 0.0663,0.066 0.0663,0.17639 0,0.26444 -0.066,0.0663 -0.17611,0.0663 -0.24243,0 z m -3.15186,-2.82137 -1.85166,-1.63096 c -0.066,-0.066 -0.066,-0.17639 0,-0.26445 0.0663,-0.066 0.17639,-0.066 0.24271,0 l 1.85138,1.63097 c 0.066,0.0663 0.066,0.17638 0,0.26444 -0.066,0.0663 -0.17639,0.0663 -0.24243,0 z m -3.15186,-2.8211 -1.85166,-1.63124 c -0.066,-0.066 -0.066,-0.17639 0,-0.26444 0.066,-0.066 0.17639,-0.066 0.24243,0 l 1.82965,1.63096 c 0.088,0.0663 0.088,0.17639 0.022,0.26472 -0.0663,0.066 -0.17639,0.066 -0.24243,0 z m -3.15214,-2.82137 -1.85137,-1.63125 c -0.0663,-0.066 -0.0663,-0.1761 -0.022,-0.26444 0.066,-0.066 0.17611,-0.066 0.26445,0 l 1.82936,1.63125 c 0.0883,0.066 0.0883,0.1761 0.022,0.26444 -0.066,0.066 -0.17639,0.066 -0.24243,0 z m -3.17387,-2.82138 -1.82964,-1.63124 c -0.066,-0.066 -0.0881,-0.17611 -0.022,-0.26444 0.0663,-0.066 0.17639,-0.066 0.26445,0 l 1.82964,1.63124 c 0.066,0.066 0.0881,0.17611 0.022,0.26444 -0.066,0.066 -0.17639,0.066 -0.26445,0 z m -3.152137,-2.82137 -1.829364,-1.63096 c -0.08805,-0.0663 -0.08805,-0.17639 -0.02201,-0.26473 0.06604,-0.066 0.176388,-0.066 0.242428,0 l 1.851378,1.63125 c 0.06632,0.066 0.08834,0.17638 0.0223,0.26444 -0.06632,0.066 -0.176389,0.066 -0.264725,0 z m -3.151857,-2.82138 -1.829365,-1.63096 c -0.08834,-0.0663 -0.08834,-0.17639 -0.02201,-0.26444 0.06604,-0.0663 0.176106,-0.0663 0.242429,0 l 1.851377,1.63096 c 0.06604,0.066 0.06604,0.17639 0,0.26444 -0.06604,0.066 -0.176388,0.066 -0.242428,0 z m -3.151858,-2.82137 -1.85166,-1.63097 c -0.06604,-0.066 -0.06604,-0.17638 0,-0.24242 0.06632,-0.0883 0.176389,-0.0883 0.242429,-0.022 l 1.85166,1.65298 c 0.06604,0.044 0.06604,0.17639 0,0.24243 -0.06632,0.0663 -0.176389,0.0663 -0.242429,0 z m -3.15214,-2.79908 -1.851378,-1.65326 c -0.06604,-0.066 -0.06604,-0.17639 0,-0.24243 0.06604,-0.088 0.176389,-0.088 0.242429,-0.022 l 1.851378,1.65297 c 0.06632,0.0663 0.06632,0.17639 0,0.24243 -0.06604,0.0663 -0.176107,0.0663 -0.242429,0.0223 z m -3.151858,-2.82138 -1.851378,-1.65326 c -0.06632,-0.066 -0.06632,-0.17639 0,-0.24243 0.06604,-0.0881 0.176107,-0.0881 0.242429,-0.022 l 1.829365,1.65326 c 0.08805,0.066 0.08805,0.17611 0.02201,0.24243 -0.06604,0.066 -0.176389,0.0881 -0.242429,0.022 z m -3.151858,-2.82137 -1.85166,-1.65326 c -0.06604,-0.066 -0.08805,-0.17611 -0.02201,-0.24243 0.06604,-0.0881 0.176389,-0.0881 0.264442,-0.022 l 1.829647,1.65325 c 0.08805,0.066 0.08805,0.17611 0.02201,0.24243 -0.06632,0.066 -0.176389,0.0881 -0.242429,0.022 z m -3.174153,-2.82138 -1.829365,-1.65298 c -0.06632,-0.0663 -0.08834,-0.17638 -0.02201,-0.24271 0.06604,-0.0881 0.176107,-0.0881 0.264442,-0.022 l 1.829365,1.65326 c 0.06632,0.066 0.08834,0.17639 0.02201,0.24243 -0.06604,0.066 -0.176107,0.088 -0.264442,0.022 z m -3.151858,-2.82138 -1.829647,-1.65297 c -0.08805,-0.0663 -0.08805,-0.17639 -0.02201,-0.24243 0.06632,-0.0883 0.176389,-0.0883 0.242429,-0.0223 l 1.85166,1.65326 c 0.06604,0.066 0.06604,0.17639 0.02201,0.24243 -0.06604,0.066 -0.176389,0.088 -0.264442,0.022 z m -3.15214,-2.82137 -1.829364,-1.65298 c -0.08805,-0.066 -0.08805,-0.17639 -0.02201,-0.24243 0.06604,-0.0663 0.176389,-0.0883 0.242429,-0.022 l 1.85166,1.65298 c 0.06604,0.066 0.06604,0.17639 0,0.24243 -0.06632,0.0663 -0.176389,0.0883 -0.242711,0.022 z m -3.151858,-2.82138 -1.851377,-1.65297 c -0.06632,-0.066 -0.06632,-0.17639 0,-0.24243 0.06604,-0.066 0.176106,-0.0883 0.242428,-0.022 l 1.851378,1.65297 c 0.06604,0.0663 0.06604,0.17639 0,0.24243 -0.06604,0.0663 -0.176389,0.0883 -0.242429,0.022 z m -3.151857,-2.82109 -1.85166,-1.65326 c -0.06604,-0.066 -0.06604,-0.17639 0,-0.24243 0.06632,-0.066 0.176388,-0.088 0.242428,-0.022 l 1.829647,1.65298 c 0.08805,0.0663 0.08805,0.17638 0.02201,0.24271 -0.06604,0.066 -0.176388,0.0881 -0.242428,0.022 z m -3.15214,-2.82138 -1.851378,-1.65325 c -0.06604,-0.066 -0.06604,-0.17639 0,-0.24243 0.04403,-0.066 0.176389,-0.0881 0.242429,-0.022 l 1.829364,1.65326 c 0.08834,0.066 0.08834,0.17611 0.02201,0.24243 -0.06604,0.0881 -0.176106,0.0881 -0.242428,0.022 z"
     style="fill:#000000;fill-opacity:1;fill-rule:nonzero;stroke:#000000;stroke-width:0.5;stroke-linecap:butt;stroke-linejoin:bevel;stroke-miterlimit:4;stroke-dasharray:none;stroke-opacity:1" />
  <path
     id="path415"
     d="m 66.609807,150.32426 -4.694767,-2.02805 2.53492,4.45262"
     style="fill:none;stroke:#000000;stroke-width:0.5;stroke-linecap:round;stroke-linejoin:round;stroke-miterlimit:4;stroke-dasharray:none;stroke-opacity:1" />
  <path
     id="path501"
     d="m 120.98669,201.06414 1.87367,-1.58693 c 0.0881,-0.0663 0.19812,-0.0443 0.26445,0.022 0.044,0.066 0.044,0.17611 -0.022,0.24243 l -1.89568,1.58693 c -0.0881,0.066 -0.19841,0.066 -0.24243,-0.022 -0.066,-0.066 -0.066,-0.17639 0.022,-0.24243 z m 3.24019,-2.71131 1.89541,-1.58693 c 0.0663,-0.066 0.17639,-0.066 0.24271,0.022 0.066,0.0663 0.044,0.17639 -0.0223,0.24243 l -1.8954,1.58722 c -0.066,0.066 -0.17639,0.044 -0.24243,-0.022 -0.0663,-0.0663 -0.0663,-0.17638 0.022,-0.24271 z m 3.2402,-2.73304 1.8954,-1.58693 c 0.0663,-0.044 0.17639,-0.044 0.24243,0.022 0.0663,0.0881 0.0443,0.1984 -0.022,0.26444 l -1.89541,1.58694 c -0.0663,0.0443 -0.17639,0.0443 -0.24271,-0.022 -0.066,-0.0881 -0.044,-0.19841 0.0223,-0.26445 z m 3.23991,-2.71102 1.89569,-1.58722 c 0.066,-0.066 0.17638,-0.044 0.24242,0.0223 0.066,0.0881 0.066,0.19812 -0.022,0.24243 l -1.89569,1.58694 c -0.066,0.066 -0.1761,0.066 -0.24242,-0.022 -0.066,-0.0663 -0.044,-0.17639 0.022,-0.24243 z m 3.24019,-2.71131 1.89569,-1.58694 c 0.088,-0.066 0.1984,-0.066 0.24243,0.022 0.066,0.066 0.066,0.17638 -0.022,0.24242 l -1.87367,1.58722 c -0.088,0.066 -0.1984,0.044 -0.26444,-0.0223 -0.066,-0.066 -0.044,-0.17611 0.022,-0.24243 z m 3.2402,-2.73304 1.8954,-1.56492 c 0.0883,-0.0663 0.1984,-0.0663 0.26472,0.022 0.044,0.066 0.044,0.17639 -0.022,0.24243 l -1.89569,1.58693 c -0.0881,0.066 -0.1984,0.044 -0.26444,-0.022 -0.044,-0.0881 -0.044,-0.1984 0.022,-0.26444 z m 3.2622,-2.71103 1.87339,-1.58722 c 0.0883,-0.066 0.19841,-0.044 0.26445,0.022 0.0663,0.0883 0.0443,0.1984 -0.022,0.26472 l -1.8954,1.56492 c -0.0663,0.066 -0.1984,0.066 -0.24243,-0.022 -0.0663,-0.0663 -0.0663,-0.17639 0.022,-0.24243 z m 3.23991,-2.71131 1.89569,-1.58693 c 0.066,-0.066 0.17639,-0.044 0.24243,0.022 0.0663,0.066 0.044,0.17639 -0.022,0.24243 l -1.89569,1.58693 c -0.066,0.0663 -0.17611,0.0663 -0.24243,-0.022 -0.066,-0.066 -0.066,-0.17639 0.022,-0.24243 z m 3.2402,-2.71102 1.89568,-1.58694 c 0.066,-0.0663 0.17639,-0.0663 0.24243,0.022 0.066,0.066 0.066,0.17611 -0.022,0.24243 l -1.89569,1.58694 c -0.066,0.066 -0.17639,0.044 -0.24243,-0.022 -0.066,-0.088 -0.044,-0.1984 0.022,-0.24242 z m 3.24019,-2.73333 1.89569,-1.58693 c 0.066,-0.044 0.1761,-0.044 0.24243,0.022 0.066,0.0883 0.066,0.1984 -0.022,0.26444 l -1.89568,1.58722 c -0.066,0.044 -0.17639,0.044 -0.24243,-0.022 -0.066,-0.0883 -0.044,-0.1984 0.022,-0.26473 z m 3.24019,-2.71102 1.89541,-1.58694 c 0.0883,-0.0663 0.1984,-0.044 0.24243,0.022 0.0663,0.066 0.0663,0.19841 -0.022,0.24243 l -1.87339,1.58694 c -0.0883,0.0663 -0.1984,0.0663 -0.26444,-0.022 -0.0443,-0.066 -0.0443,-0.17639 0.022,-0.24243 z m 3.26221,-2.71103 1.87339,-1.58722 c 0.0883,-0.066 0.1984,-0.066 0.26444,0.0223 0.0443,0.066 0.0443,0.1761 -0.022,0.24243 l -1.8954,1.58693 c -0.0883,0.066 -0.19841,0.044 -0.24272,-0.022 -0.066,-0.0663 -0.066,-0.17639 0.0223,-0.24243 z m 3.23991,-2.73332 1.89569,-1.56492 c 0.066,-0.066 0.17639,-0.066 0.24243,0.022 0.066,0.066 0.044,0.17639 -0.022,0.24243 l -1.89568,1.58722 c -0.066,0.066 -0.17611,0.044 -0.24243,-0.0223 -0.066,-0.088 -0.066,-0.19812 0.022,-0.26444 z m 3.24019,-2.71103 1.89569,-1.58693 c 0.066,-0.0663 0.17639,-0.0443 0.24243,0.022 0.066,0.088 0.044,0.1984 -0.022,0.24243 l -1.89569,1.58693 c -0.066,0.066 -0.17639,0.066 -0.24243,-0.022 -0.066,-0.066 -0.044,-0.17639 0.022,-0.24243 z m 3.2402,-2.71103 1.89568,-1.58721 c 0.066,-0.066 0.17611,-0.044 0.24243,0.022 0.066,0.0663 0.066,0.17639 -0.022,0.24243 l -1.89569,1.58722 c -0.066,0.066 -0.17639,0.044 -0.24243,-0.022 -0.0663,-0.0663 -0.044,-0.17639 0.022,-0.24243 z m 3.24019,-2.7113 1.89541,-1.58694 c 0.0883,-0.066 0.1984,-0.066 0.24242,0.022 0.0663,0.066 0.0663,0.17639 -0.022,0.24243 l -1.87339,1.58694 c -0.0883,0.0663 -0.1984,0.0443 -0.26444,-0.022 -0.0663,-0.0881 -0.0443,-0.1984 0.022,-0.24242 z m 3.23991,-2.73304 1.89569,-1.58722 c 0.0881,-0.066 0.1984,-0.044 0.26444,0.0223 0.044,0.0881 0.044,0.19812 -0.022,0.26445 l -1.89569,1.58693 c -0.088,0.044 -0.19812,0.044 -0.26444,-0.022 -0.044,-0.0881 -0.044,-0.1984 0.022,-0.26444 z m 3.26221,-2.71131 1.87367,-1.58694 c 0.0881,-0.066 0.1984,-0.044 0.26444,0.022 0.066,0.0663 0.044,0.17639 -0.022,0.24243 l -1.89569,1.58722 c -0.066,0.066 -0.1984,0.066 -0.24242,-0.0223 -0.066,-0.066 -0.066,-0.17611 0.022,-0.24243 z m 3.24019,-2.71103 1.89569,-1.58694 c 0.066,-0.0663 0.17611,-0.0663 0.24243,0.022 0.066,0.066 0.044,0.17639 -0.022,0.24243 l -1.89568,1.58693 c -0.066,0.0663 -0.17639,0.044 -0.24243,-0.022 -0.066,-0.066 -0.066,-0.17639 0.022,-0.24243 z m 3.2402,-2.73304 1.52089,-1.25645 c 0.066,-0.066 0.17611,-0.044 0.24243,0.022 0.066,0.066 0.044,0.17639 -0.022,0.24243 l -1.5209,1.27847 c -0.0663,0.044 -0.17639,0.044 -0.24243,-0.022 -0.0663,-0.0883 -0.0443,-0.1984 0.022,-0.26444 z"
     style="fill:#000000;fill-opacity:1;fill-rule:nonzero;stroke:#000000;stroke-width:0.5;stroke-linecap:butt;stroke-linejoin:bevel;stroke-miterlimit:4;stroke-dasharray:none;stroke-opacity:1" />
  <path
     id="path503"
     d="m 181.55722,152.66049 2.68902,-4.36428 -4.7831,1.87367"
     style="fill:none;stroke:#000000;stroke-width:0.5;stroke-linecap:round;stroke-linejoin:round;stroke-miterlimit:4;stroke-dasharray:none;stroke-opacity:1" />
  <flowRoot
     xml:space="preserve"
     id="flowRoot5348"
     style="font-style:normal;font-weight:normal;font-size:40px;line-height:125%;font-family:'Bitstream Vera Sans';letter-spacing:0px;word-spacing:0px;fill:#000000;fill-opacity:1;stroke:none;stroke-width:1px;stroke-linecap:butt;stroke-linejoin:miter;stroke-opacity:1"
     transform="matrix(0.28222222,0,0,0.28222222,-129.40427,66.605869)"><flowRegion
       id="flowRegion5350"><rect
         id="rect5352"
         width="301.32394"
         height="100.95108"
         x="1011.0406"
         y="377.74261" /></flowRegion><flowPara
       id="flowPara5354"
       style="font-style:normal;font-variant:normal;font-weight:normal;font-stretch:normal;font-size:16.25px;font-family:Arial;-inkscape-font-specification:Arial">«bind»</flowPara><flowPara
       id="flowPara5356"
       style="font-style:normal;font-variant:normal;font-weight:normal;font-stretch:normal;font-size:16.25px;font-family:Arial;-inkscape-font-specification:Arial">Resource-&gt; &quot;Facility,</flowPara><flowPara
       style="font-style:normal;font-variant:normal;font-weight:normal;font-stretch:normal;font-size:16.25px;font-family:Arial;-inkscape-font-specification:Arial"
       id="flowPara5358">ResourceKind-&gt; &quot;FacilitySpecification&quot;,</flowPara><flowPara
       style="font-style:normal;font-variant:normal;font-weight:normal;font-stretch:normal;font-size:16.25px;font-family:Arial;-inkscape-font-specification:Arial"
       id="flowPara5360">System-&gt; TrainingAdminSystem</flowPara></flowRoot>  <flowRoot
     xml:space="preserve"
     id="flowRoot5348-9"
     style="font-style:normal;font-weight:normal;font-size:11.28888893px;line-height:125%;font-family:'Bitstream Vera Sans';letter-spacing:0px;word-spacing:0px;fill:#000000;fill-opacity:1;stroke:none;stroke-width:1px;stroke-linecap:butt;stroke-linejoin:miter;stroke-opacity:1"
     transform="translate(30.544871,174.44358)"><flowRegion
       id="flowRegion5350-0"><rect
         id="rect5352-7"
         width="85.040314"
         height="28.490639"
         x="-0.20613839"
         y="-1.230132" /></flowRegion><flowPara
       id="flowPara5354-3"
       style="font-style:normal;font-variant:normal;font-weight:normal;font-stretch:normal;font-size:4.58611107px;font-family:Arial;-inkscape-font-specification:Arial">«bind»</flowPara><flowPara
       id="flowPara5356-2"
       style="font-style:normal;font-variant:normal;font-weight:normal;font-stretch:normal;font-size:4.58611107px;font-family:Arial;-inkscape-font-specification:Arial">Resource-&gt; &quot;Instructor&quot;,</flowPara><flowPara
       style="font-style:normal;font-variant:normal;font-weight:normal;font-stretch:normal;font-size:4.58611107px;font-family:Arial;-inkscape-font-specification:Arial"
       id="flowPara5358-1">ResourceKind-&gt; &quot;Qualification&quot;,</flowPara><flowPara
       style="font-style:normal;font-variant:normal;font-weight:normal;font-stretch:normal;font-size:4.58611107px;font-family:Arial;-inkscape-font-specification:Arial"
       id="flowPara5360-4">System-&gt; TrainingAdminSystem</flowPara></flowRoot>  <flowRoot
     xml:space="preserve"
     id="flowRoot5395"
     style="font-style:normal;font-weight:normal;font-size:11.28888893px;line-height:125%;font-family:'Bitstream Vera Sans';letter-spacing:0px;word-spacing:0px;fill:#000000;fill-opacity:1;stroke:none;stroke-width:1px;stroke-linecap:butt;stroke-linejoin:miter;stroke-opacity:1"
     transform="translate(-126.77105,-15.423184)"><flowRegion
       id="flowRegion5397"><rect
         id="rect5399"
         width="34.984299"
         height="7.5235043"
         x="156.11272"
         y="39.210327" /></flowRegion><flowPara
       style="font-style:normal;font-variant:normal;font-weight:normal;font-stretch:normal;font-size:4.58611107px;font-family:Calibri;-inkscape-font-specification:Calibri;text-align:center;text-anchor:middle"
       id="flowPara5403">$a&lt;Resource&gt;$</flowPara></flowRoot>  <text
     xml:space="preserve"
     style="font-style:normal;font-variant:normal;font-weight:400;font-size:4.58611107px;line-height:123.0381608%;font-family:Calibri;text-align:start;letter-spacing:0px;word-spacing:0px;text-anchor:start;fill:#000000;fill-opacity:1;stroke:none"
     x="205.0605"
     y="10.383497"
     id="text23"
     sodipodi:linespacing="123.03816%"><tspan
       sodipodi:role="line"
       x="205.0605"
       y="10.383497"
       id="tspan25"><tspan
         dx="0"
         dy="0"
         style="font-style:normal;font-variant:normal;font-weight:400;font-size:4.58611107px;font-family:Calibri;fill:#000000"
         id="tspan27">Resource</tspan><tspan
         dx="0"
         dy="0"
         style="font-style:normal;font-variant:normal;font-weight:400;font-size:4.58611107px;font-family:Calibri;fill:#000000"
         id="tspan29">: </tspan><tspan
         dx="0"
         dy="0"
         style="font-style:normal;font-variant:normal;font-weight:400;font-size:4.58611107px;font-family:Calibri;fill:#000000"
         id="tspan31">StringExpression</tspan><tspan
         dx="0.89347631"
         dy="0"
         style="font-style:normal;font-variant:normal;font-weight:400;font-size:4.58611107px;font-family:Calibri;fill:#000000"
         id="tspan33">,</tspan></tspan><tspan
       sodipodi:role="line"
       x="205.0605"
       y="16.026163"
       id="tspan35"><tspan
         dx="0"
         dy="0"
         style="font-style:normal;font-variant:normal;font-weight:400;font-size:4.58611107px;font-family:Calibri;fill:#000000"
         id="tspan37">ResourceKind</tspan><tspan
         dx="-0.054497678"
         dy="0"
         style="font-style:normal;font-variant:normal;font-weight:400;font-size:4.58611107px;font-family:Calibri;fill:#000000"
         id="tspan39"> : </tspan><tspan
         dx="0"
         dy="0"
         style="font-style:normal;font-variant:normal;font-weight:400;font-size:4.58611107px;font-family:Calibri;fill:#000000"
         id="tspan41">StringExpression</tspan><tspan
         dx="0.89347631"
         dy="0"
         style="font-style:normal;font-variant:normal;font-weight:400;font-size:4.58611107px;font-family:Calibri;fill:#000000"
         id="tspan43">, </tspan></tspan><tspan
       sodipodi:role="line"
       x="205.0605"
       y="21.668829"
       id="tspan45"><tspan
         style="font-style:normal;font-variant:normal;font-weight:400;font-size:4.58611107px;font-family:Calibri;fill:#000000"
         id="tspan47"
         dy="0"
         dx="0">System</tspan></tspan></text>
  <text
     xml:space="preserve"
     style="font-style:normal;font-variant:normal;font-weight:400;font-size:4.58611107px;line-height:123.0381608%;font-family:Calibri;text-align:start;letter-spacing:0px;word-spacing:0px;text-anchor:start;fill:#000000;fill-opacity:1;stroke:none"
     x="189.94341"
     y="44.813881"
     id="text23-8"
     sodipodi:linespacing="123.03816%"><tspan
       sodipodi:role="line"
       x="189.94341"
       y="44.813881"
       id="tspan45-1"
       style="text-align:center;text-anchor:middle">allocation</tspan><tspan
       sodipodi:role="line"
       x="189.94341"
       y="50.456547"
       id="tspan5573"
       style="text-align:center;text-anchor:middle">$a&lt;Resource&gt;Allocation$</tspan></text>
</svg>
