<?xml version="1.0" encoding="UTF-8" standalone="no"?>
<svg
   xmlns:dc="http://purl.org/dc/elements/1.1/"
   xmlns:cc="http://creativecommons.org/ns#"
   xmlns:rdf="http://www.w3.org/1999/02/22-rdf-syntax-ns#"
   xmlns:svg="http://www.w3.org/2000/svg"
   xmlns="http://www.w3.org/2000/svg"
   viewBox="0 0 391.90668 279.92001"
   height="279.92001"
   width="391.90668"
   xml:space="preserve"
   version="1.1"
   id="svg2"><metadata
     id="metadata8"><rdf:RDF><cc:Work
         rdf:about=""><dc:format>image/svg+xml</dc:format><dc:type
           rdf:resource="http://purl.org/dc/dcmitype/StillImage" /></cc:Work></rdf:RDF></metadata><defs
     id="defs6" /><g
     transform="matrix(1.3333333,0,0,-1.3333333,0,279.92)"
     id="g10"><g
       transform="scale(0.1)"
       id="g12"><path
         id="path14"
         style="fill:#fab80a;fill-opacity:1;fill-rule:nonzero;stroke:none"
         d="m 1082.51,1583.78 323.05,-184.24 101.56,-546.716 2.43,-1.386 104.62,433.172 299.03,-174.58 0,-1110.03 -223.81,127.648 0,827.082 40.11,-64.835 -175.99,-675.825 -137.03,69.207 -191.59,895.653 51.09,12.09 0,-827.086 -193.47,109.812 0,1110.034" /><path
         id="path16"
         style="fill:#3d247c;fill-opacity:1;fill-rule:nonzero;stroke:none"
         d="m 1947.44,1111.11 281.79,167.05 0,-832.39 525.83,310.507 0,-277.644 -807.62,-477.55097 0,1110.02797" /><path
         id="path18"
         style="fill:#a11445;fill-opacity:1;fill-rule:nonzero;stroke:none"
         d="m 1949.61,2099.41 535.27,-303.32 c 127.68,-74.33 189.1,-228.91 -126.13,-415.2 -284.4,-168.07 -523.13,-189.88 -683.91,-96.28 l -558.42,324.56 288.13,167.15 494.8,-287.12 c 105.22,-61.25 224.53,-34.82 318.76,20.87 106.5,62.94 68.16,121.84 -11.57,168.26 l -494.8,287.12 237.87,133.96" /><path
         id="path20"
         style="fill:#3d247c;fill-opacity:1;fill-rule:nonzero;stroke:none"
         d="m 267.086,1547.11 0,-154.84 c 0,-27.16 8.121,-32.75 19.602,-32.75 19.32,0 21,12.32 21.277,29.68 l 0,157.91 28,0 0,-149.79 c 0,-27.73 0.281,-64.12 -48.438,-64.12 -44.519,0 -48.441,30.23 -48.441,68.32 l 0,145.59 28,0" /><path
         id="path22"
         style="fill:#3d247c;fill-opacity:1;fill-rule:nonzero;stroke:none"
         d="m 399.191,1484.39 4.2,-70.84 0,-77.55 -28,0 0,211.11 26.879,0 49.281,-160.43 0.558,0.55 -6.718,84.56 0,75.32 28,0 0,-211.11 -26.039,0 -49.282,162.67 -0.558,-0.56 1.679,-13.72" /><path
         id="path24"
         style="fill:#3d247c;fill-opacity:1;fill-rule:nonzero;stroke:none"
         d="m 513.129,1336 28,0 0,211.117 -28,0 0,-211.117 z" /><path
         id="path26"
         style="fill:#3d247c;fill-opacity:1;fill-rule:nonzero;stroke:none"
         d="m 656.75,1547.11 0,-24.36 -47.879,0 0,-66.36 43.117,0 0,-24.35 -43.117,0 0,-96.04 -28,0 0,211.11 75.879,0" /><path
         id="path28"
         style="fill:#3d247c;fill-opacity:1;fill-rule:nonzero;stroke:none"
         d="m 682.176,1336 28,0 0,211.117 -28,0 0,-211.117 z" /><path
         id="path30"
         style="fill:#3d247c;fill-opacity:1;fill-rule:nonzero;stroke:none"
         d="m 825.234,1547.11 0,-24.36 -47.32,0 0,-66.36 42.281,0 0,-24.35 -42.281,0 0,-71.68 47.32,0 0,-24.36 -75.32,0 0,211.11 75.32,0" /><path
         id="path32"
         style="fill:#3d247c;fill-opacity:1;fill-rule:nonzero;stroke:none"
         d="m 884.016,1547.11 c 33.039,0 70.558,-2.23 70.558,-109.2 0,-97.44 -32.48,-101.91 -82.601,-101.91 l -19.321,0 0,211.11 31.364,0 z m -3.364,-23.8 0,-163.52 c 46.203,-1.4 44.243,42.28 44.243,78.12 0,32.48 3.078,88.2 -44.243,85.4" /><path
         id="path34"
         style="fill:#3d247c;fill-opacity:1;fill-rule:nonzero;stroke:none"
         d="m 41.4414,1122.11 29.957,-152.317 0.5625,0 0.8399,8.68 8.3984,50.677 18.1992,92.96 24.6406,0 19.602,-211.114 -27.442,0 -5.039,78.68 -1.68,39.204 -0.562,27.71 -0.559,0 -4.761,-30.23 -21.8402,-115.364 -19.3203,0 -27.1563,145.594 -0.5624,0 -8.1172,-145.594 -26.6016,0 17.3594,211.114 24.082,0" /><path
         id="path36"
         style="fill:#3d247c;fill-opacity:1;fill-rule:nonzero;stroke:none"
         d="m 277.422,1016.55 c 0,-38.077 -0.559,-108.355 -54.879,-108.355 -54.32,0 -54.879,70.278 -54.879,108.355 0,38.08 0.559,108.36 54.879,108.36 54.32,0 54.879,-70.28 54.879,-108.36 z m -80.078,0 c 0,-44.796 3.078,-82.034 25.199,-82.034 22.121,0 25.199,37.238 25.199,82.034 0,44.8 -3.078,82.04 -25.199,82.04 -22.121,0 -25.199,-37.24 -25.199,-82.04" /><path
         id="path38"
         style="fill:#3d247c;fill-opacity:1;fill-rule:nonzero;stroke:none"
         d="m 343.176,1122.11 c 33.039,0 70.558,-2.23 70.558,-109.2 0,-97.437 -32.476,-101.914 -82.597,-101.914 l -19.321,0 0,211.114 31.36,0 z m -3.36,-23.8 0,-163.517 c 46.2,-1.398 44.239,42.281 44.239,78.117 0,32.48 3.082,88.2 -44.239,85.4" /><path
         id="path40"
         style="fill:#3d247c;fill-opacity:1;fill-rule:nonzero;stroke:none"
         d="m 523.168,1122.11 0,-24.36 -47.32,0 0,-66.36 42.281,0 0,-24.35 -42.281,0 0,-71.685 47.32,0 0,-24.359 -75.32,0 0,211.114 75.32,0" /><path
         id="path42"
         style="fill:#3d247c;fill-opacity:1;fill-rule:nonzero;stroke:none"
         d="m 578.586,1122.11 0,-186.755 47.039,0 0,-24.359 -75.039,0 0,211.114 28,0" /><path
         id="path44"
         style="fill:#3d247c;fill-opacity:1;fill-rule:nonzero;stroke:none"
         d="m 648.816,910.996 28,0 0,211.117 -28,0 0,-211.117 z" /><path
         id="path46"
         style="fill:#3d247c;fill-opacity:1;fill-rule:nonzero;stroke:none"
         d="m 740.355,1059.39 4.2,-70.835 0,-77.559 -28,0 0,211.114 26.879,0 49.281,-160.434 0.558,0.558 -6.718,84.556 0,75.32 28,0 0,-211.114 -26.039,0 -49.282,162.674 -0.558,-0.56 1.679,-13.72" /><path
         id="path48"
         style="fill:#3d247c;fill-opacity:1;fill-rule:nonzero;stroke:none"
         d="m 955.375,1022.43 0,-3.36 c 0,-40.316 5.879,-110.875 -50.402,-110.875 -50.118,0 -55.996,48.16 -55.996,107.805 0,59.07 4.757,108.91 53.476,108.91 29.961,0 44.242,-15.12 51.52,-43.12 l -26.598,-10.91 c -2.801,14 -6.723,27.71 -24.082,27.71 -22.957,0 -24.637,-31.36 -24.637,-82.32 0,-73.356 12.317,-81.754 24.637,-81.754 11.48,0 24.082,1.679 24.082,52.078 l 0,11.48 -23.52,0 0,24.356 51.52,0" /><path
         id="path50"
         style="fill:#3d247c;fill-opacity:1;fill-rule:nonzero;stroke:none"
         d="m 35.5547,697.113 0,-186.758 47.0391,0 0,-24.359 -75.03911,0 0,211.117 28.00001,0" /><path
         id="path52"
         style="fill:#3d247c;fill-opacity:1;fill-rule:nonzero;stroke:none"
         d="m 169.059,697.113 45.359,-211.117 -28.277,0 -7.84,41.156 -42,0 -7.84,-41.156 -27.441,0 45.918,211.117 22.121,0 z m -0.559,-117.597 -10.641,76.718 -0.558,0 -16.801,-107.238 33.598,0 -5.598,30.52" /><path
         id="path54"
         style="fill:#3d247c;fill-opacity:1;fill-rule:nonzero;stroke:none"
         d="m 251.051,634.395 4.199,-70.84 0,-77.559 -28,0 0,211.117 26.883,0 49.277,-160.437 0.563,0.558 -6.723,84.559 0,75.32 28,0 0,-211.117 -26.039,0 -49.281,162.676 -0.559,-0.559 1.68,-13.718" /><path
         id="path56"
         style="fill:#3d247c;fill-opacity:1;fill-rule:nonzero;stroke:none"
         d="m 466.07,597.434 0,-3.36 c 0,-40.32 5.879,-110.879 -50.398,-110.879 -50.121,0 -56,48.16 -56,107.801 0,59.078 4.758,108.918 53.48,108.918 29.957,0 44.239,-15.121 51.52,-43.121 L 438.07,645.875 c -2.8,14 -6.718,27.719 -24.078,27.719 -22.961,0 -24.64,-31.36 -24.64,-82.321 0,-73.359 12.32,-81.757 24.64,-81.757 11.481,0 24.078,1.679 24.078,52.078 l 0,11.48 -23.519,0 0,24.36 51.519,0" /><path
         id="path58"
         style="fill:#3d247c;fill-opacity:1;fill-rule:nonzero;stroke:none"
         d="m 521.781,697.113 0,-154.84 c 0,-27.16 8.117,-32.757 19.598,-32.757 19.32,0 21,12.32 21.281,29.679 l 0,157.918 28,0 0,-149.801 c 0,-27.718 0.281,-64.117 -48.441,-64.117 -44.52,0 -48.438,30.239 -48.438,68.321 l 0,145.597 28,0" /><path
         id="path60"
         style="fill:#3d247c;fill-opacity:1;fill-rule:nonzero;stroke:none"
         d="m 682.164,697.113 45.359,-211.117 -28.277,0 -7.844,41.156 -42,0 -7.84,-41.156 -27.437,0 45.918,211.117 22.121,0 z m -0.559,-117.597 -10.64,76.718 -0.563,0 -16.797,-107.238 33.598,0 -5.598,30.52" /><path
         id="path62"
         style="fill:#3d247c;fill-opacity:1;fill-rule:nonzero;stroke:none"
         d="m 852.633,597.434 0,-3.36 c 0,-40.32 5.883,-110.879 -50.399,-110.879 -50.121,0 -56,48.16 -56,107.801 0,59.078 4.762,108.918 53.481,108.918 29.961,0 44.238,-15.121 51.519,-43.121 l -26.601,-10.918 c -2.797,14 -6.719,27.719 -24.078,27.719 -22.961,0 -24.641,-31.36 -24.641,-82.321 0,-73.359 12.32,-81.757 24.641,-81.757 11.48,0 24.078,1.679 24.078,52.078 l 0,11.48 -23.516,0 0,24.36 51.516,0" /><path
         id="path64"
         style="fill:#3d247c;fill-opacity:1;fill-rule:nonzero;stroke:none"
         d="m 961.266,697.113 0,-24.359 -47.321,0 0,-66.359 42.282,0 0,-24.36 -42.282,0 0,-71.68 47.321,0 0,-24.359 -75.321,0 0,211.117 75.321,0" /><path
         id="path66"
         style="fill:#000000;fill-opacity:1;fill-rule:nonzero;stroke:none"
         d="m 2817.25,562.594 52.38,0 0,-7.692 -21.75,0 0,-56.867 -8.88,0 0,56.867 -21.75,0 0,7.692" /><path
         id="path68"
         style="fill:#000000;fill-opacity:1;fill-rule:nonzero;stroke:none"
         d="m 2877.41,498.035 0,64.559 12.52,0 18.55,-54.582 18.41,54.582 12.4,0 0,-64.559 -8.31,0 0,38.102 c 0,1.32 0.03,3.5 0.09,6.547 0.05,3.046 0.09,6.316 0.09,9.8 l -18.42,-54.449 -8.65,0 -18.55,54.449 0,-1.976 c 0,-1.582 0.03,-3.992 0.11,-7.231 0.07,-3.238 0.11,-5.617 0.11,-7.14 l 0,-38.102 -8.35,0" /></g></g></svg>