<?xml version="1.0" encoding="UTF-8"?><svg stroke-dasharray="none" shape-rendering="auto" xmlns="http://www.w3.org/2000/svg" font-family="'Dialog'" width="628" text-rendering="auto" fill-opacity="1" contentScriptType="text/ecmascript" color-interpolation="auto" color-rendering="auto" preserveAspectRatio="xMidYMid meet" font-size="12" viewBox="0 0 628 303" fill="black" xmlns:xlink="http://www.w3.org/1999/xlink" stroke="black" image-rendering="auto" stroke-miterlimit="10" zoomAndPan="magnify" version="1.0" stroke-linecap="square" stroke-linejoin="miter" contentStyleType="text/css" font-style="normal" height="303" stroke-width="1" stroke-dashoffset="0" font-weight="normal" stroke-opacity="1">
<!--Generated by the Batik Graphics2D SVG Generator-->
<defs id="genericDefs"/>
<g>
<defs id="defs1">
<clipPath clipPathUnits="userSpaceOnUse" id="clipPath1">
<path d="M184 8 L287 8 L287 36 L184 36 L184 8 Z"/>
</clipPath>
<clipPath clipPathUnits="userSpaceOnUse" id="clipPath2">
<path d="M195 12 L273 12 L273 28 L195 28 L195 12 Z"/>
</clipPath>
<clipPath clipPathUnits="userSpaceOnUse" id="clipPath3">
<path d="M150 140 L307 140 L307 180 L150 180 L150 140 Z"/>
</clipPath>
<clipPath clipPathUnits="userSpaceOnUse" id="clipPath4">
<path d="M161 144 L293 144 L293 160 L161 160 L161 144 Z"/>
</clipPath>
<clipPath clipPathUnits="userSpaceOnUse" id="clipPath5">
<path d="M151 160 L303 160 L303 175 L151 175 L151 160 Z"/>
</clipPath>
<clipPath clipPathUnits="userSpaceOnUse" id="clipPath6">
<path d="M64 56 L385 56 L385 124 L64 124 L64 56 Z"/>
</clipPath>
<clipPath clipPathUnits="userSpaceOnUse" id="clipPath7">
<path d="M136 60 L311 60 L311 76 L136 76 L136 60 Z"/>
</clipPath>
<clipPath clipPathUnits="userSpaceOnUse" id="clipPath8">
<path d="M71 77 L269 77 L269 93 L71 93 L71 77 Z"/>
</clipPath>
<clipPath clipPathUnits="userSpaceOnUse" id="clipPath9">
<path d="M71 90 L369 90 L369 106 L71 106 L71 90 Z"/>
</clipPath>
<clipPath clipPathUnits="userSpaceOnUse" id="clipPath10">
<path d="M71 103 L376 103 L376 119 L71 119 L71 103 Z"/>
</clipPath>
<clipPath clipPathUnits="userSpaceOnUse" id="clipPath11">
<path d="M65 76 L381 76 L381 119 L65 119 L65 76 Z"/>
</clipPath>
<clipPath clipPathUnits="userSpaceOnUse" id="clipPath12">
<path d="M429 101 L619 101 L619 182 L429 182 L429 101 Z"/>
</clipPath>
<clipPath clipPathUnits="userSpaceOnUse" id="clipPath13">
<path d="M484 105 L560 105 L560 121 L484 121 L484 105 Z"/>
</clipPath>
<clipPath clipPathUnits="userSpaceOnUse" id="clipPath14">
<path d="M440 118 L605 118 L605 134 L440 134 L440 118 Z"/>
</clipPath>
<clipPath clipPathUnits="userSpaceOnUse" id="clipPath15">
<path d="M435 135 L471 135 L471 151 L435 151 L435 135 Z"/>
</clipPath>
<clipPath clipPathUnits="userSpaceOnUse" id="clipPath16">
<path d="M435 148 L478 148 L478 164 L435 164 L435 148 Z"/>
</clipPath>
<clipPath clipPathUnits="userSpaceOnUse" id="clipPath17">
<path d="M435 161 L466 161 L466 177 L435 177 L435 161 Z"/>
</clipPath>
<clipPath clipPathUnits="userSpaceOnUse" id="clipPath18">
<path d="M430 134 L615 134 L615 177 L430 177 L430 134 Z"/>
</clipPath>
<clipPath clipPathUnits="userSpaceOnUse" id="clipPath19">
<path d="M146 207 L294 207 L294 247 L146 247 L146 207 Z"/>
</clipPath>
<clipPath clipPathUnits="userSpaceOnUse" id="clipPath20">
<path d="M157 211 L280 211 L280 227 L157 227 L157 211 Z"/>
</clipPath>
<clipPath clipPathUnits="userSpaceOnUse" id="clipPath21">
<path d="M147 227 L290 227 L290 242 L147 242 L147 227 Z"/>
</clipPath>
<clipPath clipPathUnits="userSpaceOnUse" id="clipPath22">
<path d="M233 254 L370 254 L370 294 L233 294 L233 254 Z"/>
</clipPath>
<clipPath clipPathUnits="userSpaceOnUse" id="clipPath23">
<path d="M244 258 L356 258 L356 274 L244 274 L244 258 Z"/>
</clipPath>
<clipPath clipPathUnits="userSpaceOnUse" id="clipPath24">
<path d="M234 274 L366 274 L366 289 L234 289 L234 274 Z"/>
</clipPath>
<clipPath clipPathUnits="userSpaceOnUse" id="clipPath25">
<path d="M8 209 L137 209 L137 249 L8 249 L8 209 Z"/>
</clipPath>
<clipPath clipPathUnits="userSpaceOnUse" id="clipPath26">
<path d="M19 213 L123 213 L123 229 L19 229 L19 213 Z"/>
</clipPath>
<clipPath clipPathUnits="userSpaceOnUse" id="clipPath27">
<path d="M9 229 L133 229 L133 244 L9 244 L9 229 Z"/>
</clipPath>
<clipPath clipPathUnits="userSpaceOnUse" id="clipPath28">
<path d="M12 254 L226 254 L226 294 L12 294 L12 254 Z"/>
</clipPath>
<clipPath clipPathUnits="userSpaceOnUse" id="clipPath29">
<path d="M23 258 L212 258 L212 274 L23 274 L23 258 Z"/>
</clipPath>
<clipPath clipPathUnits="userSpaceOnUse" id="clipPath30">
<path d="M13 274 L222 274 L222 289 L13 289 L13 274 Z"/>
</clipPath>
<clipPath clipPathUnits="userSpaceOnUse" id="clipPath31">
<path d="M307 208 L472 208 L472 248 L307 248 L307 208 Z"/>
</clipPath>
<clipPath clipPathUnits="userSpaceOnUse" id="clipPath32">
<path d="M318 212 L458 212 L458 228 L318 228 L318 212 Z"/>
</clipPath>
<clipPath clipPathUnits="userSpaceOnUse" id="clipPath33">
<path d="M308 228 L468 228 L468 243 L308 243 L308 228 Z"/>
</clipPath>
<clipPath clipPathUnits="userSpaceOnUse" id="clipPath34">
<path d="M383 254 L552 254 L552 294 L383 294 L383 254 Z"/>
</clipPath>
<clipPath clipPathUnits="userSpaceOnUse" id="clipPath35">
<path d="M394 258 L538 258 L538 274 L394 274 L394 258 Z"/>
</clipPath>
<clipPath clipPathUnits="userSpaceOnUse" id="clipPath36">
<path d="M384 274 L548 274 L548 289 L384 289 L384 274 Z"/>
</clipPath>
<clipPath clipPathUnits="userSpaceOnUse" id="clipPath37">
<path d="M485 207 L620 207 L620 247 L485 247 L485 207 Z"/>
</clipPath>
<clipPath clipPathUnits="userSpaceOnUse" id="clipPath38">
<path d="M495 211 L606 211 L606 227 L495 227 L495 211 Z"/>
</clipPath>
<clipPath clipPathUnits="userSpaceOnUse" id="clipPath39">
<path d="M485 227 L616 227 L616 242 L485 242 L485 227 Z"/>
</clipPath>
<clipPath clipPathUnits="userSpaceOnUse" id="clipPath40">
<path d="M-1 -1 L629 -1 L629 304 L-1 304 L-1 -1 Z"/>
</clipPath>
<clipPath clipPathUnits="userSpaceOnUse" id="clipPath41">
<path d="M218 173 L232 173 L232 187 L218 187 L218 173 Z"/>
</clipPath>
<clipPath clipPathUnits="userSpaceOnUse" id="clipPath42">
<path d="M221 29 L235 29 L235 43 L221 43 L221 29 Z"/>
</clipPath>
<clipPath clipPathUnits="userSpaceOnUse" id="clipPath43">
<path d="M218 117 L232 117 L232 131 L218 131 L218 117 Z"/>
</clipPath>
</defs>
<g font-size="11" fill="white" font-family="'Tahoma'" stroke-linejoin="round" stroke="white" stroke-width="0" stroke-miterlimit="0">
<rect x="186" y="10" clip-path="url(#clipPath1)" width="96" height="20" stroke="none"/>
<rect x="186" y="10" clip-path="url(#clipPath1)" width="96" height="20" stroke="none"/>
</g>
<g font-size="11" font-family="'Tahoma'" stroke-linejoin="round" font-style="italic" font-weight="bold" stroke-width="0" stroke-miterlimit="0">
<text xml:space="preserve" x="196" y="24" clip-path="url(#clipPath2)" stroke="none">UMLDiagram</text>
</g>
<g font-size="11" stroke-width="1.1827" font-family="'Tahoma'" stroke-linecap="butt">
<rect x="185" y="9" clip-path="url(#clipPath1)" fill="none" width="96" height="20"/>
<rect x="152" y="142" clip-path="url(#clipPath3)" fill="white" width="150" height="32" stroke="none"/>
<rect x="152" y="142" clip-path="url(#clipPath3)" fill="white" width="150" height="32" stroke="none"/>
<text x="162" y="156" clip-path="url(#clipPath4)" font-style="italic" stroke="none" font-weight="bold" xml:space="preserve">UMLStructureDiagram</text>
<line clip-path="url(#clipPath5)" fill="none" x1="152" x2="301" y1="161" y2="161"/>
<rect x="151" y="141" clip-path="url(#clipPath3)" fill="none" width="150" height="32"/>
<rect x="66" y="58" clip-path="url(#clipPath6)" fill="white" width="314" height="60" stroke="none"/>
<rect x="66" y="58" clip-path="url(#clipPath6)" fill="white" width="314" height="60" stroke="none"/>
<text x="137" y="72" clip-path="url(#clipPath7)" font-style="italic" stroke="none" font-weight="bold" xml:space="preserve">UMLDiagramWithAssociations</text>
<text xml:space="preserve" x="72" y="89" clip-path="url(#clipPath8)" stroke="none">isAssociationDotShown : Boolean = false</text>
<text xml:space="preserve" x="72" y="102" clip-path="url(#clipPath9)" stroke="none">navigabilityNotation : UMLNavigabilityNotationKind = oneWay</text>
<text xml:space="preserve" x="72" y="115" clip-path="url(#clipPath10)" stroke="none">nonNavigabilityNotation : UMLNavigabilityNotationKind = never</text>
<line clip-path="url(#clipPath11)" fill="none" x1="66" x2="379" y1="77" y2="77"/>
<rect x="65" y="57" clip-path="url(#clipPath6)" fill="none" width="314" height="60"/>
<rect x="431" y="103" clip-path="url(#clipPath12)" fill="white" width="183" height="73" stroke="none"/>
<rect x="431" y="103" clip-path="url(#clipPath12)" fill="white" width="183" height="73" stroke="none"/>
<text xml:space="preserve" x="485" y="117" clip-path="url(#clipPath13)" stroke="none">«enumeration»</text>
<text x="441" y="130" clip-path="url(#clipPath14)" stroke="none" font-weight="bold" xml:space="preserve">UMLNavigabilityNotationKind</text>
<text xml:space="preserve" x="436" y="147" clip-path="url(#clipPath15)" stroke="none">always</text>
<text xml:space="preserve" x="436" y="160" clip-path="url(#clipPath16)" stroke="none">oneWay</text>
<text xml:space="preserve" x="436" y="173" clip-path="url(#clipPath17)" stroke="none">never</text>
<line clip-path="url(#clipPath18)" fill="none" x1="431" x2="613" y1="135" y2="135"/>
<rect x="430" y="102" clip-path="url(#clipPath12)" fill="none" width="183" height="73"/>
<rect x="148" y="209" clip-path="url(#clipPath19)" fill="white" width="141" height="32" stroke="none"/>
<rect x="148" y="209" clip-path="url(#clipPath19)" fill="white" width="141" height="32" stroke="none"/>
<text x="158" y="223" clip-path="url(#clipPath20)" stroke="none" font-weight="bold" xml:space="preserve">UMLPackageDiagram</text>
<line clip-path="url(#clipPath21)" fill="none" x1="148" x2="288" y1="228" y2="228"/>
<rect x="147" y="208" clip-path="url(#clipPath19)" fill="none" width="141" height="32"/>
<rect x="235" y="256" clip-path="url(#clipPath22)" fill="white" width="130" height="32" stroke="none"/>
<rect x="235" y="256" clip-path="url(#clipPath22)" fill="white" width="130" height="32" stroke="none"/>
<text x="245" y="270" clip-path="url(#clipPath23)" stroke="none" font-weight="bold" xml:space="preserve">UMLObjectDiagram</text>
<line clip-path="url(#clipPath24)" fill="none" x1="235" x2="364" y1="275" y2="275"/>
<rect x="234" y="255" clip-path="url(#clipPath22)" fill="none" width="130" height="32"/>
<rect x="10" y="211" clip-path="url(#clipPath25)" fill="white" width="122" height="32" stroke="none"/>
<rect x="10" y="211" clip-path="url(#clipPath25)" fill="white" width="122" height="32" stroke="none"/>
<text x="20" y="225" clip-path="url(#clipPath26)" stroke="none" font-weight="bold" xml:space="preserve">UMLClassDiagram</text>
<line clip-path="url(#clipPath27)" fill="none" x1="10" x2="131" y1="230" y2="230"/>
<rect x="9" y="210" clip-path="url(#clipPath25)" fill="none" width="122" height="32"/>
<rect x="14" y="256" clip-path="url(#clipPath28)" fill="white" width="207" height="32" stroke="none"/>
<rect x="14" y="256" clip-path="url(#clipPath28)" fill="white" width="207" height="32" stroke="none"/>
<text x="24" y="270" clip-path="url(#clipPath29)" stroke="none" font-weight="bold" xml:space="preserve">UMLCompositeStructureDiagram</text>
<line clip-path="url(#clipPath30)" fill="none" x1="14" x2="220" y1="275" y2="275"/>
<rect x="13" y="255" clip-path="url(#clipPath28)" fill="none" width="207" height="32"/>
<rect x="309" y="210" clip-path="url(#clipPath31)" fill="white" width="158" height="32" stroke="none"/>
<rect x="309" y="210" clip-path="url(#clipPath31)" fill="white" width="158" height="32" stroke="none"/>
<text x="319" y="224" clip-path="url(#clipPath32)" stroke="none" font-weight="bold" xml:space="preserve">UMLComponentDiagram</text>
<line clip-path="url(#clipPath33)" fill="none" x1="309" x2="466" y1="229" y2="229"/>
<rect x="308" y="209" clip-path="url(#clipPath31)" fill="none" width="158" height="32"/>
<rect x="385" y="256" clip-path="url(#clipPath34)" fill="white" width="162" height="32" stroke="none"/>
<rect x="385" y="256" clip-path="url(#clipPath34)" fill="white" width="162" height="32" stroke="none"/>
<text x="395" y="270" clip-path="url(#clipPath35)" stroke="none" font-weight="bold" xml:space="preserve">UMLDeploymentDiagram</text>
<line clip-path="url(#clipPath36)" fill="none" x1="385" x2="546" y1="275" y2="275"/>
<rect x="384" y="255" clip-path="url(#clipPath34)" fill="none" width="162" height="32"/>
<rect x="486" y="209" clip-path="url(#clipPath37)" fill="white" width="129" height="32" stroke="none"/>
<rect x="486" y="209" clip-path="url(#clipPath37)" fill="white" width="129" height="32" stroke="none"/>
<text x="496" y="223" clip-path="url(#clipPath38)" stroke="none" font-weight="bold" xml:space="preserve">UMLProfileDiagram</text>
<line clip-path="url(#clipPath39)" fill="none" x1="486" x2="614" y1="228" y2="228"/>
<rect x="486" y="208" clip-path="url(#clipPath37)" fill="none" width="128" height="32"/>
<line clip-path="url(#clipPath40)" fill="none" x1="218" x2="218" y1="208" y2="195"/>
<line clip-path="url(#clipPath40)" fill="none" x1="218" x2="224" y1="195" y2="195"/>
<line clip-path="url(#clipPath40)" fill="none" x1="224" x2="224" y1="195" y2="174"/>
<polygon fill="white" clip-path="url(#clipPath41)" points=" 224 174 229 184 219 184" stroke="none"/>
<polygon fill="none" clip-path="url(#clipPath41)" points=" 224 174 229 184 219 184"/>
<line clip-path="url(#clipPath40)" fill="none" x1="298" x2="298" y1="255" y2="195"/>
<line clip-path="url(#clipPath40)" fill="none" x1="298" x2="224" y1="195" y2="195"/>
<line clip-path="url(#clipPath40)" fill="none" x1="224" x2="224" y1="195" y2="174"/>
<polygon fill="white" clip-path="url(#clipPath41)" points=" 224 174 229 184 219 184" stroke="none"/>
<polygon fill="none" clip-path="url(#clipPath41)" points=" 224 174 229 184 219 184"/>
<line clip-path="url(#clipPath40)" fill="none" x1="388" x2="388" y1="209" y2="195"/>
<line clip-path="url(#clipPath40)" fill="none" x1="388" x2="224" y1="195" y2="195"/>
<line clip-path="url(#clipPath40)" fill="none" x1="224" x2="224" y1="195" y2="174"/>
<polygon fill="white" clip-path="url(#clipPath41)" points=" 224 174 229 184 219 184" stroke="none"/>
<polygon fill="none" clip-path="url(#clipPath41)" points=" 224 174 229 184 219 184"/>
<line clip-path="url(#clipPath40)" fill="none" x1="477" x2="477" y1="255" y2="195"/>
<line clip-path="url(#clipPath40)" fill="none" x1="477" x2="224" y1="195" y2="195"/>
<line clip-path="url(#clipPath40)" fill="none" x1="224" x2="224" y1="195" y2="174"/>
<polygon fill="white" clip-path="url(#clipPath41)" points=" 224 174 229 184 219 184" stroke="none"/>
<polygon fill="none" clip-path="url(#clipPath41)" points=" 224 174 229 184 219 184"/>
<line clip-path="url(#clipPath40)" fill="none" x1="519" x2="519" y1="208" y2="195"/>
<line clip-path="url(#clipPath40)" fill="none" x1="519" x2="224" y1="195" y2="195"/>
<line clip-path="url(#clipPath40)" fill="none" x1="224" x2="224" y1="195" y2="174"/>
<polygon fill="white" clip-path="url(#clipPath41)" points=" 224 174 229 184 219 184" stroke="none"/>
<polygon fill="none" clip-path="url(#clipPath41)" points=" 224 174 229 184 219 184"/>
<line clip-path="url(#clipPath40)" fill="none" x1="227" x2="227" y1="57" y2="30"/>
<polygon fill="white" clip-path="url(#clipPath42)" points=" 227 30 232 40 222 40" stroke="none"/>
<polygon fill="none" clip-path="url(#clipPath42)" points=" 227 30 232 40 222 40"/>
<line clip-path="url(#clipPath40)" fill="none" x1="138" x2="138" y1="255" y2="195"/>
<line clip-path="url(#clipPath40)" fill="none" x1="138" x2="224" y1="195" y2="195"/>
<line clip-path="url(#clipPath40)" fill="none" x1="224" x2="224" y1="195" y2="174"/>
<polygon fill="white" clip-path="url(#clipPath41)" points=" 224 174 229 184 219 184" stroke="none"/>
<polygon fill="none" clip-path="url(#clipPath41)" points=" 224 174 229 184 219 184"/>
<line clip-path="url(#clipPath40)" fill="none" x1="71" x2="71" y1="210" y2="195"/>
<line clip-path="url(#clipPath40)" fill="none" x1="71" x2="224" y1="195" y2="195"/>
<line clip-path="url(#clipPath40)" fill="none" x1="224" x2="224" y1="195" y2="174"/>
<polygon fill="white" clip-path="url(#clipPath41)" points=" 224 174 229 184 219 184" stroke="none"/>
<polygon fill="none" clip-path="url(#clipPath41)" points=" 224 174 229 184 219 184"/>
<line clip-path="url(#clipPath40)" fill="none" x1="225" x2="225" y1="141" y2="118"/>
<polygon fill="white" clip-path="url(#clipPath43)" points=" 225 118 230 128 220 128" stroke="none"/>
<polygon fill="none" clip-path="url(#clipPath43)" points=" 225 118 230 128 220 128"/>
</g>
</g>
</svg>