<?xml version="1.0" encoding="UTF-8"?><svg stroke-dasharray="none" shape-rendering="auto" xmlns="http://www.w3.org/2000/svg" font-family="'Dialog'" width="525" text-rendering="auto" fill-opacity="1" contentScriptType="text/ecmascript" color-interpolation="auto" color-rendering="auto" preserveAspectRatio="xMidYMid meet" font-size="12" viewBox="0 0 525 132" fill="black" xmlns:xlink="http://www.w3.org/1999/xlink" stroke="black" image-rendering="auto" stroke-miterlimit="10" zoomAndPan="magnify" version="1.0" stroke-linecap="square" stroke-linejoin="miter" contentStyleType="text/css" font-style="normal" height="132" stroke-width="1" stroke-dashoffset="0" font-weight="normal" stroke-opacity="1">
<!--Generated by the Batik Graphics2D SVG Generator-->
<defs id="genericDefs"/>
<g>
<defs id="defs1">
<clipPath clipPathUnits="userSpaceOnUse" id="clipPath1">
<path d="M21 54 L168 54 L168 96 L21 96 L21 54 Z"/>
</clipPath>
<clipPath clipPathUnits="userSpaceOnUse" id="clipPath2">
<path d="M47 58 L140 58 L140 74 L47 74 L47 58 Z"/>
</clipPath>
<clipPath clipPathUnits="userSpaceOnUse" id="clipPath3">
<path d="M28 75 L159 75 L159 91 L28 91 L28 75 Z"/>
</clipPath>
<clipPath clipPathUnits="userSpaceOnUse" id="clipPath4">
<path d="M22 74 L164 74 L164 91 L22 91 L22 74 Z"/>
</clipPath>
<clipPath clipPathUnits="userSpaceOnUse" id="clipPath5">
<path d="M337 61 L516 61 L516 89 L337 89 L337 61 Z"/>
</clipPath>
<clipPath clipPathUnits="userSpaceOnUse" id="clipPath6">
<path d="M348 65 L502 65 L502 81 L348 81 L348 65 Z"/>
</clipPath>
<clipPath clipPathUnits="userSpaceOnUse" id="clipPath7">
<path d="M8 8 L198 8 L198 36 L8 36 L8 8 Z"/>
</clipPath>
<clipPath clipPathUnits="userSpaceOnUse" id="clipPath8">
<path d="M19 12 L184 12 L184 28 L19 28 L19 12 Z"/>
</clipPath>
<clipPath clipPathUnits="userSpaceOnUse" id="clipPath9">
<path d="M-1 -1 L526 -1 L526 133 L-1 133 L-1 -1 Z"/>
</clipPath>
<clipPath clipPathUnits="userSpaceOnUse" id="clipPath10">
<path d="M164 77 L174 77 L174 93 L164 93 L164 77 Z"/>
</clipPath>
<clipPath clipPathUnits="userSpaceOnUse" id="clipPath11">
<path d="M165 55 L272 55 L272 71 L165 71 L165 55 Z"/>
</clipPath>
<clipPath clipPathUnits="userSpaceOnUse" id="clipPath12">
<path d="M317 52 L341 52 L341 68 L317 68 L317 52 Z"/>
</clipPath>
<clipPath clipPathUnits="userSpaceOnUse" id="clipPath13">
<path d="M256 94 L336 94 L336 110 L256 110 L256 94 Z"/>
</clipPath>
<clipPath clipPathUnits="userSpaceOnUse" id="clipPath14">
<path d="M166 41 L321 41 L321 57 L166 57 L166 41 Z"/>
</clipPath>
<clipPath clipPathUnits="userSpaceOnUse" id="clipPath15">
<path d="M211 80 L339 80 L339 96 L211 96 L211 80 Z"/>
</clipPath>
<clipPath clipPathUnits="userSpaceOnUse" id="clipPath16">
<path d="M327 66 L341 66 L341 80 L327 80 L327 66 Z"/>
</clipPath>
<clipPath clipPathUnits="userSpaceOnUse" id="clipPath17">
<path d="M92 29 L106 29 L106 43 L92 43 L92 29 Z"/>
</clipPath>
</defs>
<g font-size="11" fill="white" font-family="'Tahoma'" stroke-linejoin="round" stroke="white" stroke-width="0" stroke-miterlimit="0">
<rect x="23" y="56" clip-path="url(#clipPath1)" width="140" height="34" stroke="none"/>
<rect x="23" y="56" clip-path="url(#clipPath1)" width="140" height="34" stroke="none"/>
<text x="48" y="70" clip-path="url(#clipPath2)" fill="black" stroke="none" font-weight="bold" xml:space="preserve">UMLStateShape</text>
<text x="29" y="87" clip-path="url(#clipPath3)" fill="black" stroke="none" xml:space="preserve">isTabbed : Boolean = false</text>
</g>
<g font-size="11" stroke-width="1.1827" font-family="'Tahoma'" stroke-linecap="butt">
<line clip-path="url(#clipPath4)" fill="none" x1="23" x2="162" y1="75" y2="75"/>
<rect x="22" y="55" clip-path="url(#clipPath1)" fill="none" width="140" height="34"/>
<rect x="339" y="63" clip-path="url(#clipPath5)" fill="white" width="172" height="20" stroke="none"/>
<rect x="339" y="63" clip-path="url(#clipPath5)" fill="white" width="172" height="20" stroke="none"/>
<text x="349" y="77" clip-path="url(#clipPath6)" stroke="none" font-weight="bold" xml:space="preserve">UML::StateMachines::State</text>
<rect x="338" y="62" clip-path="url(#clipPath5)" fill="none" width="172" height="20"/>
<rect x="10" y="10" clip-path="url(#clipPath7)" fill="white" width="183" height="20" stroke="none"/>
<rect x="10" y="10" clip-path="url(#clipPath7)" fill="white" width="183" height="20" stroke="none"/>
<text x="20" y="24" clip-path="url(#clipPath8)" stroke="none" font-weight="bold" xml:space="preserve">UMLCompartmentableShape</text>
<rect x="9" y="9" clip-path="url(#clipPath7)" fill="none" width="183" height="20"/>
<line clip-path="url(#clipPath9)" fill="none" x1="163" x2="338" y1="73" y2="73"/>
<text xml:space="preserve" x="165" y="89" clip-path="url(#clipPath10)" stroke="none">*</text>
<text xml:space="preserve" x="166" y="67" clip-path="url(#clipPath11)" stroke="none">+ umlDiagramElement</text>
<text xml:space="preserve" x="318" y="64" clip-path="url(#clipPath12)" stroke="none">1..*</text>
<text xml:space="preserve" x="257" y="106" clip-path="url(#clipPath13)" stroke="none">+ modelElement</text>
<text xml:space="preserve" x="167" y="53" clip-path="url(#clipPath14)" stroke="none">{redefines umlDiagramElement}</text>
<text xml:space="preserve" x="212" y="92" clip-path="url(#clipPath15)" stroke="none">{redefines modelElement}</text>
<line clip-path="url(#clipPath16)" fill="none" x1="328" x2="338" y1="78" y2="73"/>
<line clip-path="url(#clipPath16)" fill="none" x1="338" x2="328" y1="73" y2="68"/>
<line clip-path="url(#clipPath9)" fill="none" x1="99" x2="99" y1="55" y2="30"/>
<polygon fill="white" clip-path="url(#clipPath17)" points=" 99 30 104 40 94 40" stroke="none"/>
<polygon fill="none" clip-path="url(#clipPath17)" points=" 99 30 104 40 94 40"/>
</g>
</g>
</svg>