<?xml version="1.0" encoding="UTF-8"?><svg stroke-dasharray="none" shape-rendering="auto" xmlns="http://www.w3.org/2000/svg" font-family="'Dialog'" width="879" text-rendering="auto" fill-opacity="1" contentScriptType="text/ecmascript" color-interpolation="auto" color-rendering="auto" preserveAspectRatio="xMidYMid meet" font-size="12" viewBox="0 0 879 316" fill="black" xmlns:xlink="http://www.w3.org/1999/xlink" stroke="black" image-rendering="auto" stroke-miterlimit="10" zoomAndPan="magnify" version="1.0" stroke-linecap="square" stroke-linejoin="miter" contentStyleType="text/css" font-style="normal" height="316" stroke-width="1" stroke-dashoffset="0" font-weight="normal" stroke-opacity="1">
<!--Generated by the Batik Graphics2D SVG Generator-->
<defs id="genericDefs"/>
<g>
<defs id="defs1">
<clipPath clipPathUnits="userSpaceOnUse" id="clipPath1">
<path d="M217 97 L358 97 L358 139 L217 139 L217 97 Z"/>
</clipPath>
<clipPath clipPathUnits="userSpaceOnUse" id="clipPath2">
<path d="M263 101 L309 101 L309 117 L263 117 L263 101 Z"/>
</clipPath>
<clipPath clipPathUnits="userSpaceOnUse" id="clipPath3">
<path d="M223 118 L348 118 L348 134 L223 134 L223 118 Z"/>
</clipPath>
<clipPath clipPathUnits="userSpaceOnUse" id="clipPath4">
<path d="M218 117 L354 117 L354 134 L218 134 L218 117 Z"/>
</clipPath>
<clipPath clipPathUnits="userSpaceOnUse" id="clipPath5">
<path d="M348 19 L475 19 L475 47 L348 47 L348 19 Z"/>
</clipPath>
<clipPath clipPathUnits="userSpaceOnUse" id="clipPath6">
<path d="M359 23 L461 23 L461 39 L359 39 L359 23 Z"/>
</clipPath>
<clipPath clipPathUnits="userSpaceOnUse" id="clipPath7">
<path d="M253 19 L333 19 L333 47 L253 47 L253 19 Z"/>
</clipPath>
<clipPath clipPathUnits="userSpaceOnUse" id="clipPath8">
<path d="M264 23 L320 23 L320 39 L264 39 L264 23 Z"/>
</clipPath>
<clipPath clipPathUnits="userSpaceOnUse" id="clipPath9">
<path d="M623 102 L730 102 L730 142 L623 142 L623 102 Z"/>
</clipPath>
<clipPath clipPathUnits="userSpaceOnUse" id="clipPath10">
<path d="M634 106 L716 106 L716 122 L634 122 L634 106 Z"/>
</clipPath>
<clipPath clipPathUnits="userSpaceOnUse" id="clipPath11">
<path d="M624 122 L726 122 L726 137 L624 137 L624 122 Z"/>
</clipPath>
<clipPath clipPathUnits="userSpaceOnUse" id="clipPath12">
<path d="M629 24 L724 24 L724 52 L629 52 L629 24 Z"/>
</clipPath>
<clipPath clipPathUnits="userSpaceOnUse" id="clipPath13">
<path d="M640 28 L710 28 L710 44 L640 44 L640 28 Z"/>
</clipPath>
<clipPath clipPathUnits="userSpaceOnUse" id="clipPath14">
<path d="M605 281 L754 281 L754 308 L605 308 L605 281 Z"/>
</clipPath>
<clipPath clipPathUnits="userSpaceOnUse" id="clipPath15">
<path d="M616 285 L740 285 L740 301 L616 301 L616 285 Z"/>
</clipPath>
<clipPath clipPathUnits="userSpaceOnUse" id="clipPath16">
<path d="M193 276 L278 276 L278 303 L193 303 L193 276 Z"/>
</clipPath>
<clipPath clipPathUnits="userSpaceOnUse" id="clipPath17">
<path d="M204 280 L264 280 L264 296 L204 296 L204 280 Z"/>
</clipPath>
<clipPath clipPathUnits="userSpaceOnUse" id="clipPath18">
<path d="M312 276 L390 276 L390 303 L312 303 L312 276 Z"/>
</clipPath>
<clipPath clipPathUnits="userSpaceOnUse" id="clipPath19">
<path d="M323 280 L376 280 L376 296 L323 296 L323 280 Z"/>
</clipPath>
<clipPath clipPathUnits="userSpaceOnUse" id="clipPath20">
<path d="M-1 -1 L880 -1 L880 317 L-1 317 L-1 -1 Z"/>
</clipPath>
<clipPath clipPathUnits="userSpaceOnUse" id="clipPath21">
<path d="M130 95 L155 95 L155 112 L130 112 L130 95 Z"/>
</clipPath>
<clipPath clipPathUnits="userSpaceOnUse" id="clipPath22">
<path d="M114 119 L167 119 L167 136 L114 136 L114 119 Z"/>
</clipPath>
<clipPath clipPathUnits="userSpaceOnUse" id="clipPath23">
<path d="M150 22 L160 22 L160 39 L150 39 L150 22 Z"/>
</clipPath>
<clipPath clipPathUnits="userSpaceOnUse" id="clipPath24">
<path d="M135 46 L228 46 L228 63 L135 63 L135 46 Z"/>
</clipPath>
<clipPath clipPathUnits="userSpaceOnUse" id="clipPath25">
<path d="M95 134 L216 134 L216 151 L95 151 L95 134 Z"/>
</clipPath>
<clipPath clipPathUnits="userSpaceOnUse" id="clipPath26">
<path d="M90 60 L232 60 L232 77 L90 77 L90 60 Z"/>
</clipPath>
<clipPath clipPathUnits="userSpaceOnUse" id="clipPath27">
<path d="M196 109 L220 109 L220 123 L196 123 L196 109 Z"/>
</clipPath>
<clipPath clipPathUnits="userSpaceOnUse" id="clipPath28">
<path d="M226 82 L239 82 L239 100 L226 100 L226 82 Z"/>
</clipPath>
<clipPath clipPathUnits="userSpaceOnUse" id="clipPath29">
<path d="M397 39 L412 39 L412 53 L397 53 L397 39 Z"/>
</clipPath>
<clipPath clipPathUnits="userSpaceOnUse" id="clipPath30">
<path d="M285 39 L299 39 L299 53 L285 53 L285 39 Z"/>
</clipPath>
<clipPath clipPathUnits="userSpaceOnUse" id="clipPath31">
<path d="M389 125 L399 125 L399 142 L389 142 L389 125 Z"/>
</clipPath>
<clipPath clipPathUnits="userSpaceOnUse" id="clipPath32">
<path d="M385 98 L438 98 L438 115 L385 115 L385 98 Z"/>
</clipPath>
<clipPath clipPathUnits="userSpaceOnUse" id="clipPath33">
<path d="M593 124 L603 124 L603 141 L593 141 L593 124 Z"/>
</clipPath>
<clipPath clipPathUnits="userSpaceOnUse" id="clipPath34">
<path d="M515 100 L603 100 L603 117 L515 117 L515 100 Z"/>
</clipPath>
<clipPath clipPathUnits="userSpaceOnUse" id="clipPath35">
<path d="M381 70 L470 70 L470 100 L381 100 L381 70 Z"/>
</clipPath>
<clipPath clipPathUnits="userSpaceOnUse" id="clipPath36">
<path d="M503 69 L655 69 L655 100 L503 100 L503 69 Z"/>
</clipPath>
<clipPath clipPathUnits="userSpaceOnUse" id="clipPath37">
<path d="M351 111 L375 111 L375 125 L351 125 L351 111 Z"/>
</clipPath>
<clipPath clipPathUnits="userSpaceOnUse" id="clipPath38">
<path d="M608 112 L626 112 L626 125 L608 125 L608 112 Z"/>
</clipPath>
<clipPath clipPathUnits="userSpaceOnUse" id="clipPath39">
<path d="M668 44 L682 44 L682 58 L668 58 L668 44 Z"/>
</clipPath>
<clipPath clipPathUnits="userSpaceOnUse" id="clipPath40">
<path d="M658 169 L668 169 L668 186 L658 186 L658 169 Z"/>
</clipPath>
<clipPath clipPathUnits="userSpaceOnUse" id="clipPath41">
<path d="M682 163 L770 163 L770 180 L682 180 L682 163 Z"/>
</clipPath>
<clipPath clipPathUnits="userSpaceOnUse" id="clipPath42">
<path d="M658 247 L668 247 L668 264 L658 264 L658 247 Z"/>
</clipPath>
<clipPath clipPathUnits="userSpaceOnUse" id="clipPath43">
<path d="M682 247 L779 247 L779 264 L682 264 L682 247 Z"/>
</clipPath>
<clipPath clipPathUnits="userSpaceOnUse" id="clipPath44">
<path d="M688 147 L858 147 L858 164 L688 164 L688 147 Z"/>
</clipPath>
<clipPath clipPathUnits="userSpaceOnUse" id="clipPath45">
<path d="M688 231 L789 231 L789 248 L688 248 L688 231 Z"/>
</clipPath>
<clipPath clipPathUnits="userSpaceOnUse" id="clipPath46">
<path d="M671 266 L684 266 L684 284 L671 284 L671 266 Z"/>
</clipPath>
<clipPath clipPathUnits="userSpaceOnUse" id="clipPath47">
<path d="M235 172 L260 172 L260 189 L235 189 L235 172 Z"/>
</clipPath>
<clipPath clipPathUnits="userSpaceOnUse" id="clipPath48">
<path d="M175 186 L228 186 L228 203 L175 203 L175 186 Z"/>
</clipPath>
<clipPath clipPathUnits="userSpaceOnUse" id="clipPath49">
<path d="M235 251 L245 251 L245 268 L235 268 L235 251 Z"/>
</clipPath>
<clipPath clipPathUnits="userSpaceOnUse" id="clipPath50">
<path d="M116 251 L223 251 L223 268 L116 268 L116 251 Z"/>
</clipPath>
<clipPath clipPathUnits="userSpaceOnUse" id="clipPath51">
<path d="M53 156 L212 156 L212 201 L53 201 L53 156 Z"/>
</clipPath>
<clipPath clipPathUnits="userSpaceOnUse" id="clipPath52">
<path d="M63 208 L220 208 L220 253 L63 253 L63 208 Z"/>
</clipPath>
<clipPath clipPathUnits="userSpaceOnUse" id="clipPath53">
<path d="M224 132 L238 132 L238 156 L224 156 L224 132 Z"/>
</clipPath>
<clipPath clipPathUnits="userSpaceOnUse" id="clipPath54">
<path d="M224 261 L237 261 L237 279 L224 279 L224 261 Z"/>
</clipPath>
<clipPath clipPathUnits="userSpaceOnUse" id="clipPath55">
<path d="M325 172 L350 172 L350 189 L325 189 L325 172 Z"/>
</clipPath>
<clipPath clipPathUnits="userSpaceOnUse" id="clipPath56">
<path d="M361 172 L413 172 L413 189 L361 189 L361 172 Z"/>
</clipPath>
<clipPath clipPathUnits="userSpaceOnUse" id="clipPath57">
<path d="M337 251 L347 251 L347 268 L337 268 L337 251 Z"/>
</clipPath>
<clipPath clipPathUnits="userSpaceOnUse" id="clipPath58">
<path d="M361 251 L463 251 L463 268 L361 268 L361 251 Z"/>
</clipPath>
<clipPath clipPathUnits="userSpaceOnUse" id="clipPath59">
<path d="M359 143 L478 143 L478 174 L359 174 L359 143 Z"/>
</clipPath>
<clipPath clipPathUnits="userSpaceOnUse" id="clipPath60">
<path d="M361 208 L463 208 L463 253 L361 253 L361 208 Z"/>
</clipPath>
<clipPath clipPathUnits="userSpaceOnUse" id="clipPath61">
<path d="M342 132 L356 132 L356 156 L342 156 L342 132 Z"/>
</clipPath>
<clipPath clipPathUnits="userSpaceOnUse" id="clipPath62">
<path d="M343 261 L356 261 L356 279 L343 279 L343 261 Z"/>
</clipPath>
</defs>
<g font-size="11" fill="white" font-family="'Tahoma'" stroke-linejoin="round" stroke="white" stroke-width="0" stroke-miterlimit="0">
<rect x="219" y="99" clip-path="url(#clipPath1)" width="134" height="34" stroke="none"/>
<rect x="219" y="99" clip-path="url(#clipPath1)" width="134" height="34" stroke="none"/>
<text x="264" y="113" clip-path="url(#clipPath2)" fill="black" stroke="none" font-weight="bold" xml:space="preserve">Artifact</text>
<text x="224" y="130" clip-path="url(#clipPath3)" fill="black" stroke="none" xml:space="preserve">+ fileName : String [0..1]</text>
</g>
<g font-size="11" stroke-width="1.1827" font-family="'Tahoma'" stroke-linecap="butt">
<line clip-path="url(#clipPath4)" fill="none" x1="219" x2="352" y1="118" y2="118"/>
<rect x="218" y="98" clip-path="url(#clipPath1)" fill="none" width="134" height="34"/>
<rect x="350" y="21" clip-path="url(#clipPath5)" fill="white" width="120" height="20" stroke="none"/>
<rect x="350" y="21" clip-path="url(#clipPath5)" fill="white" width="120" height="20" stroke="none"/>
<text x="360" y="35" clip-path="url(#clipPath6)" font-style="italic" stroke="none" font-weight="bold" xml:space="preserve">DeployedArtifact</text>
<rect x="349" y="20" clip-path="url(#clipPath5)" fill="none" width="120" height="20"/>
<rect x="255" y="21" clip-path="url(#clipPath7)" fill="white" width="73" height="20" stroke="none"/>
<rect x="255" y="21" clip-path="url(#clipPath7)" fill="white" width="73" height="20" stroke="none"/>
<text x="265" y="35" clip-path="url(#clipPath8)" font-style="italic" stroke="none" font-weight="bold" xml:space="preserve">Classifier</text>
<rect x="254" y="20" clip-path="url(#clipPath7)" fill="none" width="73" height="20"/>
<rect x="625" y="104" clip-path="url(#clipPath9)" fill="white" width="100" height="32" stroke="none"/>
<rect x="625" y="104" clip-path="url(#clipPath9)" fill="white" width="100" height="32" stroke="none"/>
<text x="635" y="118" clip-path="url(#clipPath10)" stroke="none" font-weight="bold" xml:space="preserve">Manifestation</text>
<line clip-path="url(#clipPath11)" fill="none" x1="625" x2="724" y1="123" y2="123"/>
<rect x="624" y="103" clip-path="url(#clipPath9)" fill="none" width="100" height="32"/>
<rect x="631" y="26" clip-path="url(#clipPath12)" fill="white" width="88" height="20" stroke="none"/>
<rect x="631" y="26" clip-path="url(#clipPath12)" fill="white" width="88" height="20" stroke="none"/>
<text x="641" y="40" clip-path="url(#clipPath13)" stroke="none" font-weight="bold" xml:space="preserve">Abstraction</text>
<rect x="630" y="25" clip-path="url(#clipPath12)" fill="none" width="88" height="20"/>
<rect x="607" y="283" clip-path="url(#clipPath14)" fill="white" width="142" height="19" stroke="none"/>
<rect x="607" y="283" clip-path="url(#clipPath14)" fill="white" width="142" height="19" stroke="none"/>
<text x="617" y="297" clip-path="url(#clipPath15)" font-style="italic" stroke="none" font-weight="bold" xml:space="preserve">PackageableElement</text>
<rect x="606" y="282" clip-path="url(#clipPath14)" fill="none" width="142" height="20"/>
<rect x="195" y="278" clip-path="url(#clipPath16)" fill="white" width="78" height="20" stroke="none"/>
<rect x="195" y="278" clip-path="url(#clipPath16)" fill="white" width="78" height="20" stroke="none"/>
<text x="205" y="292" clip-path="url(#clipPath17)" stroke="none" font-weight="bold" xml:space="preserve">Operation</text>
<rect x="194" y="277" clip-path="url(#clipPath16)" fill="none" width="78" height="20"/>
<rect x="314" y="278" clip-path="url(#clipPath18)" fill="white" width="71" height="20" stroke="none"/>
<rect x="314" y="278" clip-path="url(#clipPath18)" fill="white" width="71" height="20" stroke="none"/>
<text x="324" y="292" clip-path="url(#clipPath19)" stroke="none" font-weight="bold" xml:space="preserve">Property</text>
<rect x="313" y="277" clip-path="url(#clipPath18)" fill="none" width="71" height="20"/>
<line clip-path="url(#clipPath20)" fill="none" x1="218" x2="30" y1="115" y2="115"/>
<line clip-path="url(#clipPath20)" fill="none" x1="30" x2="30" y1="115" y2="43"/>
<line clip-path="url(#clipPath20)" fill="none" x1="30" x2="232" y1="43" y2="43"/>
<line clip-path="url(#clipPath20)" fill="none" x1="232" x2="232" y1="43" y2="98"/>
<text font-size="12" x="131" y="108" clip-path="url(#clipPath21)" stroke="none" xml:space="preserve">0..1</text>
<text font-size="12" x="115" y="132" clip-path="url(#clipPath22)" stroke="none" xml:space="preserve">+ artifact</text>
<text font-size="12" x="151" y="35" clip-path="url(#clipPath23)" stroke="none" xml:space="preserve">*</text>
<text font-size="12" x="136" y="59" clip-path="url(#clipPath24)" stroke="none" xml:space="preserve">+ nestedArtifact</text>
<text font-size="12" x="96" y="147" clip-path="url(#clipPath25)" stroke="none" xml:space="preserve">{subsets namespace}</text>
<text font-size="12" x="91" y="73" clip-path="url(#clipPath26)" stroke="none" xml:space="preserve">{subsets ownedMember}</text>
<polygon clip-path="url(#clipPath27)" points=" 218 115 208 120 198 115 208 110" stroke="none"/>
<polygon fill="none" clip-path="url(#clipPath27)" points=" 218 115 208 120 198 115 208 110"/>
<circle r="2.5" clip-path="url(#clipPath28)" cx="232.5" cy="95.5" stroke="none"/>
<line clip-path="url(#clipPath28)" fill="none" x1="227" x2="232" y1="83" y2="93" stroke-width="1.1"/>
<line clip-path="url(#clipPath28)" fill="none" x1="232" x2="237" y1="93" y2="83" stroke-width="1.1"/>
<circle clip-path="url(#clipPath28)" fill="none" r="2.5" cx="232.5" cy="95.5" stroke-width="1.1"/>
<line clip-path="url(#clipPath20)" fill="none" x1="316" x2="410" y1="98" y2="41"/>
<polygon fill="white" clip-path="url(#clipPath29)" points=" 410 41 404 50 398 42" stroke="none"/>
<polygon fill="none" clip-path="url(#clipPath29)" points=" 410 41 404 50 398 42"/>
<line clip-path="url(#clipPath20)" fill="none" x1="292" x2="292" y1="98" y2="41"/>
<polygon fill="white" clip-path="url(#clipPath30)" points=" 292 41 297 51 287 51" stroke="none"/>
<polygon fill="none" clip-path="url(#clipPath30)" points=" 292 41 297 51 287 51"/>
<line clip-path="url(#clipPath20)" fill="none" x1="353" x2="624" y1="118" y2="118"/>
<text font-size="12" x="390" y="138" clip-path="url(#clipPath31)" stroke="none" xml:space="preserve">1</text>
<text font-size="12" x="386" y="111" clip-path="url(#clipPath32)" stroke="none" xml:space="preserve">+ artifact</text>
<text font-size="12" x="594" y="137" clip-path="url(#clipPath33)" stroke="none" xml:space="preserve">*</text>
<text font-size="12" x="516" y="113" clip-path="url(#clipPath34)" stroke="none" xml:space="preserve">+ manifestation</text>
<text font-size="12" x="382" y="83" clip-path="url(#clipPath35)" stroke="none" xml:space="preserve">{subsets client,</text>
<text font-size="12" x="382" y="97" clip-path="url(#clipPath35)" stroke="none" xml:space="preserve">subsets owner}</text>
<text font-size="12" x="504" y="82" clip-path="url(#clipPath36)" stroke="none" xml:space="preserve">{subsets ownedElement,</text>
<text font-size="12" x="504" y="96" clip-path="url(#clipPath36)" stroke="none" xml:space="preserve">subsets clientDependency}</text>
<polygon clip-path="url(#clipPath37)" points=" 353 118 363 113 373 118 363 123" stroke="none"/>
<polygon fill="none" clip-path="url(#clipPath37)" points=" 353 118 363 113 373 118 363 123"/>
<circle r="2.5" clip-path="url(#clipPath38)" cx="621.5" cy="117.5" stroke="none"/>
<line clip-path="url(#clipPath38)" fill="none" x1="609" x2="619" y1="123" y2="118" stroke-width="1.1"/>
<line clip-path="url(#clipPath38)" fill="none" x1="619" x2="609" y1="118" y2="113" stroke-width="1.1"/>
<circle clip-path="url(#clipPath38)" fill="none" r="2.5" cx="621.5" cy="117.5" stroke-width="1.1"/>
<line clip-path="url(#clipPath20)" fill="none" x1="674" x2="674" y1="103" y2="46"/>
<polygon fill="white" clip-path="url(#clipPath39)" points=" 674 46 679 56 669 56" stroke="none"/>
<polygon fill="none" clip-path="url(#clipPath39)" points=" 674 46 679 56 669 56"/>
<line clip-path="url(#clipPath20)" fill="none" x1="677" x2="677" y1="136" y2="282"/>
<text font-size="12" x="659" y="182" clip-path="url(#clipPath40)" stroke="none" xml:space="preserve">*</text>
<text font-size="12" x="683" y="176" clip-path="url(#clipPath41)" stroke="none" xml:space="preserve">+ manifestation</text>
<text font-size="12" x="659" y="260" clip-path="url(#clipPath42)" stroke="none" xml:space="preserve">1</text>
<text font-size="12" x="683" y="260" clip-path="url(#clipPath43)" stroke="none" xml:space="preserve">+ utilizedElement</text>
<text font-size="12" x="689" y="160" clip-path="url(#clipPath44)" stroke="none" xml:space="preserve">{subsets supplierDependency}</text>
<text font-size="12" x="689" y="244" clip-path="url(#clipPath45)" stroke="none" xml:space="preserve">{subsets supplier}</text>
<circle r="2.5" clip-path="url(#clipPath46)" cx="677.5" cy="279.5" stroke="none"/>
<line clip-path="url(#clipPath46)" fill="none" x1="672" x2="677" y1="267" y2="277" stroke-width="1.1"/>
<line clip-path="url(#clipPath46)" fill="none" x1="677" x2="682" y1="277" y2="267" stroke-width="1.1"/>
<circle clip-path="url(#clipPath46)" fill="none" r="2.5" cx="677.5" cy="279.5" stroke-width="1.1"/>
<line clip-path="url(#clipPath20)" fill="none" x1="230" x2="230" y1="133" y2="277"/>
<text font-size="12" x="236" y="185" clip-path="url(#clipPath47)" stroke="none" xml:space="preserve">0..1</text>
<text font-size="12" x="176" y="199" clip-path="url(#clipPath48)" stroke="none" xml:space="preserve">+ artifact</text>
<text font-size="12" x="236" y="264" clip-path="url(#clipPath49)" stroke="none" xml:space="preserve">*</text>
<text font-size="12" x="117" y="264" clip-path="url(#clipPath50)" stroke="none" xml:space="preserve">+ ownedOperation</text>
<text font-size="12" x="54" y="169" clip-path="url(#clipPath51)" stroke="none" xml:space="preserve">{subsets featuringClassifier,</text>
<text font-size="12" x="54" y="183" clip-path="url(#clipPath51)" stroke="none" xml:space="preserve">subsets namespace, subsets</text>
<text font-size="12" x="54" y="197" clip-path="url(#clipPath51)" stroke="none" xml:space="preserve">redefinitionContext}</text>
<text font-size="12" x="64" y="221" clip-path="url(#clipPath52)" stroke="none" xml:space="preserve">{ordered, subsets feature,</text>
<text font-size="12" x="64" y="235" clip-path="url(#clipPath52)" stroke="none" xml:space="preserve">subsets redefinableElement,</text>
<text font-size="12" x="64" y="249" clip-path="url(#clipPath52)" stroke="none" xml:space="preserve">subsets ownedMember}</text>
<polygon clip-path="url(#clipPath53)" points=" 230 133 235 143 230 153 225 143" stroke="none"/>
<polygon fill="none" clip-path="url(#clipPath53)" points=" 230 133 235 143 230 153 225 143"/>
<circle r="2.5" clip-path="url(#clipPath54)" cx="230.5" cy="274.5" stroke="none"/>
<line clip-path="url(#clipPath54)" fill="none" x1="225" x2="230" y1="262" y2="272" stroke-width="1.1"/>
<line clip-path="url(#clipPath54)" fill="none" x1="230" x2="235" y1="272" y2="262" stroke-width="1.1"/>
<circle clip-path="url(#clipPath54)" fill="none" r="2.5" cx="230.5" cy="274.5" stroke-width="1.1"/>
<line clip-path="url(#clipPath20)" fill="none" x1="349" x2="349" y1="133" y2="277"/>
<text font-size="12" x="326" y="185" clip-path="url(#clipPath55)" stroke="none" xml:space="preserve">0..1</text>
<text font-size="12" x="362" y="185" clip-path="url(#clipPath56)" stroke="none" xml:space="preserve">+ artifact</text>
<text font-size="12" x="338" y="264" clip-path="url(#clipPath57)" stroke="none" xml:space="preserve">*</text>
<text font-size="12" x="362" y="264" clip-path="url(#clipPath58)" stroke="none" xml:space="preserve">+ ownedAttribute</text>
<text font-size="12" x="360" y="156" clip-path="url(#clipPath59)" stroke="none" xml:space="preserve">{subsets namespace,</text>
<text font-size="12" x="360" y="170" clip-path="url(#clipPath59)" stroke="none" xml:space="preserve">subsets classifier}</text>
<text font-size="12" x="362" y="221" clip-path="url(#clipPath60)" stroke="none" xml:space="preserve">{ordered, subsets</text>
<text font-size="12" x="362" y="235" clip-path="url(#clipPath60)" stroke="none" xml:space="preserve">attribute, subsets</text>
<text font-size="12" x="362" y="249" clip-path="url(#clipPath60)" stroke="none" xml:space="preserve">ownedMember}</text>
<polygon clip-path="url(#clipPath61)" points=" 349 133 354 143 349 153 344 143" stroke="none"/>
<polygon fill="none" clip-path="url(#clipPath61)" points=" 349 133 354 143 349 153 344 143"/>
<circle r="2.5" clip-path="url(#clipPath62)" cx="348.5" cy="274.5" stroke="none"/>
<line clip-path="url(#clipPath62)" fill="none" x1="344" x2="349" y1="262" y2="272" stroke-width="1.1"/>
<line clip-path="url(#clipPath62)" fill="none" x1="349" x2="354" y1="272" y2="262" stroke-width="1.1"/>
<circle clip-path="url(#clipPath62)" fill="none" r="2.5" cx="348.5" cy="274.5" stroke-width="1.1"/>
</g>
</g>
</svg>