<?xml version="1.0" encoding="UTF-8" standalone="no"?>
<svg
   xmlns:dc="http://purl.org/dc/elements/1.1/"
   xmlns:cc="http://creativecommons.org/ns#"
   xmlns:rdf="http://www.w3.org/1999/02/22-rdf-syntax-ns#"
   xmlns:svg="http://www.w3.org/2000/svg"
   xmlns="http://www.w3.org/2000/svg"
   xmlns:sodipodi="http://sodipodi.sourceforge.net/DTD/sodipodi-0.dtd"
   xmlns:inkscape="http://www.inkscape.org/namespaces/inkscape"
   version="1.0"
   width="56.222317mm"
   height="40.25362mm"
   id="svg2"
   inkscape:version="0.91 r13725"
   viewBox="0 0 56.222316 40.25362"
   sodipodi:docname="13482-Figure12-16.svg">
  <metadata
     id="metadata101">
    <rdf:RDF>
      <cc:Work
         rdf:about="">
        <dc:format>image/svg+xml</dc:format>
        <dc:type
           rdf:resource="http://purl.org/dc/dcmitype/StillImage" />
        <dc:title></dc:title>
      </cc:Work>
    </rdf:RDF>
  </metadata>
  <sodipodi:namedview
     pagecolor="#ffffff"
     bordercolor="#666666"
     borderopacity="1"
     objecttolerance="10"
     gridtolerance="10"
     guidetolerance="10"
     inkscape:pageopacity="0"
     inkscape:pageshadow="2"
     inkscape:window-width="1386"
     inkscape:window-height="829"
     id="namedview99"
     inkscape:document-units="mm"
     showgrid="false"
     fit-margin-top="2"
     fit-margin-bottom="2"
     fit-margin-right="2"
     fit-margin-left="2"
     inkscape:zoom="1.6983855"
     inkscape:cx="99.23662"
     inkscape:cy="71.297863"
     inkscape:window-x="0"
     inkscape:window-y="0"
     inkscape:window-maximized="0"
     inkscape:current-layer="svg2" />
  <defs
     id="defs4">
    <pattern
       id="EMFhbasepattern"
       patternUnits="userSpaceOnUse"
       width="6"
       height="6"
       x="0"
       y="0" />
  </defs>
  <path
     style="fill:#ffffff;fill-opacity:1;fill-rule:evenodd;stroke:none;stroke-width:0.30000001;stroke-miterlimit:4;stroke-dasharray:none"
     d="m 26.126777,14.126773 0,-11.9999928 -23.9999967,0 0,11.9999928 23.9999967,0 z m -23.9999967,0 0,-11.9999928 0,11.9999928 z M 26.126777,2.1267802 l 0,11.9999928 0,-11.9999928 z"
     id="path7"
     inkscape:connector-curvature="0" />
  <path
     style="fill:none;stroke:#000000;stroke-width:0.30000001;stroke-linecap:round;stroke-linejoin:round;stroke-miterlimit:4;stroke-dasharray:none;stroke-opacity:1"
     d="m 26.126777,14.126773 0,-11.9999928 M 2.1267803,14.126773 l 0,-11.9999928 m 0,0 23.9999967,0 M 2.1267803,14.126773 l 23.9999967,0"
     id="path9"
     inkscape:connector-curvature="0" />
  <text
     xml:space="preserve"
     style="font-style:normal;font-variant:normal;font-weight:400;font-size:2.75166678px;line-height:125%;font-family:Calibri;text-align:start;letter-spacing:0px;word-spacing:0px;text-anchor:start;fill:#000000;fill-opacity:1;stroke:none;stroke-width:0.30000001;stroke-miterlimit:4;stroke-dasharray:none"
     x="6.1554976"
     y="7.4517922"
     id="text11"
     sodipodi:linespacing="125%"><tspan
       sodipodi:role="line"
       x="6.1554976"
       y="7.4517922"
       id="tspan13"><tspan
         dx="0"
         dy="0"
         style="font-style:normal;font-variant:normal;font-weight:400;font-size:2.75166678px;font-family:Calibri;fill:#000000;stroke-width:0.30000001;stroke-miterlimit:4;stroke-dasharray:none"
         id="tspan15">&lt;&lt;</tspan></tspan></text>
  <text
     xml:space="preserve"
     style="font-style:normal;font-variant:normal;font-weight:400;font-size:2.75166678px;line-height:125%;font-family:Calibri;text-align:start;letter-spacing:0px;word-spacing:0px;text-anchor:start;fill:#000000;fill-opacity:1;stroke:none;stroke-width:0.30000001;stroke-miterlimit:4;stroke-dasharray:none"
     x="8.8118086"
     y="7.4517922"
     id="text17"
     sodipodi:linespacing="125%"><tspan
       sodipodi:role="line"
       x="8.8118086"
       y="7.4517922"
       id="tspan19"><tspan
         dx="0"
         dy="0"
         style="font-style:normal;font-variant:normal;font-weight:400;font-size:2.75166678px;font-family:Calibri;fill:#000000;stroke-width:0.30000001;stroke-miterlimit:4;stroke-dasharray:none"
         id="tspan21">Metaclass</tspan></tspan></text>
  <text
     xml:space="preserve"
     style="font-style:normal;font-variant:normal;font-weight:400;font-size:2.75166678px;line-height:125%;font-family:Calibri;text-align:start;letter-spacing:0px;word-spacing:0px;text-anchor:start;fill:#000000;fill-opacity:1;stroke:none;stroke-width:0.30000001;stroke-miterlimit:4;stroke-dasharray:none"
     x="19.691843"
     y="7.4517922"
     id="text23"
     sodipodi:linespacing="125%"><tspan
       sodipodi:role="line"
       x="19.691843"
       y="7.4517922"
       id="tspan25"><tspan
         dx="0"
         dy="0"
         style="font-style:normal;font-variant:normal;font-weight:400;font-size:2.75166678px;font-family:Calibri;fill:#000000;stroke-width:0.30000001;stroke-miterlimit:4;stroke-dasharray:none"
         id="tspan27">&gt;&gt;</tspan></tspan></text>
  <text
     xml:space="preserve"
     style="font-style:normal;font-variant:normal;font-weight:700;font-size:2.75166678px;line-height:125%;font-family:Calibri;text-align:start;letter-spacing:0px;word-spacing:0px;text-anchor:start;fill:#000000;fill-opacity:1;stroke:none;stroke-width:0.30000001;stroke-miterlimit:4;stroke-dasharray:none"
     x="8.6092024"
     y="10.651744"
     id="text29"
     sodipodi:linespacing="125%"><tspan
       sodipodi:role="line"
       x="8.6092024"
       y="10.651744"
       id="tspan31"><tspan
         dx="0"
         dy="0"
         style="font-style:normal;font-variant:normal;font-weight:700;font-size:2.75166678px;font-family:Calibri;fill:#000000;stroke-width:0.30000001;stroke-miterlimit:4;stroke-dasharray:none"
         id="tspan33">Operation</tspan></tspan></text>
  <path
     style="fill:#ffffff;fill-opacity:1;fill-rule:evenodd;stroke:none;stroke-width:0.30000001;stroke-miterlimit:4;stroke-dasharray:none"
     d="m 54.095536,14.126773 0,-11.9999928 -23.999896,0 0,11.9999928 23.999896,0 z m -23.999896,0 0,-11.9999928 0,11.9999928 z m 23.999896,-11.9999928 0,11.9999928 0,-11.9999928 z"
     id="path35"
     inkscape:connector-curvature="0" />
  <path
     style="fill:none;stroke:#000000;stroke-width:0.30000001;stroke-linecap:round;stroke-linejoin:round;stroke-miterlimit:4;stroke-dasharray:none;stroke-opacity:1"
     d="m 54.095536,14.126773 0,-11.9999928 M 30.09564,14.126773 l 0,-11.9999928 m 0,0 23.999896,0 M 30.09564,14.126773 l 23.999896,0"
     id="path37"
     inkscape:connector-curvature="0" />
  <text
     xml:space="preserve"
     style="font-style:normal;font-variant:normal;font-weight:400;font-size:2.75166678px;line-height:125%;font-family:Calibri;text-align:start;letter-spacing:0px;word-spacing:0px;text-anchor:start;fill:#000000;fill-opacity:1;stroke:none;stroke-width:0.30000001;stroke-miterlimit:4;stroke-dasharray:none"
     x="34.124001"
     y="7.4517922"
     id="text39"
     sodipodi:linespacing="125%"><tspan
       sodipodi:role="line"
       x="34.124001"
       y="7.4517922"
       id="tspan41"><tspan
         dx="0"
         dy="0"
         style="font-style:normal;font-variant:normal;font-weight:400;font-size:2.75166678px;font-family:Calibri;fill:#000000;stroke-width:0.30000001;stroke-miterlimit:4;stroke-dasharray:none"
         id="tspan43">&lt;&lt;</tspan></tspan></text>
  <text
     xml:space="preserve"
     style="font-style:normal;font-variant:normal;font-weight:400;font-size:2.75166678px;line-height:125%;font-family:Calibri;text-align:start;letter-spacing:0px;word-spacing:0px;text-anchor:start;fill:#000000;fill-opacity:1;stroke:none;stroke-width:0.30000001;stroke-miterlimit:4;stroke-dasharray:none"
     x="36.780312"
     y="7.4517922"
     id="text45"
     sodipodi:linespacing="125%"><tspan
       sodipodi:role="line"
       x="36.780312"
       y="7.4517922"
       id="tspan47"><tspan
         dx="0"
         dy="0"
         style="font-style:normal;font-variant:normal;font-weight:400;font-size:2.75166678px;font-family:Calibri;fill:#000000;stroke-width:0.30000001;stroke-miterlimit:4;stroke-dasharray:none"
         id="tspan49">Metaclass</tspan></tspan></text>
  <text
     xml:space="preserve"
     style="font-style:normal;font-variant:normal;font-weight:400;font-size:2.75166678px;line-height:125%;font-family:Calibri;text-align:start;letter-spacing:0px;word-spacing:0px;text-anchor:start;fill:#000000;fill-opacity:1;stroke:none;stroke-width:0.30000001;stroke-miterlimit:4;stroke-dasharray:none"
     x="47.660347"
     y="7.4517922"
     id="text51"
     sodipodi:linespacing="125%"><tspan
       sodipodi:role="line"
       x="47.660347"
       y="7.4517922"
       id="tspan53"><tspan
         dx="0"
         dy="0"
         style="font-style:normal;font-variant:normal;font-weight:400;font-size:2.75166678px;font-family:Calibri;fill:#000000;stroke-width:0.30000001;stroke-miterlimit:4;stroke-dasharray:none"
         id="tspan55">&gt;&gt;</tspan></tspan></text>
  <text
     xml:space="preserve"
     style="font-style:normal;font-variant:normal;font-weight:700;font-size:2.75166678px;line-height:125%;font-family:Calibri;text-align:start;letter-spacing:0px;word-spacing:0px;text-anchor:start;fill:#000000;fill-opacity:1;stroke:none;stroke-width:0.30000001;stroke-miterlimit:4;stroke-dasharray:none"
     x="37.278908"
     y="10.651744"
     id="text57"
     sodipodi:linespacing="125%"><tspan
       sodipodi:role="line"
       x="37.278908"
       y="10.651744"
       id="tspan59"><tspan
         dx="0"
         dy="0"
         style="font-style:normal;font-variant:normal;font-weight:700;font-size:2.75166678px;font-family:Calibri;fill:#000000;stroke-width:0.30000001;stroke-miterlimit:4;stroke-dasharray:none"
         id="tspan61">Behavior</tspan></tspan></text>
  <path
     style="fill:#ffffff;fill-opacity:1;fill-rule:evenodd;stroke:none;stroke-width:0.30000001;stroke-miterlimit:4;stroke-dasharray:none"
     d="m 40.111142,38.126838 0,-12.000061 -23.99998,0 0,12.000061 23.99998,0 z m -23.99998,0 0,-12.000061 0,12.000061 z m 23.99998,-12.000061 0,12.000061 0,-12.000061 z"
     id="path63"
     inkscape:connector-curvature="0" />
  <path
     style="fill:none;stroke:#000000;stroke-width:0.30000001;stroke-linecap:round;stroke-linejoin:round;stroke-miterlimit:4;stroke-dasharray:none;stroke-opacity:1"
     d="m 40.111142,38.126838 0,-12.000061 m -23.99998,12.000061 0,-12.000061 m 0,0 23.99998,0 m -23.99998,12.000061 23.99998,0"
     id="path65"
     inkscape:connector-curvature="0" />
  <text
     xml:space="preserve"
     style="font-style:normal;font-variant:normal;font-weight:400;font-size:2.75166678px;line-height:125%;font-family:Calibri;text-align:start;letter-spacing:0px;word-spacing:0px;text-anchor:start;fill:#000000;fill-opacity:1;stroke:none;stroke-width:0.30000001;stroke-miterlimit:4;stroke-dasharray:none"
     x="19.181374"
     y="31.45179"
     id="text67"
     sodipodi:linespacing="125%"><tspan
       sodipodi:role="line"
       x="19.181374"
       y="31.45179"
       id="tspan69"><tspan
         dx="0"
         dy="0"
         style="font-style:normal;font-variant:normal;font-weight:400;font-size:2.75166678px;font-family:Calibri;fill:#000000;stroke-width:0.30000001;stroke-miterlimit:4;stroke-dasharray:none"
         id="tspan71">&lt;&lt;</tspan></tspan></text>
  <text
     xml:space="preserve"
     style="font-style:normal;font-variant:normal;font-weight:400;font-size:2.75166678px;line-height:125%;font-family:Calibri;text-align:start;letter-spacing:0px;word-spacing:0px;text-anchor:start;fill:#000000;fill-opacity:1;stroke:none;stroke-width:0.30000001;stroke-miterlimit:4;stroke-dasharray:none"
     x="21.837685"
     y="31.45179"
     id="text73"
     sodipodi:linespacing="125%"><tspan
       sodipodi:role="line"
       x="21.837685"
       y="31.45179"
       id="tspan75"><tspan
         dx="0"
         dy="0"
         style="font-style:normal;font-variant:normal;font-weight:400;font-size:2.75166678px;font-family:Calibri;fill:#000000;stroke-width:0.30000001;stroke-miterlimit:4;stroke-dasharray:none"
         id="tspan77">stereotypes</tspan></tspan></text>
  <text
     xml:space="preserve"
     style="font-style:normal;font-variant:normal;font-weight:400;font-size:2.75166678px;line-height:125%;font-family:Calibri;text-align:start;letter-spacing:0px;word-spacing:0px;text-anchor:start;fill:#000000;fill-opacity:1;stroke:none;stroke-width:0.30000001;stroke-miterlimit:4;stroke-dasharray:none"
     x="34.63438"
     y="31.45179"
     id="text79"
     sodipodi:linespacing="125%"><tspan
       sodipodi:role="line"
       x="34.63438"
       y="31.45179"
       id="tspan81"><tspan
         dx="0"
         dy="0"
         style="font-style:normal;font-variant:normal;font-weight:400;font-size:2.75166678px;font-family:Calibri;fill:#000000;stroke-width:0.30000001;stroke-miterlimit:4;stroke-dasharray:none"
         id="tspan83">&gt;&gt;</tspan></tspan></text>
  <text
     xml:space="preserve"
     style="font-style:normal;font-variant:normal;font-weight:700;font-size:2.75166678px;line-height:125%;font-family:Calibri;text-align:start;letter-spacing:0px;word-spacing:0px;text-anchor:start;fill:#000000;fill-opacity:1;stroke:none;stroke-width:0.30000001;stroke-miterlimit:4;stroke-dasharray:none"
     x="23.343452"
     y="34.651745"
     id="text85"
     sodipodi:linespacing="125%"><tspan
       sodipodi:role="line"
       x="23.343452"
       y="34.651745"
       id="tspan87"><tspan
         dx="0"
         dy="0"
         style="font-style:normal;font-variant:normal;font-weight:700;font-size:2.75166678px;font-family:Calibri;fill:#000000;stroke-width:0.30000001;stroke-miterlimit:4;stroke-dasharray:none"
         id="tspan89">TestCase</tspan></tspan></text>
  <path
     style="fill:none;stroke:#000000;stroke-width:0.30000001;stroke-linecap:round;stroke-linejoin:round;stroke-miterlimit:4;stroke-dasharray:none;stroke-opacity:1"
     d="M 28.111166,26.126777 40.189318,15.783022"
     id="path91"
     inkscape:connector-curvature="0" />
  <path
     style="fill:#000000;fill-opacity:1;fill-rule:evenodd;stroke:none;stroke-width:0.30000001;stroke-miterlimit:4;stroke-dasharray:none"
     d="m 39.408127,15.23616 2.68732,-1.109387 -1.484207,2.500009 -1.203113,-1.390622 z"
     id="path93"
     inkscape:connector-curvature="0" />
  <path
     style="fill:none;stroke:#000000;stroke-width:0.30000001;stroke-linecap:round;stroke-linejoin:round;stroke-miterlimit:4;stroke-dasharray:none;stroke-opacity:1"
     d="M 28.111166,26.126777 16.04865,15.783022"
     id="path95"
     inkscape:connector-curvature="0" />
  <path
     style="fill:#000000;fill-opacity:1;fill-rule:evenodd;stroke:none;stroke-width:0.30000001;stroke-miterlimit:4;stroke-dasharray:none"
     d="m 15.626784,16.626782 -1.500011,-2.500009 2.703124,1.109387 -1.203113,1.390622 z"
     id="path97"
     inkscape:connector-curvature="0" />
</svg>
