<?xml version="1.0" encoding="UTF-8" standalone="no"?>
<svg
   xmlns:ooo="http://xml.openoffice.org/svg/export"
   xmlns:dc="http://purl.org/dc/elements/1.1/"
   xmlns:cc="http://creativecommons.org/ns#"
   xmlns:rdf="http://www.w3.org/1999/02/22-rdf-syntax-ns#"
   xmlns:svg="http://www.w3.org/2000/svg"
   xmlns="http://www.w3.org/2000/svg"
   xmlns:sodipodi="http://sodipodi.sourceforge.net/DTD/sodipodi-0.dtd"
   xmlns:inkscape="http://www.inkscape.org/namespaces/inkscape"
   version="1.2"
   width="141.69273mm"
   height="50.903034mm"
   viewBox="0 0 14169.273 5090.3034"
   preserveAspectRatio="xMidYMid"
   clip-path="url(#presentation_clip_path)"
   xml:space="preserve"
   id="svg2"
   inkscape:version="0.91 r13725"
   sodipodi:docname="16483-FigureA.3.svg"
   style="fill-rule:evenodd;stroke-width:28.22200012;stroke-linejoin:round"><metadata
     id="metadata565"><rdf:RDF><cc:Work
         rdf:about=""><dc:format>image/svg+xml</dc:format><dc:type
           rdf:resource="http://purl.org/dc/dcmitype/StillImage" /><dc:title></dc:title></cc:Work></rdf:RDF></metadata><sodipodi:namedview
     pagecolor="#ffffff"
     bordercolor="#666666"
     borderopacity="1"
     objecttolerance="10"
     gridtolerance="10"
     guidetolerance="10"
     inkscape:pageopacity="0"
     inkscape:pageshadow="2"
     inkscape:window-width="1440"
     inkscape:window-height="852"
     id="namedview563"
     showgrid="false"
     fit-margin-top="2"
     fit-margin-bottom="2"
     fit-margin-right="2"
     fit-margin-left="2"
     inkscape:zoom="1.42"
     inkscape:cx="294.18746"
     inkscape:cy="88.673227"
     inkscape:window-x="0"
     inkscape:window-y="0"
     inkscape:window-maximized="1"
     inkscape:current-layer="svg2" /><defs
     class="ClipPathGroup"
     id="defs4"><clipPath
       id="presentation_clip_path"
       clipPathUnits="userSpaceOnUse"><rect
         x="0"
         y="0"
         width="21000"
         height="29700"
         id="rect7" /></clipPath></defs><defs
     class="TextShapeIndex"
     id="defs9"><g
       ooo:slide="id1"
       ooo:id-list="id3 id4 id5 id6 id7 id8 id9 id10 id11 id12 id13 id14 id15 id16 id17 id18 id19 id20 id21 id22 id23 id24 id25 id26 id27 id28 id29 id30 id31 id32 id33 id34 id35 id36 id37 id38 id39 id40 id41 id42 id43 id44 id45 id46 id47 id48 id49 id50 id51 id52 id53 id54 id55 id56 id57 id58 id59 id60 id61 id62 id63 id64 id65 id66 id67 id68 id69 id70 id71 id72 id73 id74 id75 id76 id77 id78 id79 id80 id81 id82 id83"
       id="g11" /></defs><defs
     class="EmbeddedBulletChars"
     id="defs13"><g
       id="bullet-char-template(57356)"
       transform="scale(4.8828125e-4,-4.8828125e-4)"><path
         d="M 580,1141 1163,571 580,0 -4,571 580,1141 Z"
         id="path16"
         inkscape:connector-curvature="0" /></g><g
       id="bullet-char-template(57354)"
       transform="scale(4.8828125e-4,-4.8828125e-4)"><path
         d="m 8,1128 1129,0 L 1137,0 8,0 8,1128 Z"
         id="path19"
         inkscape:connector-curvature="0" /></g><g
       id="bullet-char-template(10146)"
       transform="scale(4.8828125e-4,-4.8828125e-4)"><path
         d="M 174,0 602,739 174,1481 1456,739 174,0 Z m 1184,739 -1049,607 350,-607 699,0 z"
         id="path22"
         inkscape:connector-curvature="0" /></g><g
       id="bullet-char-template(10132)"
       transform="scale(4.8828125e-4,-4.8828125e-4)"><path
         d="M 2015,739 1276,0 717,0 l 543,543 -1086,0 0,393 1086,0 -543,545 557,0 741,-742 z"
         id="path25"
         inkscape:connector-curvature="0" /></g><g
       id="bullet-char-template(10007)"
       transform="scale(4.8828125e-4,-4.8828125e-4)"><path
         d="m 0,-2 c -7,16 -16,29 -25,39 l 381,530 c -94,256 -141,385 -141,387 0,25 13,38 40,38 9,0 21,-2 34,-5 21,4 42,12 65,25 l 27,-13 111,-251 280,301 64,-25 24,25 c 21,-10 41,-24 62,-43 C 886,937 835,863 770,784 769,783 710,716 594,584 L 774,223 c 0,-27 -21,-55 -63,-84 l 16,-20 C 717,90 699,76 672,76 641,76 570,178 457,381 L 164,-76 c -22,-34 -53,-51 -92,-51 -42,0 -63,17 -64,51 -7,9 -10,24 -10,44 0,9 1,19 2,30 z"
         id="path28"
         inkscape:connector-curvature="0" /></g><g
       id="bullet-char-template(10004)"
       transform="scale(4.8828125e-4,-4.8828125e-4)"><path
         d="M 285,-33 C 182,-33 111,30 74,156 52,228 41,333 41,471 c 0,78 14,145 41,201 34,71 87,106 158,106 53,0 88,-31 106,-94 l 23,-176 c 8,-64 28,-97 59,-98 l 735,706 c 11,11 33,17 66,17 42,0 63,-15 63,-46 l 0,-122 c 0,-36 -10,-64 -30,-84 L 442,47 C 390,-6 338,-33 285,-33 Z"
         id="path31"
         inkscape:connector-curvature="0" /></g><g
       id="bullet-char-template(9679)"
       transform="scale(4.8828125e-4,-4.8828125e-4)"><path
         d="M 813,0 C 632,0 489,54 383,161 276,268 223,411 223,592 c 0,181 53,324 160,431 106,107 249,161 430,161 179,0 323,-54 432,-161 108,-107 162,-251 162,-431 0,-180 -54,-324 -162,-431 C 1136,54 992,0 813,0 Z"
         id="path34"
         inkscape:connector-curvature="0" /></g><g
       id="bullet-char-template(8226)"
       transform="scale(4.8828125e-4,-4.8828125e-4)"><path
         d="m 346,457 c -73,0 -137,26 -191,78 -54,51 -81,114 -81,188 0,73 27,136 81,188 54,52 118,78 191,78 73,0 134,-26 185,-79 51,-51 77,-114 77,-187 0,-75 -25,-137 -76,-188 -50,-52 -112,-78 -186,-78 z"
         id="path37"
         inkscape:connector-curvature="0" /></g><g
       id="bullet-char-template(8211)"
       transform="scale(4.8828125e-4,-4.8828125e-4)"><path
         d="m -4,459 1139,0 0,147 -1139,0 0,-147 z"
         id="path40"
         inkscape:connector-curvature="0" /></g></defs><defs
     class="TextEmbeddedBitmaps"
     id="defs42" /><g
     id="g44"
     style="stroke-width:30.00000191;stroke-miterlimit:4;stroke-dasharray:none"
     transform="translate(-1682.7266,-5624.6963)"><g
       id="id2"
       class="Master_Slide"
       style="stroke-width:30.00000191;stroke-miterlimit:4;stroke-dasharray:none"><g
         id="bg-id2"
         class="Background"
         style="stroke-width:30.00000191;stroke-miterlimit:4;stroke-dasharray:none" /><g
         id="bo-id2"
         class="BackgroundObjects"
         style="stroke-width:30.00000191;stroke-miterlimit:4;stroke-dasharray:none" /></g></g><g
     class="SlideGroup"
     id="g49"
     style="stroke-width:30.00000191;stroke-miterlimit:4;stroke-dasharray:none"
     transform="translate(-1682.7266,-5624.6963)"><g
       id="g51"
       style="stroke-width:30.00000191;stroke-miterlimit:4;stroke-dasharray:none"><g
         id="id1"
         class="Slide"
         clip-path="url(#presentation_clip_path)"
         style="stroke-width:30.00000191;stroke-miterlimit:4;stroke-dasharray:none"><g
           class="Page"
           id="g54"
           style="stroke-width:30.00000191;stroke-miterlimit:4;stroke-dasharray:none"><g
             class="Group"
             id="g56"
             style="stroke-width:30.00000191;stroke-miterlimit:4;stroke-dasharray:none"><g
               class="com.sun.star.drawing.PolyPolygonShape"
               id="g58"
               style="stroke-width:30.00000191;stroke-miterlimit:4;stroke-dasharray:none"><g
                 id="id3"
                 style="stroke-width:30.00000191;stroke-miterlimit:4;stroke-dasharray:none"><path
                   d="m 1905,10500 6588,0 0,-4031 -6588,0 0,4031 z"
                   id="path61"
                   style="fill:none;stroke:#000000;stroke-width:30.00000191;stroke-miterlimit:4;stroke-dasharray:none"
                   inkscape:connector-curvature="0" /></g></g><g
               class="com.sun.star.drawing.TextShape"
               id="g63"
               style="stroke-width:30.00000191;stroke-miterlimit:4;stroke-dasharray:none"><g
                 id="id4"
                 style="stroke-width:30.00000191;stroke-miterlimit:4;stroke-dasharray:none" /></g></g><g
             class="Group"
             id="g66"
             style="stroke-width:30.00000191;stroke-miterlimit:4;stroke-dasharray:none"><g
               class="Group"
               id="g68"
               style="stroke-width:30.00000191;stroke-miterlimit:4;stroke-dasharray:none"><g
                 class="com.sun.star.drawing.PolyPolygonShape"
                 id="g70"
                 style="stroke-width:30.00000191;stroke-miterlimit:4;stroke-dasharray:none"><g
                   id="id5"
                   style="stroke-width:30.00000191;stroke-miterlimit:4;stroke-dasharray:none"><path
                     d="m 1905,7104 1701,0 317,-318 0,-317 -2018,0 0,635 z"
                     id="path73"
                     style="fill:#ffffff;stroke:none;stroke-width:30.00000191;stroke-miterlimit:4;stroke-dasharray:none"
                     inkscape:connector-curvature="0" /></g></g><g
                 class="com.sun.star.drawing.PolyPolygonShape"
                 id="g75"
                 style="stroke-width:30.00000191;stroke-miterlimit:4;stroke-dasharray:none"><g
                   id="id6"
                   style="stroke-width:30.00000191;stroke-miterlimit:4;stroke-dasharray:none"><path
                     d="m 1905,7104 1701,0 317,-318 0,-317 -2018,0 0,635 z"
                     id="path78"
                     style="fill:none;stroke:#000000;stroke-width:30.00000191;stroke-miterlimit:4;stroke-dasharray:none"
                     inkscape:connector-curvature="0" /></g></g></g><g
               class="com.sun.star.drawing.TextShape"
               id="g80"
               style="stroke-width:30.00000191;stroke-miterlimit:4;stroke-dasharray:none"><g
                 id="id7"
                 style="stroke-width:30.00000191;stroke-miterlimit:4;stroke-dasharray:none"><text
                   class="TextShape"
                   id="text83"
                   style="stroke-width:30.00000191;stroke-miterlimit:4;stroke-dasharray:none"><tspan
                     class="TextParagraph"
                     font-size="282px"
                     font-weight="700"
                     id="tspan85"
                     style="font-weight:700;font-size:282px;font-family:Calibri, sans-serif;stroke-width:30.00000191;stroke-miterlimit:4;stroke-dasharray:none"><tspan
                       class="TextPosition"
                       x="2256"
                       y="6882"
                       id="tspan87"
                       style="stroke-width:30.00000191;stroke-miterlimit:4;stroke-dasharray:none"><tspan
                         id="tspan89"
                         style="fill:#000000;stroke:none;stroke-width:30.00000191;stroke-miterlimit:4;stroke-dasharray:none">package CP</tspan></tspan></tspan></text>
</g></g></g><g
             class="com.sun.star.drawing.TextShape"
             id="g91"
             style="stroke-width:30.00000191;stroke-miterlimit:4;stroke-dasharray:none"><g
               id="id8"
               style="stroke-width:30.00000191;stroke-miterlimit:4;stroke-dasharray:none" /></g><g
             class="Group"
             id="g94"
             style="stroke-width:30.00000191;stroke-miterlimit:4;stroke-dasharray:none"><g
               class="com.sun.star.drawing.PolyPolygonShape"
               id="g96"
               style="stroke-width:30.00000191;stroke-miterlimit:4;stroke-dasharray:none"><g
                 id="id9"
                 style="stroke-width:30.00000191;stroke-miterlimit:4;stroke-dasharray:none"><path
                   d="m 10081,9850 5556,0 0,-3241 -5556,0 0,3241 z"
                   id="path99"
                   style="fill:none;stroke:#000000;stroke-width:30.00000191;stroke-miterlimit:4;stroke-dasharray:none"
                   inkscape:connector-curvature="0" /></g></g><g
               class="com.sun.star.drawing.TextShape"
               id="g101"
               style="stroke-width:30.00000191;stroke-miterlimit:4;stroke-dasharray:none"><g
                 id="id10"
                 style="stroke-width:30.00000191;stroke-miterlimit:4;stroke-dasharray:none" /></g></g><g
             class="Group"
             id="g104"
             style="stroke-width:30.00000191;stroke-miterlimit:4;stroke-dasharray:none"><g
               class="Group"
               id="g106"
               style="stroke-width:30.00000191;stroke-miterlimit:4;stroke-dasharray:none"><g
                 class="com.sun.star.drawing.PolyPolygonShape"
                 id="g108"
                 style="stroke-width:30.00000191;stroke-miterlimit:4;stroke-dasharray:none"><g
                   id="id11"
                   style="stroke-width:30.00000191;stroke-miterlimit:4;stroke-dasharray:none"><path
                     d="m 10081,7244 1701,0 317,-318 0,-317 -2018,0 0,635 z"
                     id="path111"
                     style="fill:#ffffff;stroke:none;stroke-width:30.00000191;stroke-miterlimit:4;stroke-dasharray:none"
                     inkscape:connector-curvature="0" /></g></g><g
                 class="com.sun.star.drawing.PolyPolygonShape"
                 id="g113"
                 style="stroke-width:30.00000191;stroke-miterlimit:4;stroke-dasharray:none"><g
                   id="id12"
                   style="stroke-width:30.00000191;stroke-miterlimit:4;stroke-dasharray:none"><path
                     d="m 10081,7244 1701,0 317,-318 0,-317 -2018,0 0,635 z"
                     id="path116"
                     style="fill:none;stroke:#000000;stroke-width:30.00000191;stroke-miterlimit:4;stroke-dasharray:none"
                     inkscape:connector-curvature="0" /></g></g></g><g
               class="com.sun.star.drawing.TextShape"
               id="g118"
               style="stroke-width:30.00000191;stroke-miterlimit:4;stroke-dasharray:none"><g
                 id="id13"
                 style="stroke-width:30.00000191;stroke-miterlimit:4;stroke-dasharray:none"><text
                   class="TextShape"
                   id="text121"
                   style="stroke-width:30.00000191;stroke-miterlimit:4;stroke-dasharray:none"><tspan
                     class="TextParagraph"
                     font-size="282px"
                     font-weight="700"
                     id="tspan123"
                     style="font-weight:700;font-size:282px;font-family:Calibri, sans-serif;stroke-width:30.00000191;stroke-miterlimit:4;stroke-dasharray:none"><tspan
                       class="TextPosition"
                       x="10508"
                       y="7022"
                       id="tspan125"
                       style="stroke-width:30.00000191;stroke-miterlimit:4;stroke-dasharray:none"><tspan
                         id="tspan127"
                         style="fill:#000000;stroke:none;stroke-width:30.00000191;stroke-miterlimit:4;stroke-dasharray:none">package P</tspan></tspan></tspan></text>
</g></g></g><g
             class="com.sun.star.drawing.TextShape"
             id="g129"
             style="stroke-width:30.00000191;stroke-miterlimit:4;stroke-dasharray:none"><g
               id="id14"
               style="stroke-width:30.00000191;stroke-miterlimit:4;stroke-dasharray:none" /></g><g
             class="Group"
             id="g132"
             style="stroke-width:30.00000191;stroke-miterlimit:4;stroke-dasharray:none"><g
               class="com.sun.star.drawing.PolyPolygonShape"
               id="g134"
               style="stroke-width:30.00000191;stroke-miterlimit:4;stroke-dasharray:none"><g
                 id="id15"
                 style="stroke-width:30.00000191;stroke-miterlimit:4;stroke-dasharray:none"><path
                   d="m 7382,9538 0,0 0,-1587 0,0 0,1587 z"
                   id="path137"
                   style="fill:#ffffff;stroke:none;stroke-width:30.00000191;stroke-miterlimit:4;stroke-dasharray:none"
                   inkscape:connector-curvature="0" /></g></g><g
               class="com.sun.star.drawing.TextShape"
               id="g139"
               style="stroke-width:30.00000191;stroke-miterlimit:4;stroke-dasharray:none"><g
                 id="id16"
                 style="stroke-width:30.00000191;stroke-miterlimit:4;stroke-dasharray:none" /></g></g><g
             class="Group"
             id="g142"
             style="stroke-width:30.00000191;stroke-miterlimit:4;stroke-dasharray:none"><g
               class="com.sun.star.drawing.PolyPolygonShape"
               id="g144"
               style="stroke-width:30.00000191;stroke-miterlimit:4;stroke-dasharray:none"><g
                 id="id17"
                 style="stroke-width:30.00000191;stroke-miterlimit:4;stroke-dasharray:none"><path
                   d="m 7382,9539 0,0 -4683,0 0,0 4683,0 z"
                   id="path147"
                   style="fill:#ffffff;stroke:none;stroke-width:30.00000191;stroke-miterlimit:4;stroke-dasharray:none"
                   inkscape:connector-curvature="0" /></g></g><g
               class="com.sun.star.drawing.TextShape"
               id="g149"
               style="stroke-width:30.00000191;stroke-miterlimit:4;stroke-dasharray:none"><g
                 id="id18"
                 style="stroke-width:30.00000191;stroke-miterlimit:4;stroke-dasharray:none" /></g></g><g
             class="Group"
             id="g152"
             style="stroke-width:30.00000191;stroke-miterlimit:4;stroke-dasharray:none"><g
               class="com.sun.star.drawing.PolyPolygonShape"
               id="g154"
               style="stroke-width:30.00000191;stroke-miterlimit:4;stroke-dasharray:none"><g
                 id="id19"
                 style="stroke-width:30.00000191;stroke-miterlimit:4;stroke-dasharray:none"><path
                   d="m 7382,9539 0,0 -4683,0 0,0 4683,0 z"
                   id="path157"
                   style="fill:#ffffff;stroke:none;stroke-width:30.00000191;stroke-miterlimit:4;stroke-dasharray:none"
                   inkscape:connector-curvature="0" /></g></g><g
               class="com.sun.star.drawing.TextShape"
               id="g159"
               style="stroke-width:30.00000191;stroke-miterlimit:4;stroke-dasharray:none"><g
                 id="id20"
                 style="stroke-width:30.00000191;stroke-miterlimit:4;stroke-dasharray:none" /></g></g><g
             class="Group"
             id="g162"
             style="stroke-width:30.00000191;stroke-miterlimit:4;stroke-dasharray:none"><g
               class="com.sun.star.drawing.PolyPolygonShape"
               id="g164"
               style="stroke-width:30.00000191;stroke-miterlimit:4;stroke-dasharray:none"><g
                 id="id21"
                 style="stroke-width:30.00000191;stroke-miterlimit:4;stroke-dasharray:none"><path
                   d="m 7382,9539 0,0 -4683,0 0,0 4683,0 z"
                   id="path167"
                   style="fill:#ffffff;stroke:none;stroke-width:30.00000191;stroke-miterlimit:4;stroke-dasharray:none"
                   inkscape:connector-curvature="0" /></g></g><g
               class="com.sun.star.drawing.TextShape"
               id="g169"
               style="stroke-width:30.00000191;stroke-miterlimit:4;stroke-dasharray:none"><g
                 id="id22"
                 style="stroke-width:30.00000191;stroke-miterlimit:4;stroke-dasharray:none" /></g></g><g
             class="Group"
             id="g172"
             style="stroke-width:30.00000191;stroke-miterlimit:4;stroke-dasharray:none"><g
               class="Group"
               id="g174"
               style="stroke-width:30.00000191;stroke-miterlimit:4;stroke-dasharray:none"><g
                 class="com.sun.star.drawing.PolyPolygonShape"
                 id="g176"
                 style="stroke-width:30.00000191;stroke-miterlimit:4;stroke-dasharray:none"><g
                   id="id23"
                   style="stroke-width:30.00000191;stroke-miterlimit:4;stroke-dasharray:none"><path
                     d="m 7382,9539 0,-1588 -4683,0 0,1588 4683,0 z m -3074,-1588 0,-317 -1609,0 0,317 1609,0 z m -1609,1588 0,0 0,-1588 0,1588 z m 0,-1905 0,0 z m 4683,317 0,0 0,1588 0,0 0,-1588 z"
                     id="path179"
                     style="fill:#ffffff;stroke:none;stroke-width:30.00000191;stroke-miterlimit:4;stroke-dasharray:none"
                     inkscape:connector-curvature="0" /></g></g><g
                 class="com.sun.star.drawing.PolyLineShape"
                 id="g181"
                 style="stroke-width:30.00000191;stroke-miterlimit:4;stroke-dasharray:none"><g
                   id="id24"
                   style="stroke-width:30.00000191;stroke-miterlimit:4;stroke-dasharray:none"><path
                     d="m 4308,7951 0,-317 -1609,0 0,317"
                     id="path184"
                     style="fill:none;stroke:#000000;stroke-width:30.00000191;stroke-miterlimit:4;stroke-dasharray:none"
                     inkscape:connector-curvature="0" /><path
                     d="m 7382,9539 0,-1588"
                     id="path186"
                     style="fill:none;stroke:#000000;stroke-width:30.00000191;stroke-miterlimit:4;stroke-dasharray:none"
                     inkscape:connector-curvature="0" /><path
                     d="m 2699,9539 0,-1905"
                     id="path188"
                     style="fill:none;stroke:#000000;stroke-width:30.00000191;stroke-miterlimit:4;stroke-dasharray:none"
                     inkscape:connector-curvature="0" /><path
                     d="m 2699,7951 4683,0"
                     id="path190"
                     style="fill:none;stroke:#000000;stroke-width:30.00000191;stroke-miterlimit:4;stroke-dasharray:none"
                     inkscape:connector-curvature="0" /><path
                     d="m 2699,9539 4683,0"
                     id="path192"
                     style="fill:none;stroke:#000000;stroke-width:30.00000191;stroke-miterlimit:4;stroke-dasharray:none"
                     inkscape:connector-curvature="0" /></g></g></g><g
               class="com.sun.star.drawing.TextShape"
               id="g194"
               style="stroke-width:30.00000191;stroke-miterlimit:4;stroke-dasharray:none"><g
                 id="id25"
                 style="stroke-width:30.00000191;stroke-miterlimit:4;stroke-dasharray:none"><text
                   class="TextShape"
                   id="text197"
                   style="stroke-width:30.00000191;stroke-miterlimit:4;stroke-dasharray:none"><tspan
                     class="TextParagraph"
                     font-size="282px"
                     font-weight="700"
                     id="tspan199"
                     style="font-weight:700;font-size:282px;font-family:Arial, sans-serif;stroke-width:30.00000191;stroke-miterlimit:4;stroke-dasharray:none"><tspan
                       class="TextPosition"
                       x="4948"
                       y="8346"
                       id="tspan201"
                       style="stroke-width:30.00000191;stroke-miterlimit:4;stroke-dasharray:none"><tspan
                         id="tspan203"
                         style="fill:#000000;stroke:none;stroke-width:30.00000191;stroke-miterlimit:4;stroke-dasharray:none">P</tspan></tspan></tspan></text>
</g></g></g><g
             class="Group"
             id="g205"
             style="stroke-width:30.00000191;stroke-miterlimit:4;stroke-dasharray:none"><g
               class="com.sun.star.drawing.PolyPolygonShape"
               id="g207"
               style="stroke-width:30.00000191;stroke-miterlimit:4;stroke-dasharray:none"><g
                 id="id26"
                 style="stroke-width:30.00000191;stroke-miterlimit:4;stroke-dasharray:none"><path
                   d="m 4604,9220 0,0 0,-793 0,0 0,793 z"
                   id="path210"
                   style="fill:#ffffff;stroke:none;stroke-width:30.00000191;stroke-miterlimit:4;stroke-dasharray:none"
                   inkscape:connector-curvature="0" /></g></g><g
               class="com.sun.star.drawing.TextShape"
               id="g212"
               style="stroke-width:30.00000191;stroke-miterlimit:4;stroke-dasharray:none"><g
                 id="id27"
                 style="stroke-width:30.00000191;stroke-miterlimit:4;stroke-dasharray:none" /></g></g><g
             class="Group"
             id="g215"
             style="stroke-width:30.00000191;stroke-miterlimit:4;stroke-dasharray:none"><g
               class="com.sun.star.drawing.PolyPolygonShape"
               id="g217"
               style="stroke-width:30.00000191;stroke-miterlimit:4;stroke-dasharray:none"><g
                 id="id28"
                 style="stroke-width:30.00000191;stroke-miterlimit:4;stroke-dasharray:none"><path
                   d="m 4604,9221 0,0 -1508,0 0,0 1508,0 z"
                   id="path220"
                   style="fill:#ffffff;stroke:none;stroke-width:30.00000191;stroke-miterlimit:4;stroke-dasharray:none"
                   inkscape:connector-curvature="0" /></g></g><g
               class="com.sun.star.drawing.TextShape"
               id="g222"
               style="stroke-width:30.00000191;stroke-miterlimit:4;stroke-dasharray:none"><g
                 id="id29"
                 style="stroke-width:30.00000191;stroke-miterlimit:4;stroke-dasharray:none" /></g></g><g
             class="Group"
             id="g225"
             style="stroke-width:30.00000191;stroke-miterlimit:4;stroke-dasharray:none"><g
               class="com.sun.star.drawing.PolyPolygonShape"
               id="g227"
               style="stroke-width:30.00000191;stroke-miterlimit:4;stroke-dasharray:none"><g
                 id="id30"
                 style="stroke-width:30.00000191;stroke-miterlimit:4;stroke-dasharray:none"><path
                   d="m 4604,9221 0,0 -1508,0 0,0 1508,0 z"
                   id="path230"
                   style="fill:#ffffff;stroke:none;stroke-width:30.00000191;stroke-miterlimit:4;stroke-dasharray:none"
                   inkscape:connector-curvature="0" /></g></g><g
               class="com.sun.star.drawing.TextShape"
               id="g232"
               style="stroke-width:30.00000191;stroke-miterlimit:4;stroke-dasharray:none"><g
                 id="id31"
                 style="stroke-width:30.00000191;stroke-miterlimit:4;stroke-dasharray:none" /></g></g><g
             class="Group"
             id="g235"
             style="stroke-width:30.00000191;stroke-miterlimit:4;stroke-dasharray:none"><g
               class="com.sun.star.drawing.PolyPolygonShape"
               id="g237"
               style="stroke-width:30.00000191;stroke-miterlimit:4;stroke-dasharray:none"><g
                 id="id32"
                 style="stroke-width:30.00000191;stroke-miterlimit:4;stroke-dasharray:none"><path
                   d="m 4604,9221 0,0 -1508,0 0,0 1508,0 z"
                   id="path240"
                   style="fill:#ffffff;stroke:none;stroke-width:30.00000191;stroke-miterlimit:4;stroke-dasharray:none"
                   inkscape:connector-curvature="0" /></g></g><g
               class="com.sun.star.drawing.TextShape"
               id="g242"
               style="stroke-width:30.00000191;stroke-miterlimit:4;stroke-dasharray:none"><g
                 id="id33"
                 style="stroke-width:30.00000191;stroke-miterlimit:4;stroke-dasharray:none" /></g></g><g
             class="Group"
             id="g245"
             style="stroke-width:30.00000191;stroke-miterlimit:4;stroke-dasharray:none"><g
               class="Group"
               id="g247"
               style="stroke-width:30.00000191;stroke-miterlimit:4;stroke-dasharray:none"><g
                 class="com.sun.star.drawing.PolyPolygonShape"
                 id="g249"
                 style="stroke-width:30.00000191;stroke-miterlimit:4;stroke-dasharray:none"><g
                   id="id34"
                   style="stroke-width:30.00000191;stroke-miterlimit:4;stroke-dasharray:none"><path
                     d="m 4604,9220 0,-793 -1508,0 0,793 1508,0 z m -1508,-793 0,0 z m 0,793 0,0 0,-793 0,793 z m 0,-793 0,0 z m 1508,0 0,0 0,793 0,0 0,-793 z"
                     id="path252"
                     style="fill:#ffffff;stroke:none;stroke-width:30.00000191;stroke-miterlimit:4;stroke-dasharray:none"
                     inkscape:connector-curvature="0" /></g></g><g
                 class="com.sun.star.drawing.PolyLineShape"
                 id="g254"
                 style="stroke-width:30.00000191;stroke-miterlimit:4;stroke-dasharray:none"><g
                   id="id35"
                   style="stroke-width:30.00000191;stroke-miterlimit:4;stroke-dasharray:none"><path
                     d="m 3096,8427 0,0 z"
                     id="path257"
                     style="fill:none;stroke:#000000;stroke-width:30.00000191;stroke-miterlimit:4;stroke-dasharray:none"
                     inkscape:connector-curvature="0" /><path
                     d="m 4604,9220 0,-793"
                     id="path259"
                     style="fill:none;stroke:#000000;stroke-width:30.00000191;stroke-miterlimit:4;stroke-dasharray:none"
                     inkscape:connector-curvature="0" /><path
                     d="m 3096,9220 0,-793"
                     id="path261"
                     style="fill:none;stroke:#000000;stroke-width:30.00000191;stroke-miterlimit:4;stroke-dasharray:none"
                     inkscape:connector-curvature="0" /><path
                     d="m 3096,8427 1508,0"
                     id="path263"
                     style="fill:none;stroke:#000000;stroke-width:30.00000191;stroke-miterlimit:4;stroke-dasharray:none"
                     inkscape:connector-curvature="0" /><path
                     d="m 3096,9220 1508,0"
                     id="path265"
                     style="fill:none;stroke:#000000;stroke-width:30.00000191;stroke-miterlimit:4;stroke-dasharray:none"
                     inkscape:connector-curvature="0" /></g></g></g><g
               class="com.sun.star.drawing.TextShape"
               id="g267"
               style="stroke-width:30.00000191;stroke-miterlimit:4;stroke-dasharray:none"><g
                 id="id36"
                 style="stroke-width:30.00000191;stroke-miterlimit:4;stroke-dasharray:none"><text
                   class="TextShape"
                   id="text270"
                   style="stroke-width:30.00000191;stroke-miterlimit:4;stroke-dasharray:none"><tspan
                     class="TextParagraph"
                     font-size="282px"
                     font-weight="700"
                     id="tspan272"
                     style="font-weight:700;font-size:282px;font-family:Arial, sans-serif;stroke-width:30.00000191;stroke-miterlimit:4;stroke-dasharray:none"><tspan
                       class="TextPosition"
                       x="3670"
                       y="8922"
                       id="tspan274"
                       style="stroke-width:30.00000191;stroke-miterlimit:4;stroke-dasharray:none"><tspan
                         id="tspan276"
                         style="fill:#000000;stroke:none;stroke-width:30.00000191;stroke-miterlimit:4;stroke-dasharray:none">C1</tspan></tspan></tspan></text>
</g></g></g><g
             class="Group"
             id="g278"
             style="stroke-width:30.00000191;stroke-miterlimit:4;stroke-dasharray:none"><g
               class="com.sun.star.drawing.PolyPolygonShape"
               id="g280"
               style="stroke-width:30.00000191;stroke-miterlimit:4;stroke-dasharray:none"><g
                 id="id37"
                 style="stroke-width:30.00000191;stroke-miterlimit:4;stroke-dasharray:none"><path
                   d="m 7064,9220 0,0 0,-793 0,0 0,793 z"
                   id="path283"
                   style="fill:#ffffff;stroke:none;stroke-width:30.00000191;stroke-miterlimit:4;stroke-dasharray:none"
                   inkscape:connector-curvature="0" /></g></g><g
               class="com.sun.star.drawing.TextShape"
               id="g285"
               style="stroke-width:30.00000191;stroke-miterlimit:4;stroke-dasharray:none"><g
                 id="id38"
                 style="stroke-width:30.00000191;stroke-miterlimit:4;stroke-dasharray:none" /></g></g><g
             class="Group"
             id="g288"
             style="stroke-width:30.00000191;stroke-miterlimit:4;stroke-dasharray:none"><g
               class="com.sun.star.drawing.PolyPolygonShape"
               id="g290"
               style="stroke-width:30.00000191;stroke-miterlimit:4;stroke-dasharray:none"><g
                 id="id39"
                 style="stroke-width:30.00000191;stroke-miterlimit:4;stroke-dasharray:none"><path
                   d="m 7064,9221 0,0 -1508,0 0,0 1508,0 z"
                   id="path293"
                   style="fill:#ffffff;stroke:none;stroke-width:30.00000191;stroke-miterlimit:4;stroke-dasharray:none"
                   inkscape:connector-curvature="0" /></g></g><g
               class="com.sun.star.drawing.TextShape"
               id="g295"
               style="stroke-width:30.00000191;stroke-miterlimit:4;stroke-dasharray:none"><g
                 id="id40"
                 style="stroke-width:30.00000191;stroke-miterlimit:4;stroke-dasharray:none" /></g></g><g
             class="Group"
             id="g298"
             style="stroke-width:30.00000191;stroke-miterlimit:4;stroke-dasharray:none"><g
               class="com.sun.star.drawing.PolyPolygonShape"
               id="g300"
               style="stroke-width:30.00000191;stroke-miterlimit:4;stroke-dasharray:none"><g
                 id="id41"
                 style="stroke-width:30.00000191;stroke-miterlimit:4;stroke-dasharray:none"><path
                   d="m 7064,9221 0,0 -1508,0 0,0 1508,0 z"
                   id="path303"
                   style="fill:#ffffff;stroke:none;stroke-width:30.00000191;stroke-miterlimit:4;stroke-dasharray:none"
                   inkscape:connector-curvature="0" /></g></g><g
               class="com.sun.star.drawing.TextShape"
               id="g305"
               style="stroke-width:30.00000191;stroke-miterlimit:4;stroke-dasharray:none"><g
                 id="id42"
                 style="stroke-width:30.00000191;stroke-miterlimit:4;stroke-dasharray:none" /></g></g><g
             class="Group"
             id="g308"
             style="stroke-width:30.00000191;stroke-miterlimit:4;stroke-dasharray:none"><g
               class="com.sun.star.drawing.PolyPolygonShape"
               id="g310"
               style="stroke-width:30.00000191;stroke-miterlimit:4;stroke-dasharray:none"><g
                 id="id43"
                 style="stroke-width:30.00000191;stroke-miterlimit:4;stroke-dasharray:none"><path
                   d="m 7064,9221 0,0 -1508,0 0,0 1508,0 z"
                   id="path313"
                   style="fill:#ffffff;stroke:none;stroke-width:30.00000191;stroke-miterlimit:4;stroke-dasharray:none"
                   inkscape:connector-curvature="0" /></g></g><g
               class="com.sun.star.drawing.TextShape"
               id="g315"
               style="stroke-width:30.00000191;stroke-miterlimit:4;stroke-dasharray:none"><g
                 id="id44"
                 style="stroke-width:30.00000191;stroke-miterlimit:4;stroke-dasharray:none" /></g></g><g
             class="Group"
             id="g318"
             style="stroke-width:30.00000191;stroke-miterlimit:4;stroke-dasharray:none"><g
               class="Group"
               id="g320"
               style="stroke-width:30.00000191;stroke-miterlimit:4;stroke-dasharray:none"><g
                 class="com.sun.star.drawing.PolyPolygonShape"
                 id="g322"
                 style="stroke-width:30.00000191;stroke-miterlimit:4;stroke-dasharray:none"><g
                   id="id45"
                   style="stroke-width:30.00000191;stroke-miterlimit:4;stroke-dasharray:none"><path
                     d="m 7064,9220 0,-793 -1508,0 0,793 1508,0 z m -1508,-793 0,0 z m 0,793 0,0 0,-793 0,793 z m 0,-793 0,0 z m 1508,0 0,0 0,793 0,0 0,-793 z"
                     id="path325"
                     style="fill:#ffffff;stroke:none;stroke-width:30.00000191;stroke-miterlimit:4;stroke-dasharray:none"
                     inkscape:connector-curvature="0" /></g></g><g
                 class="com.sun.star.drawing.PolyLineShape"
                 id="g327"
                 style="stroke-width:30.00000191;stroke-miterlimit:4;stroke-dasharray:none"><g
                   id="id46"
                   style="stroke-width:30.00000191;stroke-miterlimit:4;stroke-dasharray:none"><path
                     d="m 5556,8427 0,0 z"
                     id="path330"
                     style="fill:none;stroke:#000000;stroke-width:30.00000191;stroke-miterlimit:4;stroke-dasharray:none"
                     inkscape:connector-curvature="0" /><path
                     d="m 7064,9220 0,-793"
                     id="path332"
                     style="fill:none;stroke:#000000;stroke-width:30.00000191;stroke-miterlimit:4;stroke-dasharray:none"
                     inkscape:connector-curvature="0" /><path
                     d="m 5556,9220 0,-793"
                     id="path334"
                     style="fill:none;stroke:#000000;stroke-width:30.00000191;stroke-miterlimit:4;stroke-dasharray:none"
                     inkscape:connector-curvature="0" /><path
                     d="m 5556,8427 1508,0"
                     id="path336"
                     style="fill:none;stroke:#000000;stroke-width:30.00000191;stroke-miterlimit:4;stroke-dasharray:none"
                     inkscape:connector-curvature="0" /><path
                     d="m 5556,9220 1508,0"
                     id="path338"
                     style="fill:none;stroke:#000000;stroke-width:30.00000191;stroke-miterlimit:4;stroke-dasharray:none"
                     inkscape:connector-curvature="0" /></g></g></g><g
               class="com.sun.star.drawing.TextShape"
               id="g340"
               style="stroke-width:30.00000191;stroke-miterlimit:4;stroke-dasharray:none"><g
                 id="id47"
                 style="stroke-width:30.00000191;stroke-miterlimit:4;stroke-dasharray:none"><text
                   class="TextShape"
                   id="text343"
                   style="stroke-width:30.00000191;stroke-miterlimit:4;stroke-dasharray:none"><tspan
                     class="TextParagraph"
                     font-size="282px"
                     font-weight="700"
                     id="tspan345"
                     style="font-weight:700;font-size:282px;font-family:Arial, sans-serif;stroke-width:30.00000191;stroke-miterlimit:4;stroke-dasharray:none"><tspan
                       class="TextPosition"
                       x="6130"
                       y="8922"
                       id="tspan347"
                       style="stroke-width:30.00000191;stroke-miterlimit:4;stroke-dasharray:none"><tspan
                         id="tspan349"
                         style="fill:#000000;stroke:none;stroke-width:30.00000191;stroke-miterlimit:4;stroke-dasharray:none">C2</tspan></tspan></tspan></text>
</g></g></g><g
             class="Group"
             id="g351"
             style="stroke-width:30.00000191;stroke-miterlimit:4;stroke-dasharray:none"><g
               class="com.sun.star.drawing.LineShape"
               id="g353"
               style="stroke-width:30.00000191;stroke-miterlimit:4;stroke-dasharray:none"><g
                 id="id48"
                 style="stroke-width:30.00000191;stroke-miterlimit:4;stroke-dasharray:none"><path
                   d="m 4604,8824 952,0"
                   id="path356"
                   style="fill:none;stroke:#000000;stroke-width:30.00000191;stroke-miterlimit:4;stroke-dasharray:none"
                   inkscape:connector-curvature="0" /></g></g><g
               class="com.sun.star.drawing.TextShape"
               id="g358"
               style="stroke-width:30.00000191;stroke-miterlimit:4;stroke-dasharray:none"><g
                 id="id49"
                 style="stroke-width:30.00000191;stroke-miterlimit:4;stroke-dasharray:none" /></g><g
               class="com.sun.star.drawing.TextShape"
               id="g361"
               style="stroke-width:30.00000191;stroke-miterlimit:4;stroke-dasharray:none"><g
                 id="id50"
                 style="stroke-width:30.00000191;stroke-miterlimit:4;stroke-dasharray:none" /></g><g
               class="com.sun.star.drawing.TextShape"
               id="g364"
               style="stroke-width:30.00000191;stroke-miterlimit:4;stroke-dasharray:none"><g
                 id="id51"
                 style="stroke-width:30.00000191;stroke-miterlimit:4;stroke-dasharray:none" /></g><g
               class="com.sun.star.drawing.TextShape"
               id="g367"
               style="stroke-width:30.00000191;stroke-miterlimit:4;stroke-dasharray:none"><g
                 id="id52"
                 style="stroke-width:30.00000191;stroke-miterlimit:4;stroke-dasharray:none" /></g><g
               class="com.sun.star.drawing.TextShape"
               id="g370"
               style="stroke-width:30.00000191;stroke-miterlimit:4;stroke-dasharray:none"><g
                 id="id53"
                 style="stroke-width:30.00000191;stroke-miterlimit:4;stroke-dasharray:none" /></g></g><g
             class="Group"
             id="g373"
             style="stroke-width:30.00000191;stroke-miterlimit:4;stroke-dasharray:none"><g
               class="com.sun.star.drawing.PolyPolygonShape"
               id="g375"
               style="stroke-width:30.00000191;stroke-miterlimit:4;stroke-dasharray:none"><g
                 id="id54"
                 style="stroke-width:30.00000191;stroke-miterlimit:4;stroke-dasharray:none"><path
                   d="m 12383,8824 0,0 0,-793 0,0 0,793 z"
                   id="path378"
                   style="fill:#ffffff;stroke:none;stroke-width:30.00000191;stroke-miterlimit:4;stroke-dasharray:none"
                   inkscape:connector-curvature="0" /></g></g><g
               class="com.sun.star.drawing.TextShape"
               id="g380"
               style="stroke-width:30.00000191;stroke-miterlimit:4;stroke-dasharray:none"><g
                 id="id55"
                 style="stroke-width:30.00000191;stroke-miterlimit:4;stroke-dasharray:none" /></g></g><g
             class="Group"
             id="g383"
             style="stroke-width:30.00000191;stroke-miterlimit:4;stroke-dasharray:none"><g
               class="com.sun.star.drawing.PolyPolygonShape"
               id="g385"
               style="stroke-width:30.00000191;stroke-miterlimit:4;stroke-dasharray:none"><g
                 id="id56"
                 style="stroke-width:30.00000191;stroke-miterlimit:4;stroke-dasharray:none"><path
                   d="m 12382,8824 0,0 -1508,0 0,0 1508,0 z"
                   id="path388"
                   style="fill:#ffffff;stroke:none;stroke-width:30.00000191;stroke-miterlimit:4;stroke-dasharray:none"
                   inkscape:connector-curvature="0" /></g></g><g
               class="com.sun.star.drawing.TextShape"
               id="g390"
               style="stroke-width:30.00000191;stroke-miterlimit:4;stroke-dasharray:none"><g
                 id="id57"
                 style="stroke-width:30.00000191;stroke-miterlimit:4;stroke-dasharray:none" /></g></g><g
             class="Group"
             id="g393"
             style="stroke-width:30.00000191;stroke-miterlimit:4;stroke-dasharray:none"><g
               class="com.sun.star.drawing.PolyPolygonShape"
               id="g395"
               style="stroke-width:30.00000191;stroke-miterlimit:4;stroke-dasharray:none"><g
                 id="id58"
                 style="stroke-width:30.00000191;stroke-miterlimit:4;stroke-dasharray:none"><path
                   d="m 12382,8824 0,0 -1508,0 0,0 1508,0 z"
                   id="path398"
                   style="fill:#ffffff;stroke:none;stroke-width:30.00000191;stroke-miterlimit:4;stroke-dasharray:none"
                   inkscape:connector-curvature="0" /></g></g><g
               class="com.sun.star.drawing.TextShape"
               id="g400"
               style="stroke-width:30.00000191;stroke-miterlimit:4;stroke-dasharray:none"><g
                 id="id59"
                 style="stroke-width:30.00000191;stroke-miterlimit:4;stroke-dasharray:none" /></g></g><g
             class="Group"
             id="g403"
             style="stroke-width:30.00000191;stroke-miterlimit:4;stroke-dasharray:none"><g
               class="com.sun.star.drawing.PolyPolygonShape"
               id="g405"
               style="stroke-width:30.00000191;stroke-miterlimit:4;stroke-dasharray:none"><g
                 id="id60"
                 style="stroke-width:30.00000191;stroke-miterlimit:4;stroke-dasharray:none"><path
                   d="m 12382,8824 0,0 -1508,0 0,0 1508,0 z"
                   id="path408"
                   style="fill:#ffffff;stroke:none;stroke-width:30.00000191;stroke-miterlimit:4;stroke-dasharray:none"
                   inkscape:connector-curvature="0" /></g></g><g
               class="com.sun.star.drawing.TextShape"
               id="g410"
               style="stroke-width:30.00000191;stroke-miterlimit:4;stroke-dasharray:none"><g
                 id="id61"
                 style="stroke-width:30.00000191;stroke-miterlimit:4;stroke-dasharray:none" /></g></g><g
             class="Group"
             id="g413"
             style="stroke-width:30.00000191;stroke-miterlimit:4;stroke-dasharray:none"><g
               class="Group"
               id="g415"
               style="stroke-width:30.00000191;stroke-miterlimit:4;stroke-dasharray:none"><g
                 class="com.sun.star.drawing.PolyPolygonShape"
                 id="g417"
                 style="stroke-width:30.00000191;stroke-miterlimit:4;stroke-dasharray:none"><g
                   id="id62"
                   style="stroke-width:30.00000191;stroke-miterlimit:4;stroke-dasharray:none"><path
                     d="m 12382,8824 0,-793 -1508,0 0,793 1508,0 z m -1508,-793 0,0 z m 0,793 0,0 0,-793 0,793 z m 0,-793 0,0 z m 1508,0 0,0 0,793 0,0 0,-793 z"
                     id="path420"
                     style="fill:#ffffff;stroke:none;stroke-width:30.00000191;stroke-miterlimit:4;stroke-dasharray:none"
                     inkscape:connector-curvature="0" /></g></g><g
                 class="com.sun.star.drawing.PolyLineShape"
                 id="g422"
                 style="stroke-width:30.00000191;stroke-miterlimit:4;stroke-dasharray:none"><g
                   id="id63"
                   style="stroke-width:30.00000191;stroke-miterlimit:4;stroke-dasharray:none"><path
                     d="m 10874,8031 0,0 z"
                     id="path425"
                     style="fill:none;stroke:#000000;stroke-width:30.00000191;stroke-miterlimit:4;stroke-dasharray:none"
                     inkscape:connector-curvature="0" /><path
                     d="m 12382,8824 0,-793"
                     id="path427"
                     style="fill:none;stroke:#000000;stroke-width:30.00000191;stroke-miterlimit:4;stroke-dasharray:none"
                     inkscape:connector-curvature="0" /><path
                     d="m 10874,8824 0,-793"
                     id="path429"
                     style="fill:none;stroke:#000000;stroke-width:30.00000191;stroke-miterlimit:4;stroke-dasharray:none"
                     inkscape:connector-curvature="0" /><path
                     d="m 10874,8031 1508,0"
                     id="path431"
                     style="fill:none;stroke:#000000;stroke-width:30.00000191;stroke-miterlimit:4;stroke-dasharray:none"
                     inkscape:connector-curvature="0" /><path
                     d="m 10874,8824 1508,0"
                     id="path433"
                     style="fill:none;stroke:#000000;stroke-width:30.00000191;stroke-miterlimit:4;stroke-dasharray:none"
                     inkscape:connector-curvature="0" /></g></g></g><g
               class="com.sun.star.drawing.TextShape"
               id="g435"
               style="stroke-width:30.00000191;stroke-miterlimit:4;stroke-dasharray:none"><g
                 id="id64"
                 style="stroke-width:30.00000191;stroke-miterlimit:4;stroke-dasharray:none"><text
                   class="TextShape"
                   id="text438"
                   style="stroke-width:30.00000191;stroke-miterlimit:4;stroke-dasharray:none"><tspan
                     class="TextParagraph"
                     font-size="282px"
                     font-weight="700"
                     id="tspan440"
                     style="font-weight:700;font-size:282px;font-family:Arial, sans-serif;stroke-width:30.00000191;stroke-miterlimit:4;stroke-dasharray:none"><tspan
                       class="TextPosition"
                       x="11448"
                       y="8526"
                       id="tspan442"
                       style="stroke-width:30.00000191;stroke-miterlimit:4;stroke-dasharray:none"><tspan
                         id="tspan444"
                         style="fill:#000000;stroke:none;stroke-width:30.00000191;stroke-miterlimit:4;stroke-dasharray:none">C1</tspan></tspan></tspan></text>
</g></g></g><g
             class="Group"
             id="g446"
             style="stroke-width:30.00000191;stroke-miterlimit:4;stroke-dasharray:none"><g
               class="com.sun.star.drawing.PolyPolygonShape"
               id="g448"
               style="stroke-width:30.00000191;stroke-miterlimit:4;stroke-dasharray:none"><g
                 id="id65"
                 style="stroke-width:30.00000191;stroke-miterlimit:4;stroke-dasharray:none"><path
                   d="m 14843,8824 0,0 0,-793 0,0 0,793 z"
                   id="path451"
                   style="fill:#ffffff;stroke:none;stroke-width:30.00000191;stroke-miterlimit:4;stroke-dasharray:none"
                   inkscape:connector-curvature="0" /></g></g><g
               class="com.sun.star.drawing.TextShape"
               id="g453"
               style="stroke-width:30.00000191;stroke-miterlimit:4;stroke-dasharray:none"><g
                 id="id66"
                 style="stroke-width:30.00000191;stroke-miterlimit:4;stroke-dasharray:none" /></g></g><g
             class="Group"
             id="g456"
             style="stroke-width:30.00000191;stroke-miterlimit:4;stroke-dasharray:none"><g
               class="com.sun.star.drawing.PolyPolygonShape"
               id="g458"
               style="stroke-width:30.00000191;stroke-miterlimit:4;stroke-dasharray:none"><g
                 id="id67"
                 style="stroke-width:30.00000191;stroke-miterlimit:4;stroke-dasharray:none"><path
                   d="m 14843,8824 0,0 -1508,0 0,0 1508,0 z"
                   id="path461"
                   style="fill:#ffffff;stroke:none;stroke-width:30.00000191;stroke-miterlimit:4;stroke-dasharray:none"
                   inkscape:connector-curvature="0" /></g></g><g
               class="com.sun.star.drawing.TextShape"
               id="g463"
               style="stroke-width:30.00000191;stroke-miterlimit:4;stroke-dasharray:none"><g
                 id="id68"
                 style="stroke-width:30.00000191;stroke-miterlimit:4;stroke-dasharray:none" /></g></g><g
             class="Group"
             id="g466"
             style="stroke-width:30.00000191;stroke-miterlimit:4;stroke-dasharray:none"><g
               class="com.sun.star.drawing.PolyPolygonShape"
               id="g468"
               style="stroke-width:30.00000191;stroke-miterlimit:4;stroke-dasharray:none"><g
                 id="id69"
                 style="stroke-width:30.00000191;stroke-miterlimit:4;stroke-dasharray:none"><path
                   d="m 14843,8824 0,0 -1508,0 0,0 1508,0 z"
                   id="path471"
                   style="fill:#ffffff;stroke:none;stroke-width:30.00000191;stroke-miterlimit:4;stroke-dasharray:none"
                   inkscape:connector-curvature="0" /></g></g><g
               class="com.sun.star.drawing.TextShape"
               id="g473"
               style="stroke-width:30.00000191;stroke-miterlimit:4;stroke-dasharray:none"><g
                 id="id70"
                 style="stroke-width:30.00000191;stroke-miterlimit:4;stroke-dasharray:none" /></g></g><g
             class="Group"
             id="g476"
             style="stroke-width:30.00000191;stroke-miterlimit:4;stroke-dasharray:none"><g
               class="com.sun.star.drawing.PolyPolygonShape"
               id="g478"
               style="stroke-width:30.00000191;stroke-miterlimit:4;stroke-dasharray:none"><g
                 id="id71"
                 style="stroke-width:30.00000191;stroke-miterlimit:4;stroke-dasharray:none"><path
                   d="m 14843,8824 0,0 -1508,0 0,0 1508,0 z"
                   id="path481"
                   style="fill:#ffffff;stroke:none;stroke-width:30.00000191;stroke-miterlimit:4;stroke-dasharray:none"
                   inkscape:connector-curvature="0" /></g></g><g
               class="com.sun.star.drawing.TextShape"
               id="g483"
               style="stroke-width:30.00000191;stroke-miterlimit:4;stroke-dasharray:none"><g
                 id="id72"
                 style="stroke-width:30.00000191;stroke-miterlimit:4;stroke-dasharray:none" /></g></g><g
             class="Group"
             id="g486"
             style="stroke-width:30.00000191;stroke-miterlimit:4;stroke-dasharray:none"><g
               class="Group"
               id="g488"
               style="stroke-width:30.00000191;stroke-miterlimit:4;stroke-dasharray:none"><g
                 class="com.sun.star.drawing.PolyPolygonShape"
                 id="g490"
                 style="stroke-width:30.00000191;stroke-miterlimit:4;stroke-dasharray:none"><g
                   id="id73"
                   style="stroke-width:30.00000191;stroke-miterlimit:4;stroke-dasharray:none"><path
                     d="m 14843,8824 0,-793 -1508,0 0,793 1508,0 z m -1508,-793 0,0 z m 0,793 0,0 0,-793 0,793 z m 0,-793 0,0 z m 1508,0 0,0 0,793 0,0 0,-793 z"
                     id="path493"
                     style="fill:#ffffff;stroke:none;stroke-width:30.00000191;stroke-miterlimit:4;stroke-dasharray:none"
                     inkscape:connector-curvature="0" /></g></g><g
                 class="com.sun.star.drawing.PolyLineShape"
                 id="g495"
                 style="stroke-width:30.00000191;stroke-miterlimit:4;stroke-dasharray:none"><g
                   id="id74"
                   style="stroke-width:30.00000191;stroke-miterlimit:4;stroke-dasharray:none"><path
                     d="m 13335,8031 0,0 z"
                     id="path498"
                     style="fill:none;stroke:#000000;stroke-width:30.00000191;stroke-miterlimit:4;stroke-dasharray:none"
                     inkscape:connector-curvature="0" /><path
                     d="m 14843,8824 0,-793"
                     id="path500"
                     style="fill:none;stroke:#000000;stroke-width:30.00000191;stroke-miterlimit:4;stroke-dasharray:none"
                     inkscape:connector-curvature="0" /><path
                     d="m 13335,8824 0,-793"
                     id="path502"
                     style="fill:none;stroke:#000000;stroke-width:30.00000191;stroke-miterlimit:4;stroke-dasharray:none"
                     inkscape:connector-curvature="0" /><path
                     d="m 13335,8031 1508,0"
                     id="path504"
                     style="fill:none;stroke:#000000;stroke-width:30.00000191;stroke-miterlimit:4;stroke-dasharray:none"
                     inkscape:connector-curvature="0" /><path
                     d="m 13335,8824 1508,0"
                     id="path506"
                     style="fill:none;stroke:#000000;stroke-width:30.00000191;stroke-miterlimit:4;stroke-dasharray:none"
                     inkscape:connector-curvature="0" /></g></g></g><g
               class="com.sun.star.drawing.TextShape"
               id="g508"
               style="stroke-width:30.00000191;stroke-miterlimit:4;stroke-dasharray:none"><g
                 id="id75"
                 style="stroke-width:30.00000191;stroke-miterlimit:4;stroke-dasharray:none"><text
                   class="TextShape"
                   id="text511"
                   style="stroke-width:30.00000191;stroke-miterlimit:4;stroke-dasharray:none"><tspan
                     class="TextParagraph"
                     font-size="282px"
                     font-weight="700"
                     id="tspan513"
                     style="font-weight:700;font-size:282px;font-family:Arial, sans-serif;stroke-width:30.00000191;stroke-miterlimit:4;stroke-dasharray:none"><tspan
                       class="TextPosition"
                       x="13909"
                       y="8526"
                       id="tspan515"
                       style="stroke-width:30.00000191;stroke-miterlimit:4;stroke-dasharray:none"><tspan
                         id="tspan517"
                         style="fill:#000000;stroke:none;stroke-width:30.00000191;stroke-miterlimit:4;stroke-dasharray:none">C2</tspan></tspan></tspan></text>
</g></g></g><g
             class="Group"
             id="g519"
             style="stroke-width:30.00000191;stroke-miterlimit:4;stroke-dasharray:none"><g
               class="com.sun.star.drawing.LineShape"
               id="g521"
               style="stroke-width:30.00000191;stroke-miterlimit:4;stroke-dasharray:none"><g
                 id="id76"
                 style="stroke-width:30.00000191;stroke-miterlimit:4;stroke-dasharray:none"><path
                   d="m 12383,8427 952,0"
                   id="path524"
                   style="fill:none;stroke:#000000;stroke-width:30.00000191;stroke-miterlimit:4;stroke-dasharray:none"
                   inkscape:connector-curvature="0" /></g></g><g
               class="com.sun.star.drawing.TextShape"
               id="g526"
               style="stroke-width:30.00000191;stroke-miterlimit:4;stroke-dasharray:none"><g
                 id="id77"
                 style="stroke-width:30.00000191;stroke-miterlimit:4;stroke-dasharray:none" /></g><g
               class="com.sun.star.drawing.TextShape"
               id="g529"
               style="stroke-width:30.00000191;stroke-miterlimit:4;stroke-dasharray:none"><g
                 id="id78"
                 style="stroke-width:30.00000191;stroke-miterlimit:4;stroke-dasharray:none" /></g><g
               class="com.sun.star.drawing.TextShape"
               id="g532"
               style="stroke-width:30.00000191;stroke-miterlimit:4;stroke-dasharray:none"><g
                 id="id79"
                 style="stroke-width:30.00000191;stroke-miterlimit:4;stroke-dasharray:none" /></g><g
               class="com.sun.star.drawing.TextShape"
               id="g535"
               style="stroke-width:30.00000191;stroke-miterlimit:4;stroke-dasharray:none"><g
                 id="id80"
                 style="stroke-width:30.00000191;stroke-miterlimit:4;stroke-dasharray:none" /></g><g
               class="com.sun.star.drawing.TextShape"
               id="g538"
               style="stroke-width:30.00000191;stroke-miterlimit:4;stroke-dasharray:none"><g
                 id="id81"
                 style="stroke-width:30.00000191;stroke-miterlimit:4;stroke-dasharray:none" /></g></g><g
             class="com.sun.star.drawing.TextShape"
             id="g541"
             style="stroke-width:30.00000191;stroke-miterlimit:4;stroke-dasharray:none"><g
               id="id82"
               style="stroke-width:30.00000191;stroke-miterlimit:4;stroke-dasharray:none"><text
                 class="TextShape"
                 id="text544"
                 style="stroke-width:30.00000191;stroke-miterlimit:4;stroke-dasharray:none"><tspan
                   class="TextParagraph"
                   font-size="282px"
                   font-weight="400"
                   id="tspan546"
                   style="font-weight:400;font-size:282px;font-family:Arial, sans-serif;stroke-width:30.00000191;stroke-miterlimit:4;stroke-dasharray:none"><tspan
                     class="TextPosition"
                     x="1864"
                     y="6030"
                     id="tspan548"
                     style="stroke-width:30.00000191;stroke-miterlimit:4;stroke-dasharray:none"><tspan
                       id="tspan550"
                       style="fill:#000000;stroke:none;stroke-width:30.00000191;stroke-miterlimit:4;stroke-dasharray:none">i) Package symbol (as part of a larger package diagram)</tspan></tspan></tspan></text>
</g></g><g
             class="com.sun.star.drawing.TextShape"
             id="g552"
             style="stroke-width:30.00000191;stroke-miterlimit:4;stroke-dasharray:none"><g
               id="id83"
               style="stroke-width:30.00000191;stroke-miterlimit:4;stroke-dasharray:none"><text
                 class="TextShape"
                 id="text555"
                 style="stroke-width:30.00000191;stroke-miterlimit:4;stroke-dasharray:none"><tspan
                   class="TextParagraph"
                   font-size="282px"
                   font-weight="400"
                   id="tspan557"
                   style="font-weight:400;font-size:282px;font-family:Arial, sans-serif;stroke-width:30.00000191;stroke-miterlimit:4;stroke-dasharray:none"><tspan
                     class="TextPosition"
                     x="10222"
                     y="6030"
                     id="tspan559"
                     style="stroke-width:30.00000191;stroke-miterlimit:4;stroke-dasharray:none"><tspan
                       id="tspan561"
                       style="fill:#000000;stroke:none;stroke-width:30.00000191;stroke-miterlimit:4;stroke-dasharray:none">ii) Class diagram for the same package</tspan></tspan></tspan></text>
</g></g></g></g></g></g></svg>