<?xml version="1.0" encoding="UTF-8"?><svg stroke-dasharray="none" shape-rendering="auto" xmlns="http://www.w3.org/2000/svg" font-family="'Dialog'" width="323" text-rendering="auto" fill-opacity="1" contentScriptType="text/ecmascript" color-interpolation="auto" color-rendering="auto" preserveAspectRatio="xMidYMid meet" font-size="12" viewBox="0 0 323 99" fill="black" xmlns:xlink="http://www.w3.org/1999/xlink" stroke="black" image-rendering="auto" stroke-miterlimit="10" zoomAndPan="magnify" version="1.0" stroke-linecap="square" stroke-linejoin="miter" contentStyleType="text/css" font-style="normal" height="99" stroke-width="1" stroke-dashoffset="0" font-weight="normal" stroke-opacity="1">
<!--Generated by the Batik Graphics2D SVG Generator-->
<defs id="genericDefs"/>
<g>
<defs id="defs1">
<clipPath clipPathUnits="userSpaceOnUse" id="clipPath1">
<path d="M8 10 L127 10 L127 91 L8 91 L8 10 Z"/>
</clipPath>
<clipPath clipPathUnits="userSpaceOnUse" id="clipPath2">
<path d="M35 14 L97 14 L97 30 L35 30 L35 14 Z"/>
</clipPath>
<clipPath clipPathUnits="userSpaceOnUse" id="clipPath3">
<path d="M39 27 L93 27 L93 43 L39 43 L39 27 Z"/>
</clipPath>
<clipPath clipPathUnits="userSpaceOnUse" id="clipPath4">
<path d="M15 44 L103 44 L103 60 L15 60 L15 44 Z"/>
</clipPath>
<clipPath clipPathUnits="userSpaceOnUse" id="clipPath5">
<path d="M15 57 L118 57 L118 73 L15 73 L15 57 Z"/>
</clipPath>
<clipPath clipPathUnits="userSpaceOnUse" id="clipPath6">
<path d="M15 70 L81 70 L81 86 L15 86 L15 70 Z"/>
</clipPath>
<clipPath clipPathUnits="userSpaceOnUse" id="clipPath7">
<path d="M9 43 L123 43 L123 86 L9 86 L9 43 Z"/>
</clipPath>
<clipPath clipPathUnits="userSpaceOnUse" id="clipPath8">
<path d="M201 8 L314 8 L314 63 L201 63 L201 8 Z"/>
</clipPath>
<clipPath clipPathUnits="userSpaceOnUse" id="clipPath9">
<path d="M225 12 L287 12 L287 28 L225 28 L225 12 Z"/>
</clipPath>
<clipPath clipPathUnits="userSpaceOnUse" id="clipPath10">
<path d="M234 25 L277 25 L277 41 L234 41 L234 25 Z"/>
</clipPath>
<clipPath clipPathUnits="userSpaceOnUse" id="clipPath11">
<path d="M207 42 L304 42 L304 58 L207 58 L207 42 Z"/>
</clipPath>
<clipPath clipPathUnits="userSpaceOnUse" id="clipPath12">
<path d="M202 41 L310 41 L310 58 L202 58 L202 41 Z"/>
</clipPath>
</defs>
<g font-size="11" fill="white" font-family="'Tahoma'" stroke-linejoin="round" stroke="white" stroke-width="0" stroke-miterlimit="0">
<rect x="10" y="12" clip-path="url(#clipPath1)" width="112" height="73" stroke="none"/>
<rect x="10" y="12" clip-path="url(#clipPath1)" width="112" height="73" stroke="none"/>
<text x="36" y="26" clip-path="url(#clipPath2)" fill="black" stroke="none" xml:space="preserve">«dataType»</text>
<text x="40" y="39" clip-path="url(#clipPath3)" fill="black" stroke="none" font-weight="bold" xml:space="preserve">FullName</text>
<text x="16" y="56" clip-path="url(#clipPath4)" fill="black" stroke="none" xml:space="preserve">firstName : String</text>
<text x="16" y="69" clip-path="url(#clipPath5)" fill="black" stroke="none" xml:space="preserve">secondName : String</text>
<text x="16" y="82" clip-path="url(#clipPath6)" fill="black" stroke="none" xml:space="preserve">initial : String</text>
</g>
<g font-size="11" stroke-width="1.1827" font-family="'Tahoma'" stroke-linecap="butt">
<line clip-path="url(#clipPath7)" fill="none" x1="10" x2="121" y1="44" y2="44"/>
<rect x="9" y="11" clip-path="url(#clipPath1)" fill="none" width="112" height="73"/>
<rect x="203" y="10" clip-path="url(#clipPath8)" fill="white" width="106" height="47" stroke="none"/>
<rect x="203" y="10" clip-path="url(#clipPath8)" fill="white" width="106" height="47" stroke="none"/>
<text xml:space="preserve" x="226" y="24" clip-path="url(#clipPath9)" stroke="none">«dataType»</text>
<text x="235" y="37" clip-path="url(#clipPath10)" stroke="none" font-weight="bold" xml:space="preserve">Person</text>
<text xml:space="preserve" x="208" y="54" clip-path="url(#clipPath11)" stroke="none">fullName : FullName</text>
<line clip-path="url(#clipPath12)" fill="none" x1="203" x2="308" y1="42" y2="42"/>
<rect x="202" y="9" clip-path="url(#clipPath8)" fill="none" width="106" height="47"/>
</g>
</g>
</svg>