<?xml version="1.0" encoding="UTF-8"?>
<!DOCTYPE svg PUBLIC "-//W3C//DTD SVG 1.1//EN" "http://www.w3.org/Graphics/SVG/1.1/DTD/svg11.dtd">
<svg version="1.2" width="210mm" height="297mm" viewBox="0 0 21000 29700" preserveAspectRatio="xMidYMid" fill-rule="evenodd" clip-path="url(#presentation_clip_path)" stroke-width="28.222" stroke-linejoin="round" xmlns="http://www.w3.org/2000/svg" xmlns:ooo="http://xml.openoffice.org/svg/export" xmlns:xlink="http://www.w3.org/1999/xlink" xml:space="preserve">
 <defs class="ClipPathGroup">
  <clipPath id="presentation_clip_path" clipPathUnits="userSpaceOnUse">
   <rect x="0" y="0" width="21000" height="29700"/>
  </clipPath>
 </defs>
 <defs class="TextShapeIndex">
  <g ooo:slide="id1" ooo:id-list="id3 id4 id5 id6 id7 id8 id9 id10 id11 id12 id13 id14 id15 id16 id17 id18 id19 id20 id21 id22 id23 id24 id25 id26 id27 id28 id29 id30 id31 id32 id33 id34 id35 id36 id37 id38 id39 id40 id41 id42 id43 id44 id45 id46 id47 id48 id49 id50 id51 id52 id53 id54 id55 id56 id57 id58 id59 id60 id61 id62 id63 id64 id65 id66 id67 id68 id69 id70 id71 id72 id73 id74 id75 id76 id77 id78 id79 id80 id81 id82 id83 id84 id85 id86 id87 id88 id89 id90 id91 id92 id93 id94 id95 id96 id97 id98 id99 id100 id101 id102 id103 id104 id105 id106 id107 id108 id109 id110 id111 id112 id113 id114 id115 id116 id117 id118 id119 id120 id121 id122 id123 id124"/>
 </defs>
 <defs class="EmbeddedBulletChars">
  <g id="bullet-char-template(57356)" transform="scale(0.00048828125,-0.00048828125)">
   <path d="M 580,1141 L 1163,571 580,0 -4,571 580,1141 Z"/>
  </g>
  <g id="bullet-char-template(57354)" transform="scale(0.00048828125,-0.00048828125)">
   <path d="M 8,1128 L 1137,1128 1137,0 8,0 8,1128 Z"/>
  </g>
  <g id="bullet-char-template(10146)" transform="scale(0.00048828125,-0.00048828125)">
   <path d="M 174,0 L 602,739 174,1481 1456,739 174,0 Z M 1358,739 L 309,1346 659,739 1358,739 Z"/>
  </g>
  <g id="bullet-char-template(10132)" transform="scale(0.00048828125,-0.00048828125)">
   <path d="M 2015,739 L 1276,0 717,0 1260,543 174,543 174,936 1260,936 717,1481 1274,1481 2015,739 Z"/>
  </g>
  <g id="bullet-char-template(10007)" transform="scale(0.00048828125,-0.00048828125)">
   <path d="M 0,-2 C -7,14 -16,27 -25,37 L 356,567 C 262,823 215,952 215,954 215,979 228,992 255,992 264,992 276,990 289,987 310,991 331,999 354,1012 L 381,999 492,748 772,1049 836,1024 860,1049 C 881,1039 901,1025 922,1006 886,937 835,863 770,784 769,783 710,716 594,584 L 774,223 C 774,196 753,168 711,139 L 727,119 C 717,90 699,76 672,76 641,76 570,178 457,381 L 164,-76 C 142,-110 111,-127 72,-127 30,-127 9,-110 8,-76 1,-67 -2,-52 -2,-32 -2,-23 -1,-13 0,-2 Z"/>
  </g>
  <g id="bullet-char-template(10004)" transform="scale(0.00048828125,-0.00048828125)">
   <path d="M 285,-33 C 182,-33 111,30 74,156 52,228 41,333 41,471 41,549 55,616 82,672 116,743 169,778 240,778 293,778 328,747 346,684 L 369,508 C 377,444 397,411 428,410 L 1163,1116 C 1174,1127 1196,1133 1229,1133 1271,1133 1292,1118 1292,1087 L 1292,965 C 1292,929 1282,901 1262,881 L 442,47 C 390,-6 338,-33 285,-33 Z"/>
  </g>
  <g id="bullet-char-template(9679)" transform="scale(0.00048828125,-0.00048828125)">
   <path d="M 813,0 C 632,0 489,54 383,161 276,268 223,411 223,592 223,773 276,916 383,1023 489,1130 632,1184 813,1184 992,1184 1136,1130 1245,1023 1353,916 1407,772 1407,592 1407,412 1353,268 1245,161 1136,54 992,0 813,0 Z"/>
  </g>
  <g id="bullet-char-template(8226)" transform="scale(0.00048828125,-0.00048828125)">
   <path d="M 346,457 C 273,457 209,483 155,535 101,586 74,649 74,723 74,796 101,859 155,911 209,963 273,989 346,989 419,989 480,963 531,910 582,859 608,796 608,723 608,648 583,586 532,535 482,483 420,457 346,457 Z"/>
  </g>
  <g id="bullet-char-template(8211)" transform="scale(0.00048828125,-0.00048828125)">
   <path d="M -4,459 L 1135,459 1135,606 -4,606 -4,459 Z"/>
  </g>
 </defs>
 <defs class="TextEmbeddedBitmaps"/>
 <g>
  <g id="id2" class="Master_Slide">
   <g id="bg-id2" class="Background"/>
   <g id="bo-id2" class="BackgroundObjects"/>
  </g>
 </g>
 <g class="SlideGroup">
  <g>
   <g id="id1" class="Slide" clip-path="url(#presentation_clip_path)">
    <g class="Page">
     <g class="Group">
      <g class="com.sun.star.drawing.PolyPolygonShape">
       <g id="id3">
        <path fill="rgb(255,255,255)" stroke="none" d="M 15557,7475 L 15557,7475 15557,3824 15557,3824 15557,7475 Z"/>
       </g>
      </g>
      <g class="com.sun.star.drawing.TextShape">
       <g id="id4"/>
      </g>
     </g>
     <g class="Group">
      <g class="com.sun.star.drawing.PolyPolygonShape">
       <g id="id5">
        <path fill="rgb(255,255,255)" stroke="none" d="M 15558,7475 L 15558,7475 4128,7475 4128,7475 15558,7475 Z"/>
       </g>
      </g>
      <g class="com.sun.star.drawing.TextShape">
       <g id="id6"/>
      </g>
     </g>
     <g class="Group">
      <g class="com.sun.star.drawing.PolyPolygonShape">
       <g id="id7">
        <path fill="rgb(255,255,255)" stroke="none" d="M 15558,7475 L 15558,7475 4128,7475 4128,7475 15558,7475 Z"/>
       </g>
      </g>
      <g class="com.sun.star.drawing.TextShape">
       <g id="id8"/>
      </g>
     </g>
     <g class="Group">
      <g class="com.sun.star.drawing.PolyPolygonShape">
       <g id="id9">
        <path fill="rgb(255,255,255)" stroke="none" d="M 15558,7475 L 15558,4935 4128,4935 4128,7475 15558,7475 Z"/>
       </g>
      </g>
      <g class="com.sun.star.drawing.TextShape">
       <g id="id10"/>
      </g>
     </g>
     <g class="Group">
      <g class="Group">
       <g class="com.sun.star.drawing.PolyPolygonShape">
        <g id="id11">
         <path fill="rgb(255,255,255)" stroke="none" d="M 15558,4935 L 15558,3824 4128,3824 4128,4935 15558,4935 Z M 4128,3824 L 4128,3824 Z M 4128,7475 L 4128,7475 4128,3824 4128,7475 Z M 4128,3824 L 4128,3824 Z M 15558,3824 L 15558,3824 15558,7475 15558,7475 15558,3824 Z"/>
        </g>
       </g>
       <g class="com.sun.star.drawing.PolyLineShape">
        <g id="id12">
         <path fill="none" stroke="rgb(0,0,0)" stroke-width="8" d="M 4128,3824 L 4128,3824 Z"/>
         <path fill="none" stroke="rgb(0,0,0)" stroke-width="8" d="M 15558,7475 L 15558,3824"/>
         <path fill="none" stroke="rgb(0,0,0)" stroke-width="8" d="M 4128,7475 L 4128,3824"/>
         <path fill="none" stroke="rgb(0,0,0)" stroke-width="8" d="M 4128,3824 L 15558,3824"/>
         <path fill="none" stroke="rgb(0,0,0)" stroke-width="8" d="M 4128,4935 L 15558,4935"/>
         <path fill="none" stroke="rgb(0,0,0)" stroke-width="8" d="M 4128,7475 L 15558,7475"/>
        </g>
       </g>
      </g>
      <g class="com.sun.star.drawing.TextShape">
       <g id="id13">
        <text class="TextShape"><tspan class="TextParagraph" font-family="Tahoma, sans-serif" font-size="423px" font-weight="700"><tspan class="TextPosition" x="9701" y="4547"><tspan fill="rgb(0,0,0)" stroke="none">C</tspan></tspan></tspan></text>
       </g>
      </g>
     </g>
     <g class="Group">
      <g class="com.sun.star.drawing.PolyPolygonShape">
       <g id="id14">
        <path fill="rgb(255,255,255)" stroke="none" d="M 7302,6875 L 7302,6875 7302,5605 7302,5605 7302,6875 Z"/>
       </g>
      </g>
      <g class="com.sun.star.drawing.TextShape">
       <g id="id15"/>
      </g>
     </g>
     <g class="Group">
      <g class="com.sun.star.drawing.PolyPolygonShape">
       <g id="id16">
        <path fill="rgb(255,255,255)" stroke="none" d="M 7303,6875 L 7303,6875 4763,6875 4763,6875 7303,6875 Z"/>
       </g>
      </g>
      <g class="com.sun.star.drawing.TextShape">
       <g id="id17"/>
      </g>
     </g>
     <g class="Group">
      <g class="com.sun.star.drawing.PolyPolygonShape">
       <g id="id18">
        <path fill="rgb(255,255,255)" stroke="none" d="M 7303,6875 L 7303,6875 4763,6875 4763,6875 7303,6875 Z"/>
       </g>
      </g>
      <g class="com.sun.star.drawing.TextShape">
       <g id="id19"/>
      </g>
     </g>
     <g class="Group">
      <g class="com.sun.star.drawing.PolyPolygonShape">
       <g id="id20">
        <path fill="rgb(255,255,255)" stroke="none" d="M 7303,6875 L 7303,6875 4763,6875 4763,6875 7303,6875 Z"/>
       </g>
      </g>
      <g class="com.sun.star.drawing.TextShape">
       <g id="id21"/>
      </g>
     </g>
     <g class="Group">
      <g class="Group">
       <g class="com.sun.star.drawing.PolyPolygonShape">
        <g id="id22">
         <path fill="rgb(255,255,255)" stroke="none" d="M 7303,6875 L 7303,5605 4763,5605 4763,6875 7303,6875 Z M 4763,5605 L 4763,5605 Z M 4763,6875 L 4763,6875 4763,5605 4763,6875 Z M 4763,5605 L 4763,5605 Z M 7303,5605 L 7303,5605 7303,6875 7303,6875 7303,5605 Z"/>
        </g>
       </g>
       <g class="com.sun.star.drawing.PolyLineShape">
        <g id="id23">
         <path fill="none" stroke="rgb(0,0,0)" stroke-width="8" d="M 4763,5605 L 4763,5605 Z"/>
         <path fill="none" stroke="rgb(0,0,0)" stroke-width="8" d="M 7303,6875 L 7303,5605"/>
         <path fill="none" stroke="rgb(0,0,0)" stroke-width="8" d="M 4763,6875 L 4763,5605"/>
         <path fill="none" stroke="rgb(0,0,0)" stroke-width="8" d="M 4763,5605 L 7303,5605"/>
         <path fill="none" stroke="rgb(0,0,0)" stroke-width="8" d="M 4763,6875 L 7303,6875"/>
        </g>
       </g>
      </g>
      <g class="com.sun.star.drawing.TextShape">
       <g id="id24">
        <text class="TextShape"><tspan class="TextParagraph" font-family="Tahoma, sans-serif" font-size="388px" font-weight="400"><tspan class="TextPosition" x="5686" y="6394"><tspan fill="rgb(0,0,0)" stroke="none">a: A</tspan></tspan></tspan></text>
       </g>
      </g>
     </g>
     <g class="Group">
      <g class="com.sun.star.drawing.PolyPolygonShape">
       <g id="id25">
        <path fill="rgb(255,255,255)" stroke="none" d="M 14923,6875 L 14923,6875 14923,5605 14923,5605 14923,6875 Z"/>
       </g>
      </g>
      <g class="com.sun.star.drawing.TextShape">
       <g id="id26"/>
      </g>
     </g>
     <g class="Group">
      <g class="com.sun.star.drawing.PolyPolygonShape">
       <g id="id27">
        <path fill="rgb(255,255,255)" stroke="none" d="M 14923,6875 L 14923,6875 12383,6875 12383,6875 14923,6875 Z"/>
       </g>
      </g>
      <g class="com.sun.star.drawing.TextShape">
       <g id="id28"/>
      </g>
     </g>
     <g class="Group">
      <g class="com.sun.star.drawing.PolyPolygonShape">
       <g id="id29">
        <path fill="rgb(255,255,255)" stroke="none" d="M 14923,6875 L 14923,6875 12383,6875 12383,6875 14923,6875 Z"/>
       </g>
      </g>
      <g class="com.sun.star.drawing.TextShape">
       <g id="id30"/>
      </g>
     </g>
     <g class="Group">
      <g class="com.sun.star.drawing.PolyPolygonShape">
       <g id="id31">
        <path fill="rgb(255,255,255)" stroke="none" d="M 14923,6875 L 14923,6875 12383,6875 12383,6875 14923,6875 Z"/>
       </g>
      </g>
      <g class="com.sun.star.drawing.TextShape">
       <g id="id32"/>
      </g>
     </g>
     <g class="Group">
      <g class="Group">
       <g class="com.sun.star.drawing.PolyPolygonShape">
        <g id="id33">
         <path fill="rgb(255,255,255)" stroke="none" d="M 14923,6875 L 14923,5605 12383,5605 12383,6875 14923,6875 Z M 12383,5605 L 12383,5605 Z M 12383,6875 L 12383,6875 12383,5605 12383,6875 Z M 12383,5605 L 12383,5605 Z M 14923,5605 L 14923,5605 14923,6875 14923,6875 14923,5605 Z"/>
        </g>
       </g>
       <g class="com.sun.star.drawing.PolyLineShape">
        <g id="id34">
         <path fill="none" stroke="rgb(0,0,0)" stroke-width="8" d="M 12383,5605 L 12383,5605 Z"/>
         <path fill="none" stroke="rgb(0,0,0)" stroke-width="8" d="M 14923,6875 L 14923,5605"/>
         <path fill="none" stroke="rgb(0,0,0)" stroke-width="8" d="M 12383,6875 L 12383,5605"/>
         <path fill="none" stroke="rgb(0,0,0)" stroke-width="8" d="M 12383,5605 L 14923,5605"/>
         <path fill="none" stroke="rgb(0,0,0)" stroke-width="8" d="M 12383,6875 L 14923,6875"/>
        </g>
       </g>
      </g>
      <g class="com.sun.star.drawing.TextShape">
       <g id="id35">
        <text class="TextShape"><tspan class="TextParagraph" font-family="Tahoma, sans-serif" font-size="388px" font-weight="400"><tspan class="TextPosition" x="13302" y="6394"><tspan fill="rgb(0,0,0)" stroke="none">b: B</tspan></tspan></tspan></text>
       </g>
      </g>
     </g>
     <g class="Group">
      <g class="com.sun.star.drawing.LineShape">
       <g id="id36">
        <path fill="none" stroke="rgb(0,0,0)" stroke-width="8" d="M 7302,6240 L 12382,6240"/>
       </g>
      </g>
      <g class="com.sun.star.drawing.TextShape">
       <g id="id37"/>
      </g>
      <g class="com.sun.star.drawing.TextShape">
       <g id="id38"/>
      </g>
      <g class="com.sun.star.drawing.TextShape">
       <g id="id39">
        <text class="TextShape"><tspan class="TextParagraph" font-family="Tahoma, sans-serif" font-size="388px" font-weight="400"><tspan class="TextPosition" x="7832" y="6713"><tspan fill="rgb(0,0,0)" stroke="none">2</tspan></tspan></tspan></text>
       </g>
      </g>
      <g class="com.sun.star.drawing.TextShape">
       <g id="id40">
        <text class="TextShape"><tspan class="TextParagraph" font-family="Tahoma, sans-serif" font-size="388px" font-weight="400"><tspan class="TextPosition" x="11642" y="6713"><tspan fill="rgb(0,0,0)" stroke="none">2</tspan></tspan></tspan></text>
       </g>
      </g>
      <g class="com.sun.star.drawing.TextShape">
       <g id="id41"/>
      </g>
     </g>
     <g class="com.sun.star.drawing.TextShape">
      <g id="id42">
       <text class="TextShape"><tspan class="TextParagraph" font-family="Tahoma, sans-serif" font-size="423px" font-weight="400"><tspan class="TextPosition" x="6868" y="6091"><tspan fill="rgb(0,0,0)" stroke="none">2</tspan></tspan></tspan></text>
      </g>
     </g>
     <g class="com.sun.star.drawing.TextShape">
      <g id="id43">
       <text class="TextShape"><tspan class="TextParagraph" font-family="Tahoma, sans-serif" font-size="423px" font-weight="400"><tspan class="TextPosition" x="14586" y="6126"><tspan fill="rgb(0,0,0)" stroke="none">2</tspan></tspan></tspan></text>
      </g>
     </g>
     <g class="Group">
      <g class="com.sun.star.drawing.PolyPolygonShape">
       <g id="id44">
        <path fill="rgb(255,255,255)" stroke="none" d="M 15557,14777 L 15557,14777 15557,8824 15557,8824 15557,14777 Z"/>
       </g>
      </g>
      <g class="com.sun.star.drawing.TextShape">
       <g id="id45"/>
      </g>
     </g>
     <g class="Group">
      <g class="com.sun.star.drawing.PolyPolygonShape">
       <g id="id46">
        <path fill="rgb(255,255,255)" stroke="none" d="M 15558,14777 L 15558,14777 4128,14777 4128,14777 15558,14777 Z"/>
       </g>
      </g>
      <g class="com.sun.star.drawing.TextShape">
       <g id="id47"/>
      </g>
     </g>
     <g class="Group">
      <g class="com.sun.star.drawing.PolyPolygonShape">
       <g id="id48">
        <path fill="rgb(255,255,255)" stroke="none" d="M 15558,14777 L 15558,14777 4128,14777 4128,14777 15558,14777 Z"/>
       </g>
      </g>
      <g class="com.sun.star.drawing.TextShape">
       <g id="id49"/>
      </g>
     </g>
     <g class="Group">
      <g class="com.sun.star.drawing.PolyPolygonShape">
       <g id="id50">
        <path fill="rgb(255,255,255)" stroke="none" d="M 15558,14777 L 15558,9936 4128,9936 4128,14777 15558,14777 Z"/>
       </g>
      </g>
      <g class="com.sun.star.drawing.TextShape">
       <g id="id51"/>
      </g>
     </g>
     <g class="Group">
      <g class="Group">
       <g class="com.sun.star.drawing.PolyPolygonShape">
        <g id="id52">
         <path fill="rgb(255,255,255)" stroke="none" d="M 15558,9935 L 15558,8824 4128,8824 4128,9935 15558,9935 Z M 4128,8824 L 4128,8824 Z M 4128,14777 L 4128,14777 4128,8824 4128,14777 Z M 4128,8824 L 4128,8824 Z M 15558,8824 L 15558,8824 15558,14777 15558,14777 15558,8824 Z"/>
        </g>
       </g>
       <g class="com.sun.star.drawing.PolyLineShape">
        <g id="id53">
         <path fill="none" stroke="rgb(0,0,0)" stroke-width="8" d="M 4128,8824 L 4128,8824 Z"/>
         <path fill="none" stroke="rgb(0,0,0)" stroke-width="8" d="M 15558,14777 L 15558,8824"/>
         <path fill="none" stroke="rgb(0,0,0)" stroke-width="8" d="M 4128,14777 L 4128,8824"/>
         <path fill="none" stroke="rgb(0,0,0)" stroke-width="8" d="M 4128,8824 L 15558,8824"/>
         <path fill="none" stroke="rgb(0,0,0)" stroke-width="8" d="M 4128,9935 L 15558,9935"/>
         <path fill="none" stroke="rgb(0,0,0)" stroke-width="8" d="M 4128,14777 L 15558,14777"/>
        </g>
       </g>
      </g>
      <g class="com.sun.star.drawing.TextShape">
       <g id="id54">
        <text class="TextShape"><tspan class="TextParagraph" font-family="Tahoma, sans-serif" font-size="423px" font-weight="700"><tspan class="TextPosition" x="9625" y="9547"><tspan fill="rgb(0,0,0)" stroke="none">:C</tspan></tspan></tspan></text>
       </g>
      </g>
     </g>
     <g class="Group">
      <g class="com.sun.star.drawing.PolyPolygonShape">
       <g id="id55">
        <path fill="rgb(255,255,255)" stroke="none" d="M 7302,11876 L 7302,11876 7302,10606 7302,10606 7302,11876 Z"/>
       </g>
      </g>
      <g class="com.sun.star.drawing.TextShape">
       <g id="id56"/>
      </g>
     </g>
     <g class="Group">
      <g class="com.sun.star.drawing.PolyPolygonShape">
       <g id="id57">
        <path fill="rgb(255,255,255)" stroke="none" d="M 7303,11876 L 7303,11876 4763,11876 4763,11876 7303,11876 Z"/>
       </g>
      </g>
      <g class="com.sun.star.drawing.TextShape">
       <g id="id58"/>
      </g>
     </g>
     <g class="Group">
      <g class="com.sun.star.drawing.PolyPolygonShape">
       <g id="id59">
        <path fill="rgb(255,255,255)" stroke="none" d="M 7303,11876 L 7303,11876 4763,11876 4763,11876 7303,11876 Z"/>
       </g>
      </g>
      <g class="com.sun.star.drawing.TextShape">
       <g id="id60"/>
      </g>
     </g>
     <g class="Group">
      <g class="com.sun.star.drawing.PolyPolygonShape">
       <g id="id61">
        <path fill="rgb(255,255,255)" stroke="none" d="M 7303,11876 L 7303,11876 4763,11876 4763,11876 7303,11876 Z"/>
       </g>
      </g>
      <g class="com.sun.star.drawing.TextShape">
       <g id="id62"/>
      </g>
     </g>
     <g class="Group">
      <g class="Group">
       <g class="com.sun.star.drawing.PolyPolygonShape">
        <g id="id63">
         <path fill="rgb(255,255,255)" stroke="none" d="M 7303,11876 L 7303,10606 4763,10606 4763,11876 7303,11876 Z M 4763,10606 L 4763,10606 Z M 4763,11876 L 4763,11876 4763,10606 4763,11876 Z M 4763,10606 L 4763,10606 Z M 7303,10606 L 7303,10606 7303,11876 7303,11876 7303,10606 Z"/>
        </g>
       </g>
       <g class="com.sun.star.drawing.PolyLineShape">
        <g id="id64">
         <path fill="none" stroke="rgb(0,0,0)" stroke-width="8" d="M 4763,10606 L 4763,10606 Z"/>
         <path fill="none" stroke="rgb(0,0,0)" stroke-width="8" d="M 7303,11876 L 7303,10606"/>
         <path fill="none" stroke="rgb(0,0,0)" stroke-width="8" d="M 4763,11876 L 4763,10606"/>
         <path fill="none" stroke="rgb(0,0,0)" stroke-width="8" d="M 4763,10606 L 7303,10606"/>
         <path fill="none" stroke="rgb(0,0,0)" stroke-width="8" d="M 4763,11876 L 7303,11876"/>
        </g>
       </g>
      </g>
      <g class="com.sun.star.drawing.TextShape">
       <g id="id65">
        <text class="TextShape"><tspan class="TextParagraph" font-family="Tahoma, sans-serif" font-size="388px" font-weight="400"><tspan class="TextPosition" x="5612" y="11395"><tspan fill="rgb(0,0,0)" stroke="none">/a: A</tspan></tspan></tspan></text>
       </g>
      </g>
     </g>
     <g class="Group">
      <g class="com.sun.star.drawing.PolyPolygonShape">
       <g id="id66">
        <path fill="rgb(255,255,255)" stroke="none" d="M 14923,11876 L 14923,11876 14923,10606 14923,10606 14923,11876 Z"/>
       </g>
      </g>
      <g class="com.sun.star.drawing.TextShape">
       <g id="id67"/>
      </g>
     </g>
     <g class="Group">
      <g class="com.sun.star.drawing.PolyPolygonShape">
       <g id="id68">
        <path fill="rgb(255,255,255)" stroke="none" d="M 14923,11876 L 14923,11876 12383,11876 12383,11876 14923,11876 Z"/>
       </g>
      </g>
      <g class="com.sun.star.drawing.TextShape">
       <g id="id69"/>
      </g>
     </g>
     <g class="Group">
      <g class="com.sun.star.drawing.PolyPolygonShape">
       <g id="id70">
        <path fill="rgb(255,255,255)" stroke="none" d="M 14923,11876 L 14923,11876 12383,11876 12383,11876 14923,11876 Z"/>
       </g>
      </g>
      <g class="com.sun.star.drawing.TextShape">
       <g id="id71"/>
      </g>
     </g>
     <g class="Group">
      <g class="com.sun.star.drawing.PolyPolygonShape">
       <g id="id72">
        <path fill="rgb(255,255,255)" stroke="none" d="M 14923,11876 L 14923,11876 12383,11876 12383,11876 14923,11876 Z"/>
       </g>
      </g>
      <g class="com.sun.star.drawing.TextShape">
       <g id="id73"/>
      </g>
     </g>
     <g class="Group">
      <g class="Group">
       <g class="com.sun.star.drawing.PolyPolygonShape">
        <g id="id74">
         <path fill="rgb(255,255,255)" stroke="none" d="M 14923,11876 L 14923,10606 12383,10606 12383,11876 14923,11876 Z M 12383,10606 L 12383,10606 Z M 12383,11876 L 12383,11876 12383,10606 12383,11876 Z M 12383,10606 L 12383,10606 Z M 14923,10606 L 14923,10606 14923,11876 14923,11876 14923,10606 Z"/>
        </g>
       </g>
       <g class="com.sun.star.drawing.PolyLineShape">
        <g id="id75">
         <path fill="none" stroke="rgb(0,0,0)" stroke-width="8" d="M 12383,10606 L 12383,10606 Z"/>
         <path fill="none" stroke="rgb(0,0,0)" stroke-width="8" d="M 14923,11876 L 14923,10606"/>
         <path fill="none" stroke="rgb(0,0,0)" stroke-width="8" d="M 12383,11876 L 12383,10606"/>
         <path fill="none" stroke="rgb(0,0,0)" stroke-width="8" d="M 12383,10606 L 14923,10606"/>
         <path fill="none" stroke="rgb(0,0,0)" stroke-width="8" d="M 12383,11876 L 14923,11876"/>
        </g>
       </g>
      </g>
      <g class="com.sun.star.drawing.TextShape">
       <g id="id76">
        <text class="TextShape"><tspan class="TextParagraph" font-family="Tahoma, sans-serif" font-size="388px" font-weight="400"><tspan class="TextPosition" x="13228" y="11395"><tspan fill="rgb(0,0,0)" stroke="none">/b: B</tspan></tspan></tspan></text>
       </g>
      </g>
     </g>
     <g class="Group">
      <g class="com.sun.star.drawing.LineShape">
       <g id="id77">
        <path fill="none" stroke="rgb(0,0,0)" stroke-width="8" d="M 7302,11241 L 12382,11241"/>
       </g>
      </g>
      <g class="com.sun.star.drawing.TextShape">
       <g id="id78"/>
      </g>
      <g class="com.sun.star.drawing.TextShape">
       <g id="id79"/>
      </g>
      <g class="com.sun.star.drawing.TextShape">
       <g id="id80"/>
      </g>
      <g class="com.sun.star.drawing.TextShape">
       <g id="id81"/>
      </g>
      <g class="com.sun.star.drawing.TextShape">
       <g id="id82"/>
      </g>
     </g>
     <g class="Group">
      <g class="com.sun.star.drawing.PolyPolygonShape">
       <g id="id83">
        <path fill="rgb(255,255,255)" stroke="none" d="M 7302,14142 L 7302,14142 7302,12872 7302,12872 7302,14142 Z"/>
       </g>
      </g>
      <g class="com.sun.star.drawing.TextShape">
       <g id="id84"/>
      </g>
     </g>
     <g class="Group">
      <g class="com.sun.star.drawing.PolyPolygonShape">
       <g id="id85">
        <path fill="rgb(255,255,255)" stroke="none" d="M 7303,14142 L 7303,14142 4763,14142 4763,14142 7303,14142 Z"/>
       </g>
      </g>
      <g class="com.sun.star.drawing.TextShape">
       <g id="id86"/>
      </g>
     </g>
     <g class="Group">
      <g class="com.sun.star.drawing.PolyPolygonShape">
       <g id="id87">
        <path fill="rgb(255,255,255)" stroke="none" d="M 7303,14142 L 7303,14142 4763,14142 4763,14142 7303,14142 Z"/>
       </g>
      </g>
      <g class="com.sun.star.drawing.TextShape">
       <g id="id88"/>
      </g>
     </g>
     <g class="Group">
      <g class="com.sun.star.drawing.PolyPolygonShape">
       <g id="id89">
        <path fill="rgb(255,255,255)" stroke="none" d="M 7303,14142 L 7303,14142 4763,14142 4763,14142 7303,14142 Z"/>
       </g>
      </g>
      <g class="com.sun.star.drawing.TextShape">
       <g id="id90"/>
      </g>
     </g>
     <g class="Group">
      <g class="Group">
       <g class="com.sun.star.drawing.PolyPolygonShape">
        <g id="id91">
         <path fill="rgb(255,255,255)" stroke="none" d="M 7303,14142 L 7303,12872 4763,12872 4763,14142 7303,14142 Z M 4763,12872 L 4763,12872 Z M 4763,14142 L 4763,14142 4763,12872 4763,14142 Z M 4763,12872 L 4763,12872 Z M 7303,12872 L 7303,12872 7303,14142 7303,14142 7303,12872 Z"/>
        </g>
       </g>
       <g class="com.sun.star.drawing.PolyLineShape">
        <g id="id92">
         <path fill="none" stroke="rgb(0,0,0)" stroke-width="8" d="M 4763,12872 L 4763,12872 Z"/>
         <path fill="none" stroke="rgb(0,0,0)" stroke-width="8" d="M 7303,14142 L 7303,12872"/>
         <path fill="none" stroke="rgb(0,0,0)" stroke-width="8" d="M 4763,14142 L 4763,12872"/>
         <path fill="none" stroke="rgb(0,0,0)" stroke-width="8" d="M 4763,12872 L 7303,12872"/>
         <path fill="none" stroke="rgb(0,0,0)" stroke-width="8" d="M 4763,14142 L 7303,14142"/>
        </g>
       </g>
      </g>
      <g class="com.sun.star.drawing.TextShape">
       <g id="id93">
        <text class="TextShape"><tspan class="TextParagraph" font-family="Tahoma, sans-serif" font-size="388px" font-weight="400"><tspan class="TextPosition" x="5612" y="13661"><tspan fill="rgb(0,0,0)" stroke="none">/a: A</tspan></tspan></tspan></text>
       </g>
      </g>
     </g>
     <g class="Group">
      <g class="com.sun.star.drawing.PolyPolygonShape">
       <g id="id94">
        <path fill="rgb(255,255,255)" stroke="none" d="M 14923,14142 L 14923,14142 14923,12872 14923,12872 14923,14142 Z"/>
       </g>
      </g>
      <g class="com.sun.star.drawing.TextShape">
       <g id="id95"/>
      </g>
     </g>
     <g class="Group">
      <g class="com.sun.star.drawing.PolyPolygonShape">
       <g id="id96">
        <path fill="rgb(255,255,255)" stroke="none" d="M 14923,14142 L 14923,14142 12383,14142 12383,14142 14923,14142 Z"/>
       </g>
      </g>
      <g class="com.sun.star.drawing.TextShape">
       <g id="id97"/>
      </g>
     </g>
     <g class="Group">
      <g class="com.sun.star.drawing.PolyPolygonShape">
       <g id="id98">
        <path fill="rgb(255,255,255)" stroke="none" d="M 14923,14142 L 14923,14142 12383,14142 12383,14142 14923,14142 Z"/>
       </g>
      </g>
      <g class="com.sun.star.drawing.TextShape">
       <g id="id99"/>
      </g>
     </g>
     <g class="Group">
      <g class="com.sun.star.drawing.PolyPolygonShape">
       <g id="id100">
        <path fill="rgb(255,255,255)" stroke="none" d="M 14923,14142 L 14923,14142 12383,14142 12383,14142 14923,14142 Z"/>
       </g>
      </g>
      <g class="com.sun.star.drawing.TextShape">
       <g id="id101"/>
      </g>
     </g>
     <g class="Group">
      <g class="Group">
       <g class="com.sun.star.drawing.PolyPolygonShape">
        <g id="id102">
         <path fill="rgb(255,255,255)" stroke="none" d="M 14923,14142 L 14923,12872 12383,12872 12383,14142 14923,14142 Z M 12383,12872 L 12383,12872 Z M 12383,14142 L 12383,14142 12383,12872 12383,14142 Z M 12383,12872 L 12383,12872 Z M 14923,12872 L 14923,12872 14923,14142 14923,14142 14923,12872 Z"/>
        </g>
       </g>
       <g class="com.sun.star.drawing.PolyLineShape">
        <g id="id103">
         <path fill="none" stroke="rgb(0,0,0)" stroke-width="8" d="M 12383,12872 L 12383,12872 Z"/>
         <path fill="none" stroke="rgb(0,0,0)" stroke-width="8" d="M 14923,14142 L 14923,12872"/>
         <path fill="none" stroke="rgb(0,0,0)" stroke-width="8" d="M 12383,14142 L 12383,12872"/>
         <path fill="none" stroke="rgb(0,0,0)" stroke-width="8" d="M 12383,12872 L 14923,12872"/>
         <path fill="none" stroke="rgb(0,0,0)" stroke-width="8" d="M 12383,14142 L 14923,14142"/>
        </g>
       </g>
      </g>
      <g class="com.sun.star.drawing.TextShape">
       <g id="id104">
        <text class="TextShape"><tspan class="TextParagraph" font-family="Tahoma, sans-serif" font-size="388px" font-weight="400"><tspan class="TextPosition" x="13228" y="13661"><tspan fill="rgb(0,0,0)" stroke="none">/b: B</tspan></tspan></tspan></text>
       </g>
      </g>
     </g>
     <g class="Group">
      <g class="com.sun.star.drawing.LineShape">
       <g id="id105">
        <path fill="none" stroke="rgb(0,0,0)" stroke-width="8" d="M 7302,13507 L 12382,13507"/>
       </g>
      </g>
      <g class="com.sun.star.drawing.TextShape">
       <g id="id106"/>
      </g>
      <g class="com.sun.star.drawing.TextShape">
       <g id="id107"/>
      </g>
      <g class="com.sun.star.drawing.TextShape">
       <g id="id108"/>
      </g>
      <g class="com.sun.star.drawing.TextShape">
       <g id="id109"/>
      </g>
      <g class="com.sun.star.drawing.TextShape">
       <g id="id110"/>
      </g>
     </g>
     <g class="Group">
      <g class="com.sun.star.drawing.LineShape">
       <g id="id111">
        <path fill="none" stroke="rgb(0,0,0)" stroke-width="8" d="M 7302,11559 L 12382,13190"/>
       </g>
      </g>
      <g class="com.sun.star.drawing.TextShape">
       <g id="id112"/>
      </g>
      <g class="com.sun.star.drawing.TextShape">
       <g id="id113"/>
      </g>
      <g class="com.sun.star.drawing.TextShape">
       <g id="id114"/>
      </g>
      <g class="com.sun.star.drawing.TextShape">
       <g id="id115"/>
      </g>
      <g class="com.sun.star.drawing.TextShape">
       <g id="id116"/>
      </g>
     </g>
     <g class="Group">
      <g class="com.sun.star.drawing.LineShape">
       <g id="id117">
        <path fill="none" stroke="rgb(0,0,0)" stroke-width="8" d="M 7302,13190 L 12382,11559"/>
       </g>
      </g>
      <g class="com.sun.star.drawing.TextShape">
       <g id="id118"/>
      </g>
      <g class="com.sun.star.drawing.TextShape">
       <g id="id119"/>
      </g>
      <g class="com.sun.star.drawing.TextShape">
       <g id="id120"/>
      </g>
      <g class="com.sun.star.drawing.TextShape">
       <g id="id121"/>
      </g>
      <g class="com.sun.star.drawing.TextShape">
       <g id="id122"/>
      </g>
     </g>
     <g class="com.sun.star.drawing.TextShape">
      <g id="id123">
       <text class="TextShape"><tspan class="TextParagraph" font-family="Tahoma, sans-serif" font-size="423px" font-weight="400"><tspan class="TextPosition" x="3046" y="4468"><tspan fill="rgb(0,0,0)" stroke="none">(i)</tspan></tspan></tspan></text>
      </g>
     </g>
     <g class="com.sun.star.drawing.TextShape">
      <g id="id124">
       <text class="TextShape"><tspan class="TextParagraph" font-family="Tahoma, sans-serif" font-size="423px" font-weight="400"><tspan class="TextPosition" x="2918" y="9901"><tspan fill="rgb(0,0,0)" stroke="none">(ii)</tspan></tspan></tspan></text>
      </g>
     </g>
    </g>
   </g>
  </g>
 </g>
</svg>