<?xml version="1.0" encoding="UTF-8"?>
<!DOCTYPE svg PUBLIC "-//W3C//DTD SVG 1.1//EN" "http://www.w3.org/Graphics/SVG/1.1/DTD/svg11.dtd">
<svg version="1.2" width="210mm" height="297mm" viewBox="0 0 21000 29700" preserveAspectRatio="xMidYMid" fill-rule="evenodd" clip-path="url(#presentation_clip_path)" stroke-width="28.222" stroke-linejoin="round" xmlns="http://www.w3.org/2000/svg" xmlns:ooo="http://xml.openoffice.org/svg/export" xmlns:xlink="http://www.w3.org/1999/xlink" xml:space="preserve">
 <defs class="ClipPathGroup">
  <clipPath id="presentation_clip_path" clipPathUnits="userSpaceOnUse">
   <rect x="0" y="0" width="21000" height="29700"/>
  </clipPath>
 </defs>
 <defs class="TextShapeIndex">
  <g ooo:slide="id1" ooo:id-list="id3 id4 id5 id6 id7 id8 id9 id10 id11 id12 id13 id14 id15 id16 id17 id18 id19 id20 id21 id22 id23 id24 id25 id26 id27 id28 id29 id30 id31 id32 id33 id34 id35 id36 id37 id38 id39 id40 id41 id42 id43 id44 id45 id46 id47 id48 id49 id50 id51"/>
 </defs>
 <defs class="EmbeddedBulletChars">
  <g id="bullet-char-template(57356)" transform="scale(0.00048828125,-0.00048828125)">
   <path d="M 580,1141 L 1163,571 580,0 -4,571 580,1141 Z"/>
  </g>
  <g id="bullet-char-template(57354)" transform="scale(0.00048828125,-0.00048828125)">
   <path d="M 8,1128 L 1137,1128 1137,0 8,0 8,1128 Z"/>
  </g>
  <g id="bullet-char-template(10146)" transform="scale(0.00048828125,-0.00048828125)">
   <path d="M 174,0 L 602,739 174,1481 1456,739 174,0 Z M 1358,739 L 309,1346 659,739 1358,739 Z"/>
  </g>
  <g id="bullet-char-template(10132)" transform="scale(0.00048828125,-0.00048828125)">
   <path d="M 2015,739 L 1276,0 717,0 1260,543 174,543 174,936 1260,936 717,1481 1274,1481 2015,739 Z"/>
  </g>
  <g id="bullet-char-template(10007)" transform="scale(0.00048828125,-0.00048828125)">
   <path d="M 0,-2 C -7,14 -16,27 -25,37 L 356,567 C 262,823 215,952 215,954 215,979 228,992 255,992 264,992 276,990 289,987 310,991 331,999 354,1012 L 381,999 492,748 772,1049 836,1024 860,1049 C 881,1039 901,1025 922,1006 886,937 835,863 770,784 769,783 710,716 594,584 L 774,223 C 774,196 753,168 711,139 L 727,119 C 717,90 699,76 672,76 641,76 570,178 457,381 L 164,-76 C 142,-110 111,-127 72,-127 30,-127 9,-110 8,-76 1,-67 -2,-52 -2,-32 -2,-23 -1,-13 0,-2 Z"/>
  </g>
  <g id="bullet-char-template(10004)" transform="scale(0.00048828125,-0.00048828125)">
   <path d="M 285,-33 C 182,-33 111,30 74,156 52,228 41,333 41,471 41,549 55,616 82,672 116,743 169,778 240,778 293,778 328,747 346,684 L 369,508 C 377,444 397,411 428,410 L 1163,1116 C 1174,1127 1196,1133 1229,1133 1271,1133 1292,1118 1292,1087 L 1292,965 C 1292,929 1282,901 1262,881 L 442,47 C 390,-6 338,-33 285,-33 Z"/>
  </g>
  <g id="bullet-char-template(9679)" transform="scale(0.00048828125,-0.00048828125)">
   <path d="M 813,0 C 632,0 489,54 383,161 276,268 223,411 223,592 223,773 276,916 383,1023 489,1130 632,1184 813,1184 992,1184 1136,1130 1245,1023 1353,916 1407,772 1407,592 1407,412 1353,268 1245,161 1136,54 992,0 813,0 Z"/>
  </g>
  <g id="bullet-char-template(8226)" transform="scale(0.00048828125,-0.00048828125)">
   <path d="M 346,457 C 273,457 209,483 155,535 101,586 74,649 74,723 74,796 101,859 155,911 209,963 273,989 346,989 419,989 480,963 531,910 582,859 608,796 608,723 608,648 583,586 532,535 482,483 420,457 346,457 Z"/>
  </g>
  <g id="bullet-char-template(8211)" transform="scale(0.00048828125,-0.00048828125)">
   <path d="M -4,459 L 1135,459 1135,606 -4,606 -4,459 Z"/>
  </g>
 </defs>
 <defs class="TextEmbeddedBitmaps"/>
 <g>
  <g id="id2" class="Master_Slide">
   <g id="bg-id2" class="Background"/>
   <g id="bo-id2" class="BackgroundObjects"/>
  </g>
 </g>
 <g class="SlideGroup">
  <g>
   <g id="id1" class="Slide" clip-path="url(#presentation_clip_path)">
    <g class="Page">
     <g class="Group">
      <g class="com.sun.star.drawing.PolyPolygonShape">
       <g id="id3">
        <path fill="rgb(255,255,255)" stroke="none" d="M 16510,12555 L 16510,12555 5080,12555 5080,12555 16510,12555 Z"/>
       </g>
      </g>
      <g class="com.sun.star.drawing.TextShape">
       <g id="id4"/>
      </g>
     </g>
     <g class="Group">
      <g class="com.sun.star.drawing.PolyPolygonShape">
       <g id="id5">
        <path fill="rgb(255,255,255)" stroke="none" d="M 16510,12555 L 16510,12555 5080,12555 5080,12555 16510,12555 Z"/>
       </g>
      </g>
      <g class="com.sun.star.drawing.TextShape">
       <g id="id6"/>
      </g>
     </g>
     <g class="Group">
      <g class="com.sun.star.drawing.PolyPolygonShape">
       <g id="id7">
        <path fill="rgb(255,255,255)" stroke="none" d="M 16510,12554 L 16510,5252 5080,5252 5080,12554 16510,12554 Z"/>
       </g>
      </g>
      <g class="com.sun.star.drawing.TextShape">
       <g id="id8"/>
      </g>
     </g>
     <g class="Group">
      <g class="Group">
       <g class="com.sun.star.drawing.PolyPolygonShape">
        <g id="id9">
         <path fill="rgb(255,255,255)" stroke="none" d="M 16510,12555 L 16510,12555 Z M 16510,3665 L 16510,3665 Z"/>
        </g>
       </g>
       <g class="com.sun.star.drawing.PolyPolygonShape">
        <g id="id10"/>
       </g>
      </g>
      <g class="com.sun.star.drawing.TextShape">
       <g id="id11"/>
      </g>
     </g>
     <g class="Group">
      <g class="Group">
       <g class="com.sun.star.drawing.PolyPolygonShape">
        <g id="id12">
         <path fill="rgb(255,255,255)" stroke="none" d="M 16510,3665 L 5080,3665 16510,3665 Z M 5080,5252 L 16510,5252 5080,5252 Z M 16510,12555 L 16510,12555 16510,3665 5080,3665 5080,3665 16510,12555 Z"/>
        </g>
       </g>
       <g class="com.sun.star.drawing.PolyLineShape">
        <g id="id13">
         <path fill="none" stroke="rgb(0,0,0)" stroke-width="8" d="M 16510,12555 L 16510,3665"/>
         <path fill="none" stroke="rgb(0,0,0)" stroke-width="8" d="M 5080,12555 L 5080,3665"/>
         <path fill="none" stroke="rgb(0,0,0)" stroke-width="8" d="M 5080,12555 L 16510,12555"/>
         <path fill="none" stroke="rgb(0,0,0)" stroke-width="8" d="M 16510,12555 L 16510,3665"/>
         <path fill="none" stroke="rgb(0,0,0)" stroke-width="8" d="M 5080,5252 L 16510,5252"/>
         <path fill="none" stroke="rgb(0,0,0)" stroke-width="8" d="M 5080,3665 L 16510,3665"/>
        </g>
       </g>
      </g>
      <g class="com.sun.star.drawing.TextShape">
       <g id="id14">
        <text class="TextShape"><tspan class="TextParagraph" font-family="Tahoma, sans-serif" font-size="353px" font-weight="700"><tspan class="TextPosition" x="9500" y="4292"><tspan fill="rgb(0,0,0)" stroke="none">«component» </tspan></tspan><tspan class="TextPosition" x="10190" y="4889"><tspan font-size="423px" fill="rgb(0,0,0)" stroke="none">Order</tspan></tspan></tspan></text>
       </g>
      </g>
     </g>
     <g class="Group">
      <g class="Group">
       <g class="com.sun.star.drawing.PolyPolygonShape">
        <g id="id15">
         <path fill="rgb(255,255,255)" stroke="none" d="M 16033,4141 L 16351,4141 16351,3824 16033,3824 16033,3887 16097,3887 16097,3951 16033,3951 16033,4014 16097,4014 16097,4077 16033,4077 16033,4141 Z M 15970,4077 L 16097,4077 16097,4014 15970,4014 15970,4077 Z M 15970,3951 L 16097,3951 16097,3887 15970,3887 15970,3951 Z"/>
        </g>
       </g>
       <g class="com.sun.star.drawing.PolyPolygonShape">
        <g id="id16">
         <path fill="none" stroke="rgb(0,0,0)" stroke-width="8" d="M 16033,4141 L 16351,4141 16351,3824 16033,3824 16033,3887 16097,3887 16097,3951 16033,3951 16033,4014 16097,4014 16097,4077 16033,4077 16033,4141 Z"/>
         <path fill="none" stroke="rgb(0,0,0)" stroke-width="8" d="M 15970,4077 L 16097,4077 16097,4014 15970,4014 15970,4077 Z"/>
         <path fill="none" stroke="rgb(0,0,0)" stroke-width="8" d="M 15970,3951 L 16097,3951 16097,3887 15970,3887 15970,3951 Z"/>
        </g>
       </g>
      </g>
      <g class="com.sun.star.drawing.TextShape">
       <g id="id17"/>
      </g>
     </g>
     <g class="Group">
      <g class="com.sun.star.drawing.LineShape">
       <g id="id18">
        <path fill="none" stroke="rgb(0,0,0)" stroke-width="8" d="M 5080,8110 L 4841,8110"/>
        <path fill="rgb(0,0,0)" stroke="none" d="M 4445,8110 L 4859,8248 4859,7972 4445,8110 Z"/>
       </g>
      </g>
      <g class="com.sun.star.drawing.TextShape">
       <g id="id19">
        <text class="TextShape"><tspan class="TextParagraph" font-family="Tahoma, sans-serif" font-size="353px" font-weight="400"><tspan class="TextPosition" x="3222" y="7774"><tspan fill="rgb(0,0,0)" stroke="none">OrderEntry</tspan></tspan></tspan></text>
       </g>
      </g>
     </g>
     <g class="Group">
      <g class="com.sun.star.drawing.OpenBezierShape">
       <g id="id20">
        <path fill="none" stroke="rgb(0,0,0)" stroke-width="8" d="M 16510,8111 L 16950,8111"/>
        <path fill="none" stroke="rgb(0,0,0)" stroke-width="8" d="M 17182,7920 L 17182,7920 C 17169,7918 17158,7916 17145,7916 17110,7916 17079,7925 17048,7942 17017,7960 16995,7983 16977,8014 16959,8044 16951,8075 16951,8111 16951,8146 16959,8177 16977,8208 16995,8238 17017,8261 17048,8279 17079,8296 17110,8305 17145,8305 17158,8305 17169,8303 17182,8301"/>
       </g>
      </g>
      <g class="com.sun.star.drawing.TextShape">
       <g id="id21">
        <text class="TextShape"><tspan class="TextParagraph" font-family="Tahoma, sans-serif" font-size="353px" font-weight="400"><tspan class="TextPosition" x="16881" y="7615"><tspan fill="rgb(0,0,0)" stroke="none">Person</tspan></tspan></tspan></text>
       </g>
      </g>
     </g>
     <g class="Group">
      <g class="com.sun.star.drawing.PolyPolygonShape">
       <g id="id22">
        <path fill="rgb(255,255,255)" stroke="none" d="M 12700,7475 L 12700,7475 12700,6205 12700,6205 12700,7475 Z"/>
       </g>
      </g>
      <g class="com.sun.star.drawing.TextShape">
       <g id="id23"/>
      </g>
     </g>
     <g class="Group">
      <g class="com.sun.star.drawing.PolyPolygonShape">
       <g id="id24">
        <path fill="rgb(255,255,255)" stroke="none" d="M 12700,7475 L 12700,7475 8890,7475 8890,7475 12700,7475 Z"/>
       </g>
      </g>
      <g class="com.sun.star.drawing.TextShape">
       <g id="id25"/>
      </g>
     </g>
     <g class="Group">
      <g class="com.sun.star.drawing.PolyPolygonShape">
       <g id="id26">
        <path fill="rgb(255,255,255)" stroke="none" d="M 12700,7475 L 12700,7475 8890,7475 8890,7475 12700,7475 Z"/>
       </g>
      </g>
      <g class="com.sun.star.drawing.TextShape">
       <g id="id27"/>
      </g>
     </g>
     <g class="Group">
      <g class="com.sun.star.drawing.PolyPolygonShape">
       <g id="id28">
        <path fill="rgb(255,255,255)" stroke="none" d="M 12700,7475 L 12700,7475 8890,7475 8890,7475 12700,7475 Z"/>
       </g>
      </g>
      <g class="com.sun.star.drawing.TextShape">
       <g id="id29"/>
      </g>
     </g>
     <g class="Group">
      <g class="Group">
       <g class="com.sun.star.drawing.PolyPolygonShape">
        <g id="id30">
         <path fill="rgb(255,255,255)" stroke="none" d="M 12700,7475 L 12700,6205 8890,6205 8890,7475 12700,7475 Z M 8890,6205 L 8890,6205 Z M 8890,7475 L 8890,7475 8890,6205 8890,7475 Z M 8890,6205 L 8890,6205 Z M 12700,6205 L 12700,6205 12700,7475 12700,7475 12700,6205 Z"/>
        </g>
       </g>
       <g class="com.sun.star.drawing.PolyLineShape">
        <g id="id31">
         <path fill="none" stroke="rgb(0,0,0)" stroke-width="8" d="M 8890,6205 L 8890,6205 Z"/>
         <path fill="none" stroke="rgb(0,0,0)" stroke-width="8" d="M 12700,7475 L 12700,6205"/>
         <path fill="none" stroke="rgb(0,0,0)" stroke-width="8" d="M 8890,7475 L 8890,6205"/>
         <path fill="none" stroke="rgb(0,0,0)" stroke-width="8" d="M 8890,6205 L 12700,6205"/>
         <path fill="none" stroke="rgb(0,0,0)" stroke-width="8" d="M 8890,7475 L 12700,7475"/>
        </g>
       </g>
      </g>
      <g class="com.sun.star.drawing.TextShape">
       <g id="id32">
        <text class="TextShape"><tspan class="TextParagraph" font-family="Tahoma, sans-serif" font-size="423px" font-weight="700"><tspan class="TextPosition" x="9426" y="7007"><tspan fill="rgb(0,0,0)" stroke="none">OrderHeader</tspan></tspan></tspan></text>
       </g>
      </g>
     </g>
     <g class="Group">
      <g class="com.sun.star.drawing.PolyPolygonShape">
       <g id="id33">
        <path fill="rgb(255,255,255)" stroke="none" d="M 12700,11920 L 12700,11920 12700,10650 12700,10650 12700,11920 Z"/>
       </g>
      </g>
      <g class="com.sun.star.drawing.TextShape">
       <g id="id34"/>
      </g>
     </g>
     <g class="Group">
      <g class="com.sun.star.drawing.PolyPolygonShape">
       <g id="id35">
        <path fill="rgb(255,255,255)" stroke="none" d="M 12700,11920 L 12700,11920 8890,11920 8890,11920 12700,11920 Z"/>
       </g>
      </g>
      <g class="com.sun.star.drawing.TextShape">
       <g id="id36"/>
      </g>
     </g>
     <g class="Group">
      <g class="com.sun.star.drawing.PolyPolygonShape">
       <g id="id37">
        <path fill="rgb(255,255,255)" stroke="none" d="M 12700,11920 L 12700,11920 8890,11920 8890,11920 12700,11920 Z"/>
       </g>
      </g>
      <g class="com.sun.star.drawing.TextShape">
       <g id="id38"/>
      </g>
     </g>
     <g class="Group">
      <g class="com.sun.star.drawing.PolyPolygonShape">
       <g id="id39">
        <path fill="rgb(255,255,255)" stroke="none" d="M 12700,11920 L 12700,11920 8890,11920 8890,11920 12700,11920 Z"/>
       </g>
      </g>
      <g class="com.sun.star.drawing.TextShape">
       <g id="id40"/>
      </g>
     </g>
     <g class="Group">
      <g class="Group">
       <g class="com.sun.star.drawing.PolyPolygonShape">
        <g id="id41">
         <path fill="rgb(255,255,255)" stroke="none" d="M 12700,11920 L 12700,10650 8890,10650 8890,11920 12700,11920 Z M 8890,10650 L 8890,10650 Z M 8890,11920 L 8890,11920 8890,10650 8890,11920 Z M 8890,10650 L 8890,10650 Z M 12700,10650 L 12700,10650 12700,11920 12700,11920 12700,10650 Z"/>
        </g>
       </g>
       <g class="com.sun.star.drawing.PolyLineShape">
        <g id="id42">
         <path fill="none" stroke="rgb(0,0,0)" stroke-width="8" d="M 8890,10650 L 8890,10650 Z"/>
         <path fill="none" stroke="rgb(0,0,0)" stroke-width="8" d="M 12700,11920 L 12700,10650"/>
         <path fill="none" stroke="rgb(0,0,0)" stroke-width="8" d="M 8890,11920 L 8890,10650"/>
         <path fill="none" stroke="rgb(0,0,0)" stroke-width="8" d="M 8890,10650 L 12700,10650"/>
         <path fill="none" stroke="rgb(0,0,0)" stroke-width="8" d="M 8890,11920 L 12700,11920"/>
        </g>
       </g>
      </g>
      <g class="com.sun.star.drawing.TextShape">
       <g id="id43">
        <text class="TextShape"><tspan class="TextParagraph" font-family="Tahoma, sans-serif" font-size="423px" font-weight="700"><tspan class="TextPosition" x="9832" y="11452"><tspan fill="rgb(0,0,0)" stroke="none">LineItem</tspan></tspan></tspan></text>
       </g>
      </g>
     </g>
     <g class="Group">
      <g class="Group">
       <g class="com.sun.star.drawing.PolyPolygonShape">
        <g id="id44">
         <path fill="rgb(0,0,0)" stroke="none" d="M 10794,7475 L 10906,7694 10794,7915 10683,7694 10794,7475 Z"/>
        </g>
       </g>
       <g class="com.sun.star.drawing.PolyLineShape">
        <g id="id45">
         <path fill="none" stroke="rgb(0,0,0)" stroke-width="8" d="M 10794,7475 L 10794,10650"/>
         <path fill="none" stroke="rgb(0,0,0)" stroke-width="8" d="M 10794,7475 L 10906,7694 10794,7915 10683,7694 10794,7475 Z"/>
        </g>
       </g>
      </g>
      <g class="com.sun.star.drawing.TextShape">
       <g id="id46">
        <text class="TextShape"><tspan class="TextParagraph" font-family="Tahoma, sans-serif" font-size="353px" font-weight="400"><tspan class="TextPosition" x="11146" y="10310"><tspan fill="rgb(0,0,0)" stroke="none">*</tspan></tspan></tspan></text>
       </g>
      </g>
      <g class="com.sun.star.drawing.TextShape">
       <g id="id47">
        <text class="TextShape"><tspan class="TextParagraph" font-family="Tahoma, sans-serif" font-size="353px" font-weight="400"><tspan class="TextPosition" x="11146" y="8095"><tspan fill="rgb(0,0,0)" stroke="none">1</tspan></tspan></tspan></text>
       </g>
      </g>
      <g class="com.sun.star.drawing.TextShape">
       <g id="id48">
        <text class="TextShape"><tspan class="TextParagraph" font-family="Tahoma, sans-serif" font-size="353px" font-weight="400"><tspan class="TextPosition" x="9747" y="8091"><tspan fill="rgb(0,0,0)" stroke="none">order</tspan></tspan></tspan></text>
       </g>
      </g>
      <g class="com.sun.star.drawing.TextShape">
       <g id="id49">
        <text class="TextShape"><tspan class="TextParagraph" font-family="Tahoma, sans-serif" font-size="353px" font-weight="400"><tspan class="TextPosition" x="10005" y="10310"><tspan fill="rgb(0,0,0)" stroke="none">item</tspan></tspan></tspan></text>
       </g>
      </g>
      <g class="com.sun.star.drawing.TextShape">
       <g id="id50"/>
      </g>
     </g>
     <g class="com.sun.star.drawing.TextShape">
      <g id="id51">
       <text class="TextShape"><tspan class="TextParagraph" font-family="Tahoma, sans-serif" font-size="353px" font-weight="400"><tspan class="TextPosition" x="9297" y="5709"><tspan fill="rgb(0,0,0)" stroke="none">packaged elements</tspan></tspan></tspan></text>
      </g>
     </g>
    </g>
   </g>
  </g>
 </g>
</svg>