<?xml version="1.0" encoding="UTF-8"?>
<!DOCTYPE svg PUBLIC "-//W3C//DTD SVG 1.1//EN" "http://www.w3.org/Graphics/SVG/1.1/DTD/svg11.dtd">
<svg version="1.2" width="210mm" height="297mm" viewBox="0 0 21000 29700" preserveAspectRatio="xMidYMid" fill-rule="evenodd" clip-path="url(#presentation_clip_path)" stroke-width="28.222" stroke-linejoin="round" xmlns="http://www.w3.org/2000/svg" xmlns:ooo="http://xml.openoffice.org/svg/export" xmlns:xlink="http://www.w3.org/1999/xlink" xml:space="preserve">
 <defs class="ClipPathGroup">
  <clipPath id="presentation_clip_path" clipPathUnits="userSpaceOnUse">
   <rect x="0" y="0" width="21000" height="29700"/>
  </clipPath>
 </defs>
 <defs class="TextShapeIndex">
  <g ooo:slide="id1" ooo:id-list="id3 id4 id5 id6 id7 id8 id9 id10 id11 id12 id13 id14 id15 id16 id17 id18 id19 id20 id21 id22 id23 id24 id25 id26 id27 id28 id29 id30 id31 id32 id33 id34 id35 id36 id37 id38 id39 id40 id41 id42 id43 id44 id45 id46 id47 id48 id49 id50 id51 id52 id53 id54 id55 id56 id57 id58 id59 id60 id61 id62 id63 id64 id65 id66 id67 id68 id69 id70 id71 id72 id73 id74 id75 id76 id77 id78 id79 id80 id81 id82 id83 id84 id85 id86 id87 id88 id89 id90 id91 id92 id93 id94 id95 id96 id97 id98 id99 id100 id101 id102 id103 id104 id105 id106 id107 id108 id109 id110 id111 id112 id113 id114 id115 id116 id117 id118 id119 id120 id121 id122 id123 id124 id125 id126 id127 id128 id129 id130 id131 id132 id133 id134 id135 id136 id137 id138 id139 id140 id141 id142 id143 id144 id145 id146"/>
 </defs>
 <defs class="EmbeddedBulletChars">
  <g id="bullet-char-template(57356)" transform="scale(0.00048828125,-0.00048828125)">
   <path d="M 580,1141 L 1163,571 580,0 -4,571 580,1141 Z"/>
  </g>
  <g id="bullet-char-template(57354)" transform="scale(0.00048828125,-0.00048828125)">
   <path d="M 8,1128 L 1137,1128 1137,0 8,0 8,1128 Z"/>
  </g>
  <g id="bullet-char-template(10146)" transform="scale(0.00048828125,-0.00048828125)">
   <path d="M 174,0 L 602,739 174,1481 1456,739 174,0 Z M 1358,739 L 309,1346 659,739 1358,739 Z"/>
  </g>
  <g id="bullet-char-template(10132)" transform="scale(0.00048828125,-0.00048828125)">
   <path d="M 2015,739 L 1276,0 717,0 1260,543 174,543 174,936 1260,936 717,1481 1274,1481 2015,739 Z"/>
  </g>
  <g id="bullet-char-template(10007)" transform="scale(0.00048828125,-0.00048828125)">
   <path d="M 0,-2 C -7,14 -16,27 -25,37 L 356,567 C 262,823 215,952 215,954 215,979 228,992 255,992 264,992 276,990 289,987 310,991 331,999 354,1012 L 381,999 492,748 772,1049 836,1024 860,1049 C 881,1039 901,1025 922,1006 886,937 835,863 770,784 769,783 710,716 594,584 L 774,223 C 774,196 753,168 711,139 L 727,119 C 717,90 699,76 672,76 641,76 570,178 457,381 L 164,-76 C 142,-110 111,-127 72,-127 30,-127 9,-110 8,-76 1,-67 -2,-52 -2,-32 -2,-23 -1,-13 0,-2 Z"/>
  </g>
  <g id="bullet-char-template(10004)" transform="scale(0.00048828125,-0.00048828125)">
   <path d="M 285,-33 C 182,-33 111,30 74,156 52,228 41,333 41,471 41,549 55,616 82,672 116,743 169,778 240,778 293,778 328,747 346,684 L 369,508 C 377,444 397,411 428,410 L 1163,1116 C 1174,1127 1196,1133 1229,1133 1271,1133 1292,1118 1292,1087 L 1292,965 C 1292,929 1282,901 1262,881 L 442,47 C 390,-6 338,-33 285,-33 Z"/>
  </g>
  <g id="bullet-char-template(9679)" transform="scale(0.00048828125,-0.00048828125)">
   <path d="M 813,0 C 632,0 489,54 383,161 276,268 223,411 223,592 223,773 276,916 383,1023 489,1130 632,1184 813,1184 992,1184 1136,1130 1245,1023 1353,916 1407,772 1407,592 1407,412 1353,268 1245,161 1136,54 992,0 813,0 Z"/>
  </g>
  <g id="bullet-char-template(8226)" transform="scale(0.00048828125,-0.00048828125)">
   <path d="M 346,457 C 273,457 209,483 155,535 101,586 74,649 74,723 74,796 101,859 155,911 209,963 273,989 346,989 419,989 480,963 531,910 582,859 608,796 608,723 608,648 583,586 532,535 482,483 420,457 346,457 Z"/>
  </g>
  <g id="bullet-char-template(8211)" transform="scale(0.00048828125,-0.00048828125)">
   <path d="M -4,459 L 1135,459 1135,606 -4,606 -4,459 Z"/>
  </g>
 </defs>
 <defs class="TextEmbeddedBitmaps"/>
 <g>
  <g id="id2" class="Master_Slide">
   <g id="bg-id2" class="Background"/>
   <g id="bo-id2" class="BackgroundObjects"/>
  </g>
 </g>
 <g class="SlideGroup">
  <g>
   <g id="id1" class="Slide" clip-path="url(#presentation_clip_path)">
    <g class="Page">
     <g class="Group">
      <g class="com.sun.star.drawing.PolyPolygonShape">
       <g id="id3">
        <path fill="rgb(255,255,255)" stroke="none" d="M 7620,6204 L 7620,6204 7620,4617 7620,4617 7620,6204 Z"/>
       </g>
      </g>
      <g class="com.sun.star.drawing.TextShape">
       <g id="id4"/>
      </g>
     </g>
     <g class="Group">
      <g class="com.sun.star.drawing.PolyPolygonShape">
       <g id="id5">
        <path fill="rgb(255,255,255)" stroke="none" d="M 7620,6205 L 7620,6205 4445,6205 4445,6205 7620,6205 Z"/>
       </g>
      </g>
      <g class="com.sun.star.drawing.TextShape">
       <g id="id6"/>
      </g>
     </g>
     <g class="Group">
      <g class="com.sun.star.drawing.PolyPolygonShape">
       <g id="id7">
        <path fill="rgb(255,255,255)" stroke="none" d="M 7620,6205 L 7620,6205 4445,6205 4445,6205 7620,6205 Z"/>
       </g>
      </g>
      <g class="com.sun.star.drawing.TextShape">
       <g id="id8"/>
      </g>
     </g>
     <g class="Group">
      <g class="com.sun.star.drawing.PolyPolygonShape">
       <g id="id9">
        <path fill="rgb(255,255,255)" stroke="none" d="M 7620,6205 L 7620,6205 4445,6205 4445,6205 7620,6205 Z"/>
       </g>
      </g>
      <g class="com.sun.star.drawing.TextShape">
       <g id="id10"/>
      </g>
     </g>
     <g class="Group">
      <g class="Group">
       <g class="com.sun.star.drawing.PolyPolygonShape">
        <g id="id11">
         <path fill="rgb(255,255,255)" stroke="none" d="M 7620,6204 L 7620,4617 4445,4617 4445,6204 7620,6204 Z M 4445,4617 L 4445,4617 Z M 4445,6204 L 4445,6204 4445,4617 4445,6204 Z M 4445,4617 L 4445,4617 Z M 7620,4617 L 7620,4617 7620,6204 7620,6204 7620,4617 Z"/>
        </g>
       </g>
       <g class="com.sun.star.drawing.PolyLineShape">
        <g id="id12">
         <path fill="none" stroke="rgb(0,0,0)" stroke-width="8" d="M 4445,4617 L 4445,4617 Z"/>
         <path fill="none" stroke="rgb(0,0,0)" stroke-width="8" d="M 7620,6204 L 7620,4617"/>
         <path fill="none" stroke="rgb(0,0,0)" stroke-width="8" d="M 4445,6204 L 4445,4617"/>
         <path fill="none" stroke="rgb(0,0,0)" stroke-width="8" d="M 4445,4617 L 7620,4617"/>
         <path fill="none" stroke="rgb(0,0,0)" stroke-width="8" d="M 4445,6204 L 7620,6204"/>
        </g>
       </g>
      </g>
      <g class="com.sun.star.drawing.TextShape">
       <g id="id13">
        <text class="TextShape"><tspan class="TextParagraph" font-family="Tahoma, sans-serif" font-size="353px" font-weight="400"><tspan class="TextPosition" x="5245" y="5551"><tspan fill="rgb(0,0,0)" stroke="none">w : Wheel</tspan></tspan></tspan></text>
       </g>
      </g>
     </g>
     <g class="com.sun.star.drawing.TextShape">
      <g id="id14">
       <text class="TextShape"><tspan class="TextParagraph" font-family="Tahoma, sans-serif" font-size="353px" font-weight="400"><tspan class="TextPosition" x="6963" y="5075"><tspan fill="rgb(0,0,0)" stroke="none">4</tspan></tspan></tspan></text>
      </g>
     </g>
     <g class="Group">
      <g class="Group">
       <g class="com.sun.star.drawing.PolyPolygonShape">
        <g id="id15">
         <path fill="rgb(255,255,255)" stroke="none" d="M 7501,5292 L 7501,5530 7739,5530 7739,5292 7501,5292 Z"/>
        </g>
       </g>
       <g class="com.sun.star.drawing.PolyPolygonShape">
        <g id="id16">
         <path fill="none" stroke="rgb(0,0,0)" stroke-width="8" d="M 7501,5292 L 7501,5530 7739,5530 7739,5292 7501,5292 Z"/>
        </g>
       </g>
      </g>
      <g class="com.sun.star.drawing.TextShape">
       <g id="id17"/>
      </g>
     </g>
     <g class="Group">
      <g class="com.sun.star.drawing.LineShape">
       <g id="id18">
        <path fill="none" stroke="rgb(0,0,0)" stroke-width="8" d="M 7739,5411 L 8176,5411"/>
        <path fill="rgb(0,0,0)" stroke="none" d="M 8572,5411 L 8158,5273 8158,5549 8572,5411 Z"/>
       </g>
      </g>
      <g class="com.sun.star.drawing.TextShape">
       <g id="id19"/>
      </g>
     </g>
     <g class="Group">
      <g class="com.sun.star.drawing.PolyPolygonShape">
       <g id="id20">
        <path fill="rgb(255,255,255)" stroke="none" d="M 15081,6204 L 15081,6204 15081,4617 15081,4617 15081,6204 Z"/>
       </g>
      </g>
      <g class="com.sun.star.drawing.TextShape">
       <g id="id21"/>
      </g>
     </g>
     <g class="Group">
      <g class="com.sun.star.drawing.PolyPolygonShape">
       <g id="id22">
        <path fill="rgb(255,255,255)" stroke="none" d="M 15081,6205 L 15081,6205 12065,6205 12065,6205 15081,6205 Z"/>
       </g>
      </g>
      <g class="com.sun.star.drawing.TextShape">
       <g id="id23"/>
      </g>
     </g>
     <g class="Group">
      <g class="com.sun.star.drawing.PolyPolygonShape">
       <g id="id24">
        <path fill="rgb(255,255,255)" stroke="none" d="M 15081,6205 L 15081,6205 12065,6205 12065,6205 15081,6205 Z"/>
       </g>
      </g>
      <g class="com.sun.star.drawing.TextShape">
       <g id="id25"/>
      </g>
     </g>
     <g class="Group">
      <g class="com.sun.star.drawing.PolyPolygonShape">
       <g id="id26">
        <path fill="rgb(255,255,255)" stroke="none" d="M 15081,6205 L 15081,6205 12065,6205 12065,6205 15081,6205 Z"/>
       </g>
      </g>
      <g class="com.sun.star.drawing.TextShape">
       <g id="id27"/>
      </g>
     </g>
     <g class="Group">
      <g class="Group">
       <g class="com.sun.star.drawing.PolyPolygonShape">
        <g id="id28">
         <path fill="rgb(255,255,255)" stroke="none" d="M 15081,6204 L 15081,4617 12065,4617 12065,6204 15081,6204 Z M 12065,4617 L 12065,4617 Z M 12065,6204 L 12065,6204 12065,4617 12065,6204 Z M 12065,4617 L 12065,4617 Z M 15081,4617 L 15081,4617 15081,6204 15081,6204 15081,4617 Z"/>
        </g>
       </g>
       <g class="com.sun.star.drawing.PolyLineShape">
        <g id="id29">
         <path fill="none" stroke="rgb(0,0,0)" stroke-width="8" d="M 15081,6204 L 15081,6156"/>
         <path fill="none" stroke="rgb(0,0,0)" stroke-width="8" d="M 15081,6132 L 15081,6084"/>
         <path fill="none" stroke="rgb(0,0,0)" stroke-width="8" d="M 15081,6060 L 15081,6012"/>
         <path fill="none" stroke="rgb(0,0,0)" stroke-width="8" d="M 15081,5988 L 15081,5940"/>
         <path fill="none" stroke="rgb(0,0,0)" stroke-width="8" d="M 15081,5916 L 15081,5868"/>
         <path fill="none" stroke="rgb(0,0,0)" stroke-width="8" d="M 15081,5844 L 15081,5796"/>
         <path fill="none" stroke="rgb(0,0,0)" stroke-width="8" d="M 15081,5772 L 15081,5724"/>
         <path fill="none" stroke="rgb(0,0,0)" stroke-width="8" d="M 15081,5700 L 15081,5652"/>
         <path fill="none" stroke="rgb(0,0,0)" stroke-width="8" d="M 15081,5628 L 15081,5580"/>
         <path fill="none" stroke="rgb(0,0,0)" stroke-width="8" d="M 15081,5556 L 15081,5508"/>
         <path fill="none" stroke="rgb(0,0,0)" stroke-width="8" d="M 15081,5484 L 15081,5436"/>
         <path fill="none" stroke="rgb(0,0,0)" stroke-width="8" d="M 15081,5412 L 15081,5364"/>
         <path fill="none" stroke="rgb(0,0,0)" stroke-width="8" d="M 15081,5340 L 15081,5292"/>
         <path fill="none" stroke="rgb(0,0,0)" stroke-width="8" d="M 15081,5268 L 15081,5220"/>
         <path fill="none" stroke="rgb(0,0,0)" stroke-width="8" d="M 15081,5196 L 15081,5148"/>
         <path fill="none" stroke="rgb(0,0,0)" stroke-width="8" d="M 15081,5124 L 15081,5076"/>
         <path fill="none" stroke="rgb(0,0,0)" stroke-width="8" d="M 15081,5052 L 15081,5004"/>
         <path fill="none" stroke="rgb(0,0,0)" stroke-width="8" d="M 15081,4980 L 15081,4932"/>
         <path fill="none" stroke="rgb(0,0,0)" stroke-width="8" d="M 15081,4908 L 15081,4860"/>
         <path fill="none" stroke="rgb(0,0,0)" stroke-width="8" d="M 15081,4836 L 15081,4788"/>
         <path fill="none" stroke="rgb(0,0,0)" stroke-width="8" d="M 15081,4764 L 15081,4716"/>
         <path fill="none" stroke="rgb(0,0,0)" stroke-width="8" d="M 15081,4692 L 15081,4644"/>
         <path fill="none" stroke="rgb(0,0,0)" stroke-width="8" d="M 15081,4620 L 15081,4617"/>
         <path fill="none" stroke="rgb(0,0,0)" stroke-width="8" d="M 12065,6204 L 12065,6156"/>
         <path fill="none" stroke="rgb(0,0,0)" stroke-width="8" d="M 12065,6132 L 12065,6084"/>
         <path fill="none" stroke="rgb(0,0,0)" stroke-width="8" d="M 12065,6060 L 12065,6012"/>
         <path fill="none" stroke="rgb(0,0,0)" stroke-width="8" d="M 12065,5988 L 12065,5940"/>
         <path fill="none" stroke="rgb(0,0,0)" stroke-width="8" d="M 12065,5916 L 12065,5868"/>
         <path fill="none" stroke="rgb(0,0,0)" stroke-width="8" d="M 12065,5844 L 12065,5796"/>
         <path fill="none" stroke="rgb(0,0,0)" stroke-width="8" d="M 12065,5772 L 12065,5724"/>
         <path fill="none" stroke="rgb(0,0,0)" stroke-width="8" d="M 12065,5700 L 12065,5652"/>
         <path fill="none" stroke="rgb(0,0,0)" stroke-width="8" d="M 12065,5628 L 12065,5580"/>
         <path fill="none" stroke="rgb(0,0,0)" stroke-width="8" d="M 12065,5556 L 12065,5508"/>
         <path fill="none" stroke="rgb(0,0,0)" stroke-width="8" d="M 12065,5484 L 12065,5436"/>
         <path fill="none" stroke="rgb(0,0,0)" stroke-width="8" d="M 12065,5412 L 12065,5364"/>
         <path fill="none" stroke="rgb(0,0,0)" stroke-width="8" d="M 12065,5340 L 12065,5292"/>
         <path fill="none" stroke="rgb(0,0,0)" stroke-width="8" d="M 12065,5268 L 12065,5220"/>
         <path fill="none" stroke="rgb(0,0,0)" stroke-width="8" d="M 12065,5196 L 12065,5148"/>
         <path fill="none" stroke="rgb(0,0,0)" stroke-width="8" d="M 12065,5124 L 12065,5076"/>
         <path fill="none" stroke="rgb(0,0,0)" stroke-width="8" d="M 12065,5052 L 12065,5004"/>
         <path fill="none" stroke="rgb(0,0,0)" stroke-width="8" d="M 12065,4980 L 12065,4932"/>
         <path fill="none" stroke="rgb(0,0,0)" stroke-width="8" d="M 12065,4908 L 12065,4860"/>
         <path fill="none" stroke="rgb(0,0,0)" stroke-width="8" d="M 12065,4836 L 12065,4788"/>
         <path fill="none" stroke="rgb(0,0,0)" stroke-width="8" d="M 12065,4764 L 12065,4716"/>
         <path fill="none" stroke="rgb(0,0,0)" stroke-width="8" d="M 12065,4692 L 12065,4644"/>
         <path fill="none" stroke="rgb(0,0,0)" stroke-width="8" d="M 12065,4620 L 12065,4617"/>
         <path fill="none" stroke="rgb(0,0,0)" stroke-width="8" d="M 12065,4617 L 12113,4617"/>
         <path fill="none" stroke="rgb(0,0,0)" stroke-width="8" d="M 12137,4617 L 12185,4617"/>
         <path fill="none" stroke="rgb(0,0,0)" stroke-width="8" d="M 12209,4617 L 12257,4617"/>
         <path fill="none" stroke="rgb(0,0,0)" stroke-width="8" d="M 12281,4617 L 12329,4617"/>
         <path fill="none" stroke="rgb(0,0,0)" stroke-width="8" d="M 12353,4617 L 12401,4617"/>
         <path fill="none" stroke="rgb(0,0,0)" stroke-width="8" d="M 12425,4617 L 12473,4617"/>
         <path fill="none" stroke="rgb(0,0,0)" stroke-width="8" d="M 12497,4617 L 12545,4617"/>
         <path fill="none" stroke="rgb(0,0,0)" stroke-width="8" d="M 12569,4617 L 12617,4617"/>
         <path fill="none" stroke="rgb(0,0,0)" stroke-width="8" d="M 12641,4617 L 12689,4617"/>
         <path fill="none" stroke="rgb(0,0,0)" stroke-width="8" d="M 12713,4617 L 12761,4617"/>
         <path fill="none" stroke="rgb(0,0,0)" stroke-width="8" d="M 12785,4617 L 12833,4617"/>
         <path fill="none" stroke="rgb(0,0,0)" stroke-width="8" d="M 12857,4617 L 12905,4617"/>
         <path fill="none" stroke="rgb(0,0,0)" stroke-width="8" d="M 12929,4617 L 12977,4617"/>
         <path fill="none" stroke="rgb(0,0,0)" stroke-width="8" d="M 13001,4617 L 13049,4617"/>
         <path fill="none" stroke="rgb(0,0,0)" stroke-width="8" d="M 13073,4617 L 13121,4617"/>
         <path fill="none" stroke="rgb(0,0,0)" stroke-width="8" d="M 13145,4617 L 13193,4617"/>
         <path fill="none" stroke="rgb(0,0,0)" stroke-width="8" d="M 13217,4617 L 13265,4617"/>
         <path fill="none" stroke="rgb(0,0,0)" stroke-width="8" d="M 13289,4617 L 13337,4617"/>
         <path fill="none" stroke="rgb(0,0,0)" stroke-width="8" d="M 13361,4617 L 13409,4617"/>
         <path fill="none" stroke="rgb(0,0,0)" stroke-width="8" d="M 13433,4617 L 13481,4617"/>
         <path fill="none" stroke="rgb(0,0,0)" stroke-width="8" d="M 13505,4617 L 13553,4617"/>
         <path fill="none" stroke="rgb(0,0,0)" stroke-width="8" d="M 13577,4617 L 13625,4617"/>
         <path fill="none" stroke="rgb(0,0,0)" stroke-width="8" d="M 13649,4617 L 13697,4617"/>
         <path fill="none" stroke="rgb(0,0,0)" stroke-width="8" d="M 13721,4617 L 13769,4617"/>
         <path fill="none" stroke="rgb(0,0,0)" stroke-width="8" d="M 13793,4617 L 13841,4617"/>
         <path fill="none" stroke="rgb(0,0,0)" stroke-width="8" d="M 13865,4617 L 13913,4617"/>
         <path fill="none" stroke="rgb(0,0,0)" stroke-width="8" d="M 13937,4617 L 13985,4617"/>
         <path fill="none" stroke="rgb(0,0,0)" stroke-width="8" d="M 14009,4617 L 14057,4617"/>
         <path fill="none" stroke="rgb(0,0,0)" stroke-width="8" d="M 14081,4617 L 14129,4617"/>
         <path fill="none" stroke="rgb(0,0,0)" stroke-width="8" d="M 14153,4617 L 14201,4617"/>
         <path fill="none" stroke="rgb(0,0,0)" stroke-width="8" d="M 14225,4617 L 14273,4617"/>
         <path fill="none" stroke="rgb(0,0,0)" stroke-width="8" d="M 14297,4617 L 14345,4617"/>
         <path fill="none" stroke="rgb(0,0,0)" stroke-width="8" d="M 14369,4617 L 14417,4617"/>
         <path fill="none" stroke="rgb(0,0,0)" stroke-width="8" d="M 14441,4617 L 14489,4617"/>
         <path fill="none" stroke="rgb(0,0,0)" stroke-width="8" d="M 14513,4617 L 14561,4617"/>
         <path fill="none" stroke="rgb(0,0,0)" stroke-width="8" d="M 14585,4617 L 14633,4617"/>
         <path fill="none" stroke="rgb(0,0,0)" stroke-width="8" d="M 14657,4617 L 14705,4617"/>
         <path fill="none" stroke="rgb(0,0,0)" stroke-width="8" d="M 14729,4617 L 14777,4617"/>
         <path fill="none" stroke="rgb(0,0,0)" stroke-width="8" d="M 14801,4617 L 14849,4617"/>
         <path fill="none" stroke="rgb(0,0,0)" stroke-width="8" d="M 14873,4617 L 14921,4617"/>
         <path fill="none" stroke="rgb(0,0,0)" stroke-width="8" d="M 14945,4617 L 14993,4617"/>
         <path fill="none" stroke="rgb(0,0,0)" stroke-width="8" d="M 15017,4617 L 15065,4617"/>
         <path fill="none" stroke="rgb(0,0,0)" stroke-width="8" d="M 12065,6204 L 12113,6204"/>
         <path fill="none" stroke="rgb(0,0,0)" stroke-width="8" d="M 12137,6204 L 12185,6204"/>
         <path fill="none" stroke="rgb(0,0,0)" stroke-width="8" d="M 12209,6204 L 12257,6204"/>
         <path fill="none" stroke="rgb(0,0,0)" stroke-width="8" d="M 12281,6204 L 12329,6204"/>
         <path fill="none" stroke="rgb(0,0,0)" stroke-width="8" d="M 12353,6204 L 12401,6204"/>
         <path fill="none" stroke="rgb(0,0,0)" stroke-width="8" d="M 12425,6204 L 12473,6204"/>
         <path fill="none" stroke="rgb(0,0,0)" stroke-width="8" d="M 12497,6204 L 12545,6204"/>
         <path fill="none" stroke="rgb(0,0,0)" stroke-width="8" d="M 12569,6204 L 12617,6204"/>
         <path fill="none" stroke="rgb(0,0,0)" stroke-width="8" d="M 12641,6204 L 12689,6204"/>
         <path fill="none" stroke="rgb(0,0,0)" stroke-width="8" d="M 12713,6204 L 12761,6204"/>
         <path fill="none" stroke="rgb(0,0,0)" stroke-width="8" d="M 12785,6204 L 12833,6204"/>
         <path fill="none" stroke="rgb(0,0,0)" stroke-width="8" d="M 12857,6204 L 12905,6204"/>
         <path fill="none" stroke="rgb(0,0,0)" stroke-width="8" d="M 12929,6204 L 12977,6204"/>
         <path fill="none" stroke="rgb(0,0,0)" stroke-width="8" d="M 13001,6204 L 13049,6204"/>
         <path fill="none" stroke="rgb(0,0,0)" stroke-width="8" d="M 13073,6204 L 13121,6204"/>
         <path fill="none" stroke="rgb(0,0,0)" stroke-width="8" d="M 13145,6204 L 13193,6204"/>
         <path fill="none" stroke="rgb(0,0,0)" stroke-width="8" d="M 13217,6204 L 13265,6204"/>
         <path fill="none" stroke="rgb(0,0,0)" stroke-width="8" d="M 13289,6204 L 13337,6204"/>
         <path fill="none" stroke="rgb(0,0,0)" stroke-width="8" d="M 13361,6204 L 13409,6204"/>
         <path fill="none" stroke="rgb(0,0,0)" stroke-width="8" d="M 13433,6204 L 13481,6204"/>
         <path fill="none" stroke="rgb(0,0,0)" stroke-width="8" d="M 13505,6204 L 13553,6204"/>
         <path fill="none" stroke="rgb(0,0,0)" stroke-width="8" d="M 13577,6204 L 13625,6204"/>
         <path fill="none" stroke="rgb(0,0,0)" stroke-width="8" d="M 13649,6204 L 13697,6204"/>
         <path fill="none" stroke="rgb(0,0,0)" stroke-width="8" d="M 13721,6204 L 13769,6204"/>
         <path fill="none" stroke="rgb(0,0,0)" stroke-width="8" d="M 13793,6204 L 13841,6204"/>
         <path fill="none" stroke="rgb(0,0,0)" stroke-width="8" d="M 13865,6204 L 13913,6204"/>
         <path fill="none" stroke="rgb(0,0,0)" stroke-width="8" d="M 13937,6204 L 13985,6204"/>
         <path fill="none" stroke="rgb(0,0,0)" stroke-width="8" d="M 14009,6204 L 14057,6204"/>
         <path fill="none" stroke="rgb(0,0,0)" stroke-width="8" d="M 14081,6204 L 14129,6204"/>
         <path fill="none" stroke="rgb(0,0,0)" stroke-width="8" d="M 14153,6204 L 14201,6204"/>
         <path fill="none" stroke="rgb(0,0,0)" stroke-width="8" d="M 14225,6204 L 14273,6204"/>
         <path fill="none" stroke="rgb(0,0,0)" stroke-width="8" d="M 14297,6204 L 14345,6204"/>
         <path fill="none" stroke="rgb(0,0,0)" stroke-width="8" d="M 14369,6204 L 14417,6204"/>
         <path fill="none" stroke="rgb(0,0,0)" stroke-width="8" d="M 14441,6204 L 14489,6204"/>
         <path fill="none" stroke="rgb(0,0,0)" stroke-width="8" d="M 14513,6204 L 14561,6204"/>
         <path fill="none" stroke="rgb(0,0,0)" stroke-width="8" d="M 14585,6204 L 14633,6204"/>
         <path fill="none" stroke="rgb(0,0,0)" stroke-width="8" d="M 14657,6204 L 14705,6204"/>
         <path fill="none" stroke="rgb(0,0,0)" stroke-width="8" d="M 14729,6204 L 14777,6204"/>
         <path fill="none" stroke="rgb(0,0,0)" stroke-width="8" d="M 14801,6204 L 14849,6204"/>
         <path fill="none" stroke="rgb(0,0,0)" stroke-width="8" d="M 14873,6204 L 14921,6204"/>
         <path fill="none" stroke="rgb(0,0,0)" stroke-width="8" d="M 14945,6204 L 14993,6204"/>
         <path fill="none" stroke="rgb(0,0,0)" stroke-width="8" d="M 15017,6204 L 15065,6204"/>
        </g>
       </g>
      </g>
      <g class="com.sun.star.drawing.TextShape">
       <g id="id30">
        <text class="TextShape"><tspan class="TextParagraph" font-family="Calibri, sans-serif" font-size="282px" font-weight="400"><tspan class="TextPosition" x="13017" y="5507"><tspan fill="rgb(0,0,0)" stroke="none">e : Engine</tspan></tspan></tspan></text>
       </g>
      </g>
     </g>
     <g class="Group">
      <g class="Group">
       <g class="com.sun.star.drawing.PolyPolygonShape">
        <g id="id31">
         <path fill="rgb(255,255,255)" stroke="none" d="M 12184,5530 L 12184,5292 11946,5292 11946,5530 12184,5530 Z"/>
        </g>
       </g>
       <g class="com.sun.star.drawing.PolyPolygonShape">
        <g id="id32">
         <path fill="none" stroke="rgb(0,0,0)" stroke-width="8" d="M 12184,5530 L 12184,5292 11946,5292 11946,5530 12184,5530 Z"/>
        </g>
       </g>
      </g>
      <g class="com.sun.star.drawing.TextShape">
       <g id="id33"/>
      </g>
     </g>
     <g class="Group">
      <g class="com.sun.star.drawing.OpenBezierShape">
       <g id="id34">
        <path fill="none" stroke="rgb(0,0,0)" stroke-width="8" d="M 11946,5412 L 11307,5412"/>
        <path fill="none" stroke="rgb(0,0,0)" stroke-width="8" d="M 11075,5602 L 11075,5602 C 11088,5604 11099,5606 11112,5606 11147,5606 11178,5597 11209,5580 11240,5562 11262,5539 11280,5509 11298,5478 11306,5447 11306,5411 11306,5376 11298,5345 11280,5314 11262,5284 11240,5261 11209,5243 11178,5226 11147,5217 11112,5217 11099,5217 11088,5219 11075,5221"/>
       </g>
      </g>
      <g class="com.sun.star.drawing.TextShape">
       <g id="id35"/>
      </g>
     </g>
     <g class="Group">
      <g class="com.sun.star.drawing.PolyPolygonShape">
       <g id="id36">
        <path fill="rgb(255,255,255)" stroke="none" d="M 7620,9697 L 7620,9697 7620,8110 7620,8110 7620,9697 Z"/>
       </g>
      </g>
      <g class="com.sun.star.drawing.TextShape">
       <g id="id37"/>
      </g>
     </g>
     <g class="Group">
      <g class="com.sun.star.drawing.PolyPolygonShape">
       <g id="id38">
        <path fill="rgb(255,255,255)" stroke="none" d="M 7620,9697 L 7620,9697 4445,9697 4445,9697 7620,9697 Z"/>
       </g>
      </g>
      <g class="com.sun.star.drawing.TextShape">
       <g id="id39"/>
      </g>
     </g>
     <g class="Group">
      <g class="com.sun.star.drawing.PolyPolygonShape">
       <g id="id40">
        <path fill="rgb(255,255,255)" stroke="none" d="M 7620,9697 L 7620,9697 4445,9697 4445,9697 7620,9697 Z"/>
       </g>
      </g>
      <g class="com.sun.star.drawing.TextShape">
       <g id="id41"/>
      </g>
     </g>
     <g class="Group">
      <g class="com.sun.star.drawing.PolyPolygonShape">
       <g id="id42">
        <path fill="rgb(255,255,255)" stroke="none" d="M 7620,9697 L 7620,9697 4445,9697 4445,9697 7620,9697 Z"/>
       </g>
      </g>
      <g class="com.sun.star.drawing.TextShape">
       <g id="id43"/>
      </g>
     </g>
     <g class="Group">
      <g class="Group">
       <g class="com.sun.star.drawing.PolyPolygonShape">
        <g id="id44">
         <path fill="rgb(255,255,255)" stroke="none" d="M 7620,9697 L 7620,8110 4445,8110 4445,9697 7620,9697 Z M 4445,8110 L 4445,8110 Z M 4445,9697 L 4445,9697 4445,8110 4445,9697 Z M 4445,8110 L 4445,8110 Z M 7620,8110 L 7620,8110 7620,9697 7620,9697 7620,8110 Z"/>
        </g>
       </g>
       <g class="com.sun.star.drawing.PolyLineShape">
        <g id="id45">
         <path fill="none" stroke="rgb(0,0,0)" stroke-width="8" d="M 4445,8110 L 4445,8110 Z"/>
         <path fill="none" stroke="rgb(0,0,0)" stroke-width="8" d="M 7620,9697 L 7620,8110"/>
         <path fill="none" stroke="rgb(0,0,0)" stroke-width="8" d="M 4445,9697 L 4445,8110"/>
         <path fill="none" stroke="rgb(0,0,0)" stroke-width="8" d="M 4445,8110 L 7620,8110"/>
         <path fill="none" stroke="rgb(0,0,0)" stroke-width="8" d="M 4445,9697 L 7620,9697"/>
        </g>
       </g>
      </g>
      <g class="com.sun.star.drawing.TextShape">
       <g id="id46">
        <text class="TextShape"><tspan class="TextParagraph" font-family="Tahoma, sans-serif" font-size="353px" font-weight="400"><tspan class="TextPosition" x="5245" y="9044"><tspan fill="rgb(0,0,0)" stroke="none">w : Wheel</tspan></tspan></tspan></text>
       </g>
      </g>
     </g>
     <g class="com.sun.star.drawing.TextShape">
      <g id="id47">
       <text class="TextShape"><tspan class="TextParagraph" font-family="Tahoma, sans-serif" font-size="353px" font-weight="400"><tspan class="TextPosition" x="6963" y="8568"><tspan fill="rgb(0,0,0)" stroke="none">4</tspan></tspan></tspan></text>
      </g>
     </g>
     <g class="Group">
      <g class="Group">
       <g class="com.sun.star.drawing.PolyPolygonShape">
        <g id="id48">
         <path fill="rgb(255,255,255)" stroke="none" d="M 7501,8785 L 7501,9023 7739,9023 7739,8785 7501,8785 Z"/>
        </g>
       </g>
       <g class="com.sun.star.drawing.PolyPolygonShape">
        <g id="id49">
         <path fill="none" stroke="rgb(0,0,0)" stroke-width="8" d="M 7501,8785 L 7501,9023 7739,9023 7739,8785 7501,8785 Z"/>
        </g>
       </g>
      </g>
      <g class="com.sun.star.drawing.TextShape">
       <g id="id50"/>
      </g>
     </g>
     <g class="Group">
      <g class="com.sun.star.drawing.LineShape">
       <g id="id51">
        <path fill="none" stroke="rgb(0,0,0)" stroke-width="8" d="M 7739,8903 L 7859,8743"/>
        <path fill="rgb(0,0,0)" stroke="none" d="M 8096,8427 L 7737,8675 7958,8841 8096,8427 Z"/>
       </g>
      </g>
      <g class="com.sun.star.drawing.TextShape">
       <g id="id52"/>
      </g>
     </g>
     <g class="Group">
      <g class="com.sun.star.drawing.PolyPolygonShape">
       <g id="id53">
        <path fill="rgb(255,255,255)" stroke="none" d="M 15081,9697 L 15081,9697 15081,8110 15081,8110 15081,9697 Z"/>
       </g>
      </g>
      <g class="com.sun.star.drawing.TextShape">
       <g id="id54"/>
      </g>
     </g>
     <g class="Group">
      <g class="com.sun.star.drawing.PolyPolygonShape">
       <g id="id55">
        <path fill="rgb(255,255,255)" stroke="none" d="M 15081,9697 L 15081,9697 12065,9697 12065,9697 15081,9697 Z"/>
       </g>
      </g>
      <g class="com.sun.star.drawing.TextShape">
       <g id="id56"/>
      </g>
     </g>
     <g class="Group">
      <g class="com.sun.star.drawing.PolyPolygonShape">
       <g id="id57">
        <path fill="rgb(255,255,255)" stroke="none" d="M 15081,9697 L 15081,9697 12065,9697 12065,9697 15081,9697 Z"/>
       </g>
      </g>
      <g class="com.sun.star.drawing.TextShape">
       <g id="id58"/>
      </g>
     </g>
     <g class="Group">
      <g class="com.sun.star.drawing.PolyPolygonShape">
       <g id="id59">
        <path fill="rgb(255,255,255)" stroke="none" d="M 15081,9697 L 15081,9697 12065,9697 12065,9697 15081,9697 Z"/>
       </g>
      </g>
      <g class="com.sun.star.drawing.TextShape">
       <g id="id60"/>
      </g>
     </g>
     <g class="Group">
      <g class="Group">
       <g class="com.sun.star.drawing.PolyPolygonShape">
        <g id="id61">
         <path fill="rgb(255,255,255)" stroke="none" d="M 15081,9697 L 15081,8110 12065,8110 12065,9697 15081,9697 Z M 12065,8110 L 12065,8110 Z M 12065,9697 L 12065,9697 12065,8110 12065,9697 Z M 12065,8110 L 12065,8110 Z M 15081,8110 L 15081,8110 15081,9697 15081,9697 15081,8110 Z"/>
        </g>
       </g>
       <g class="com.sun.star.drawing.PolyLineShape">
        <g id="id62">
         <path fill="none" stroke="rgb(0,0,0)" stroke-width="8" d="M 15081,9697 L 15081,9649"/>
         <path fill="none" stroke="rgb(0,0,0)" stroke-width="8" d="M 15081,9625 L 15081,9577"/>
         <path fill="none" stroke="rgb(0,0,0)" stroke-width="8" d="M 15081,9553 L 15081,9505"/>
         <path fill="none" stroke="rgb(0,0,0)" stroke-width="8" d="M 15081,9481 L 15081,9433"/>
         <path fill="none" stroke="rgb(0,0,0)" stroke-width="8" d="M 15081,9409 L 15081,9361"/>
         <path fill="none" stroke="rgb(0,0,0)" stroke-width="8" d="M 15081,9337 L 15081,9289"/>
         <path fill="none" stroke="rgb(0,0,0)" stroke-width="8" d="M 15081,9265 L 15081,9217"/>
         <path fill="none" stroke="rgb(0,0,0)" stroke-width="8" d="M 15081,9193 L 15081,9145"/>
         <path fill="none" stroke="rgb(0,0,0)" stroke-width="8" d="M 15081,9121 L 15081,9073"/>
         <path fill="none" stroke="rgb(0,0,0)" stroke-width="8" d="M 15081,9049 L 15081,9001"/>
         <path fill="none" stroke="rgb(0,0,0)" stroke-width="8" d="M 15081,8977 L 15081,8929"/>
         <path fill="none" stroke="rgb(0,0,0)" stroke-width="8" d="M 15081,8905 L 15081,8857"/>
         <path fill="none" stroke="rgb(0,0,0)" stroke-width="8" d="M 15081,8833 L 15081,8785"/>
         <path fill="none" stroke="rgb(0,0,0)" stroke-width="8" d="M 15081,8761 L 15081,8713"/>
         <path fill="none" stroke="rgb(0,0,0)" stroke-width="8" d="M 15081,8689 L 15081,8641"/>
         <path fill="none" stroke="rgb(0,0,0)" stroke-width="8" d="M 15081,8617 L 15081,8569"/>
         <path fill="none" stroke="rgb(0,0,0)" stroke-width="8" d="M 15081,8545 L 15081,8497"/>
         <path fill="none" stroke="rgb(0,0,0)" stroke-width="8" d="M 15081,8473 L 15081,8425"/>
         <path fill="none" stroke="rgb(0,0,0)" stroke-width="8" d="M 15081,8401 L 15081,8353"/>
         <path fill="none" stroke="rgb(0,0,0)" stroke-width="8" d="M 15081,8329 L 15081,8281"/>
         <path fill="none" stroke="rgb(0,0,0)" stroke-width="8" d="M 15081,8257 L 15081,8209"/>
         <path fill="none" stroke="rgb(0,0,0)" stroke-width="8" d="M 15081,8185 L 15081,8137"/>
         <path fill="none" stroke="rgb(0,0,0)" stroke-width="8" d="M 15081,8113 L 15081,8110"/>
         <path fill="none" stroke="rgb(0,0,0)" stroke-width="8" d="M 12065,9697 L 12065,9649"/>
         <path fill="none" stroke="rgb(0,0,0)" stroke-width="8" d="M 12065,9625 L 12065,9577"/>
         <path fill="none" stroke="rgb(0,0,0)" stroke-width="8" d="M 12065,9553 L 12065,9505"/>
         <path fill="none" stroke="rgb(0,0,0)" stroke-width="8" d="M 12065,9481 L 12065,9433"/>
         <path fill="none" stroke="rgb(0,0,0)" stroke-width="8" d="M 12065,9409 L 12065,9361"/>
         <path fill="none" stroke="rgb(0,0,0)" stroke-width="8" d="M 12065,9337 L 12065,9289"/>
         <path fill="none" stroke="rgb(0,0,0)" stroke-width="8" d="M 12065,9265 L 12065,9217"/>
         <path fill="none" stroke="rgb(0,0,0)" stroke-width="8" d="M 12065,9193 L 12065,9145"/>
         <path fill="none" stroke="rgb(0,0,0)" stroke-width="8" d="M 12065,9121 L 12065,9073"/>
         <path fill="none" stroke="rgb(0,0,0)" stroke-width="8" d="M 12065,9049 L 12065,9001"/>
         <path fill="none" stroke="rgb(0,0,0)" stroke-width="8" d="M 12065,8977 L 12065,8929"/>
         <path fill="none" stroke="rgb(0,0,0)" stroke-width="8" d="M 12065,8905 L 12065,8857"/>
         <path fill="none" stroke="rgb(0,0,0)" stroke-width="8" d="M 12065,8833 L 12065,8785"/>
         <path fill="none" stroke="rgb(0,0,0)" stroke-width="8" d="M 12065,8761 L 12065,8713"/>
         <path fill="none" stroke="rgb(0,0,0)" stroke-width="8" d="M 12065,8689 L 12065,8641"/>
         <path fill="none" stroke="rgb(0,0,0)" stroke-width="8" d="M 12065,8617 L 12065,8569"/>
         <path fill="none" stroke="rgb(0,0,0)" stroke-width="8" d="M 12065,8545 L 12065,8497"/>
         <path fill="none" stroke="rgb(0,0,0)" stroke-width="8" d="M 12065,8473 L 12065,8425"/>
         <path fill="none" stroke="rgb(0,0,0)" stroke-width="8" d="M 12065,8401 L 12065,8353"/>
         <path fill="none" stroke="rgb(0,0,0)" stroke-width="8" d="M 12065,8329 L 12065,8281"/>
         <path fill="none" stroke="rgb(0,0,0)" stroke-width="8" d="M 12065,8257 L 12065,8209"/>
         <path fill="none" stroke="rgb(0,0,0)" stroke-width="8" d="M 12065,8185 L 12065,8137"/>
         <path fill="none" stroke="rgb(0,0,0)" stroke-width="8" d="M 12065,8113 L 12065,8110"/>
         <path fill="none" stroke="rgb(0,0,0)" stroke-width="8" d="M 12065,8110 L 12113,8110"/>
         <path fill="none" stroke="rgb(0,0,0)" stroke-width="8" d="M 12137,8110 L 12185,8110"/>
         <path fill="none" stroke="rgb(0,0,0)" stroke-width="8" d="M 12209,8110 L 12257,8110"/>
         <path fill="none" stroke="rgb(0,0,0)" stroke-width="8" d="M 12281,8110 L 12329,8110"/>
         <path fill="none" stroke="rgb(0,0,0)" stroke-width="8" d="M 12353,8110 L 12401,8110"/>
         <path fill="none" stroke="rgb(0,0,0)" stroke-width="8" d="M 12425,8110 L 12473,8110"/>
         <path fill="none" stroke="rgb(0,0,0)" stroke-width="8" d="M 12497,8110 L 12545,8110"/>
         <path fill="none" stroke="rgb(0,0,0)" stroke-width="8" d="M 12569,8110 L 12617,8110"/>
         <path fill="none" stroke="rgb(0,0,0)" stroke-width="8" d="M 12641,8110 L 12689,8110"/>
         <path fill="none" stroke="rgb(0,0,0)" stroke-width="8" d="M 12713,8110 L 12761,8110"/>
         <path fill="none" stroke="rgb(0,0,0)" stroke-width="8" d="M 12785,8110 L 12833,8110"/>
         <path fill="none" stroke="rgb(0,0,0)" stroke-width="8" d="M 12857,8110 L 12905,8110"/>
         <path fill="none" stroke="rgb(0,0,0)" stroke-width="8" d="M 12929,8110 L 12977,8110"/>
         <path fill="none" stroke="rgb(0,0,0)" stroke-width="8" d="M 13001,8110 L 13049,8110"/>
         <path fill="none" stroke="rgb(0,0,0)" stroke-width="8" d="M 13073,8110 L 13121,8110"/>
         <path fill="none" stroke="rgb(0,0,0)" stroke-width="8" d="M 13145,8110 L 13193,8110"/>
         <path fill="none" stroke="rgb(0,0,0)" stroke-width="8" d="M 13217,8110 L 13265,8110"/>
         <path fill="none" stroke="rgb(0,0,0)" stroke-width="8" d="M 13289,8110 L 13337,8110"/>
         <path fill="none" stroke="rgb(0,0,0)" stroke-width="8" d="M 13361,8110 L 13409,8110"/>
         <path fill="none" stroke="rgb(0,0,0)" stroke-width="8" d="M 13433,8110 L 13481,8110"/>
         <path fill="none" stroke="rgb(0,0,0)" stroke-width="8" d="M 13505,8110 L 13553,8110"/>
         <path fill="none" stroke="rgb(0,0,0)" stroke-width="8" d="M 13577,8110 L 13625,8110"/>
         <path fill="none" stroke="rgb(0,0,0)" stroke-width="8" d="M 13649,8110 L 13697,8110"/>
         <path fill="none" stroke="rgb(0,0,0)" stroke-width="8" d="M 13721,8110 L 13769,8110"/>
         <path fill="none" stroke="rgb(0,0,0)" stroke-width="8" d="M 13793,8110 L 13841,8110"/>
         <path fill="none" stroke="rgb(0,0,0)" stroke-width="8" d="M 13865,8110 L 13913,8110"/>
         <path fill="none" stroke="rgb(0,0,0)" stroke-width="8" d="M 13937,8110 L 13985,8110"/>
         <path fill="none" stroke="rgb(0,0,0)" stroke-width="8" d="M 14009,8110 L 14057,8110"/>
         <path fill="none" stroke="rgb(0,0,0)" stroke-width="8" d="M 14081,8110 L 14129,8110"/>
         <path fill="none" stroke="rgb(0,0,0)" stroke-width="8" d="M 14153,8110 L 14201,8110"/>
         <path fill="none" stroke="rgb(0,0,0)" stroke-width="8" d="M 14225,8110 L 14273,8110"/>
         <path fill="none" stroke="rgb(0,0,0)" stroke-width="8" d="M 14297,8110 L 14345,8110"/>
         <path fill="none" stroke="rgb(0,0,0)" stroke-width="8" d="M 14369,8110 L 14417,8110"/>
         <path fill="none" stroke="rgb(0,0,0)" stroke-width="8" d="M 14441,8110 L 14489,8110"/>
         <path fill="none" stroke="rgb(0,0,0)" stroke-width="8" d="M 14513,8110 L 14561,8110"/>
         <path fill="none" stroke="rgb(0,0,0)" stroke-width="8" d="M 14585,8110 L 14633,8110"/>
         <path fill="none" stroke="rgb(0,0,0)" stroke-width="8" d="M 14657,8110 L 14705,8110"/>
         <path fill="none" stroke="rgb(0,0,0)" stroke-width="8" d="M 14729,8110 L 14777,8110"/>
         <path fill="none" stroke="rgb(0,0,0)" stroke-width="8" d="M 14801,8110 L 14849,8110"/>
         <path fill="none" stroke="rgb(0,0,0)" stroke-width="8" d="M 14873,8110 L 14921,8110"/>
         <path fill="none" stroke="rgb(0,0,0)" stroke-width="8" d="M 14945,8110 L 14993,8110"/>
         <path fill="none" stroke="rgb(0,0,0)" stroke-width="8" d="M 15017,8110 L 15065,8110"/>
         <path fill="none" stroke="rgb(0,0,0)" stroke-width="8" d="M 12065,9697 L 12113,9697"/>
         <path fill="none" stroke="rgb(0,0,0)" stroke-width="8" d="M 12137,9697 L 12185,9697"/>
         <path fill="none" stroke="rgb(0,0,0)" stroke-width="8" d="M 12209,9697 L 12257,9697"/>
         <path fill="none" stroke="rgb(0,0,0)" stroke-width="8" d="M 12281,9697 L 12329,9697"/>
         <path fill="none" stroke="rgb(0,0,0)" stroke-width="8" d="M 12353,9697 L 12401,9697"/>
         <path fill="none" stroke="rgb(0,0,0)" stroke-width="8" d="M 12425,9697 L 12473,9697"/>
         <path fill="none" stroke="rgb(0,0,0)" stroke-width="8" d="M 12497,9697 L 12545,9697"/>
         <path fill="none" stroke="rgb(0,0,0)" stroke-width="8" d="M 12569,9697 L 12617,9697"/>
         <path fill="none" stroke="rgb(0,0,0)" stroke-width="8" d="M 12641,9697 L 12689,9697"/>
         <path fill="none" stroke="rgb(0,0,0)" stroke-width="8" d="M 12713,9697 L 12761,9697"/>
         <path fill="none" stroke="rgb(0,0,0)" stroke-width="8" d="M 12785,9697 L 12833,9697"/>
         <path fill="none" stroke="rgb(0,0,0)" stroke-width="8" d="M 12857,9697 L 12905,9697"/>
         <path fill="none" stroke="rgb(0,0,0)" stroke-width="8" d="M 12929,9697 L 12977,9697"/>
         <path fill="none" stroke="rgb(0,0,0)" stroke-width="8" d="M 13001,9697 L 13049,9697"/>
         <path fill="none" stroke="rgb(0,0,0)" stroke-width="8" d="M 13073,9697 L 13121,9697"/>
         <path fill="none" stroke="rgb(0,0,0)" stroke-width="8" d="M 13145,9697 L 13193,9697"/>
         <path fill="none" stroke="rgb(0,0,0)" stroke-width="8" d="M 13217,9697 L 13265,9697"/>
         <path fill="none" stroke="rgb(0,0,0)" stroke-width="8" d="M 13289,9697 L 13337,9697"/>
         <path fill="none" stroke="rgb(0,0,0)" stroke-width="8" d="M 13361,9697 L 13409,9697"/>
         <path fill="none" stroke="rgb(0,0,0)" stroke-width="8" d="M 13433,9697 L 13481,9697"/>
         <path fill="none" stroke="rgb(0,0,0)" stroke-width="8" d="M 13505,9697 L 13553,9697"/>
         <path fill="none" stroke="rgb(0,0,0)" stroke-width="8" d="M 13577,9697 L 13625,9697"/>
         <path fill="none" stroke="rgb(0,0,0)" stroke-width="8" d="M 13649,9697 L 13697,9697"/>
         <path fill="none" stroke="rgb(0,0,0)" stroke-width="8" d="M 13721,9697 L 13769,9697"/>
         <path fill="none" stroke="rgb(0,0,0)" stroke-width="8" d="M 13793,9697 L 13841,9697"/>
         <path fill="none" stroke="rgb(0,0,0)" stroke-width="8" d="M 13865,9697 L 13913,9697"/>
         <path fill="none" stroke="rgb(0,0,0)" stroke-width="8" d="M 13937,9697 L 13985,9697"/>
         <path fill="none" stroke="rgb(0,0,0)" stroke-width="8" d="M 14009,9697 L 14057,9697"/>
         <path fill="none" stroke="rgb(0,0,0)" stroke-width="8" d="M 14081,9697 L 14129,9697"/>
         <path fill="none" stroke="rgb(0,0,0)" stroke-width="8" d="M 14153,9697 L 14201,9697"/>
         <path fill="none" stroke="rgb(0,0,0)" stroke-width="8" d="M 14225,9697 L 14273,9697"/>
         <path fill="none" stroke="rgb(0,0,0)" stroke-width="8" d="M 14297,9697 L 14345,9697"/>
         <path fill="none" stroke="rgb(0,0,0)" stroke-width="8" d="M 14369,9697 L 14417,9697"/>
         <path fill="none" stroke="rgb(0,0,0)" stroke-width="8" d="M 14441,9697 L 14489,9697"/>
         <path fill="none" stroke="rgb(0,0,0)" stroke-width="8" d="M 14513,9697 L 14561,9697"/>
         <path fill="none" stroke="rgb(0,0,0)" stroke-width="8" d="M 14585,9697 L 14633,9697"/>
         <path fill="none" stroke="rgb(0,0,0)" stroke-width="8" d="M 14657,9697 L 14705,9697"/>
         <path fill="none" stroke="rgb(0,0,0)" stroke-width="8" d="M 14729,9697 L 14777,9697"/>
         <path fill="none" stroke="rgb(0,0,0)" stroke-width="8" d="M 14801,9697 L 14849,9697"/>
         <path fill="none" stroke="rgb(0,0,0)" stroke-width="8" d="M 14873,9697 L 14921,9697"/>
         <path fill="none" stroke="rgb(0,0,0)" stroke-width="8" d="M 14945,9697 L 14993,9697"/>
         <path fill="none" stroke="rgb(0,0,0)" stroke-width="8" d="M 15017,9697 L 15065,9697"/>
        </g>
       </g>
      </g>
      <g class="com.sun.star.drawing.TextShape">
       <g id="id63">
        <text class="TextShape"><tspan class="TextParagraph" font-family="Calibri, sans-serif" font-size="282px" font-weight="400"><tspan class="TextPosition" x="13017" y="9000"><tspan fill="rgb(0,0,0)" stroke="none">e : Engine</tspan></tspan></tspan></text>
       </g>
      </g>
     </g>
     <g class="Group">
      <g class="Group">
       <g class="com.sun.star.drawing.PolyPolygonShape">
        <g id="id64">
         <path fill="rgb(255,255,255)" stroke="none" d="M 12184,9023 L 12184,8785 11946,8785 11946,9023 12184,9023 Z"/>
        </g>
       </g>
       <g class="com.sun.star.drawing.PolyPolygonShape">
        <g id="id65">
         <path fill="none" stroke="rgb(0,0,0)" stroke-width="8" d="M 12184,9023 L 12184,8785 11946,8785 11946,9023 12184,9023 Z"/>
        </g>
       </g>
      </g>
      <g class="com.sun.star.drawing.TextShape">
       <g id="id66"/>
      </g>
     </g>
     <g class="Group">
      <g class="com.sun.star.drawing.OpenBezierShape">
       <g id="id67">
        <path fill="none" stroke="rgb(0,0,0)" stroke-width="8" d="M 11945,8903 L 11429,8539"/>
        <path fill="none" stroke="rgb(0,0,0)" stroke-width="8" d="M 11130,8561 L 11130,8561 C 11144,8575 11157,8586 11174,8596 11205,8613 11235,8622 11271,8622 11307,8622 11337,8613 11368,8596 11399,8578 11421,8555 11439,8525 11457,8494 11465,8463 11465,8428 11465,8392 11457,8361 11439,8331 11421,8300 11399,8277 11368,8260 11361,8256 11356,8253 11349,8250"/>
       </g>
      </g>
      <g class="com.sun.star.drawing.TextShape">
       <g id="id68"/>
      </g>
     </g>
     <g class="Group">
      <g class="com.sun.star.drawing.LineShape">
       <g id="id69">
        <path fill="none" stroke="rgb(0,0,0)" stroke-width="8" d="M 7739,8904 L 11945,8904"/>
       </g>
      </g>
      <g class="com.sun.star.drawing.TextShape">
       <g id="id70"/>
      </g>
      <g class="com.sun.star.drawing.TextShape">
       <g id="id71"/>
      </g>
      <g class="com.sun.star.drawing.TextShape">
       <g id="id72"/>
      </g>
      <g class="com.sun.star.drawing.TextShape">
       <g id="id73"/>
      </g>
      <g class="com.sun.star.drawing.TextShape">
       <g id="id74"/>
      </g>
     </g>
     <g class="Group">
      <g class="com.sun.star.drawing.PolyPolygonShape">
       <g id="id75">
        <path fill="rgb(255,255,255)" stroke="none" d="M 7620,11761 L 7620,11761 7620,10174 7620,10174 7620,11761 Z"/>
       </g>
      </g>
      <g class="com.sun.star.drawing.TextShape">
       <g id="id76"/>
      </g>
     </g>
     <g class="Group">
      <g class="com.sun.star.drawing.PolyPolygonShape">
       <g id="id77">
        <path fill="rgb(255,255,255)" stroke="none" d="M 7620,11761 L 7620,11761 4445,11761 4445,11761 7620,11761 Z"/>
       </g>
      </g>
      <g class="com.sun.star.drawing.TextShape">
       <g id="id78"/>
      </g>
     </g>
     <g class="Group">
      <g class="com.sun.star.drawing.PolyPolygonShape">
       <g id="id79">
        <path fill="rgb(255,255,255)" stroke="none" d="M 7620,11761 L 7620,11761 4445,11761 4445,11761 7620,11761 Z"/>
       </g>
      </g>
      <g class="com.sun.star.drawing.TextShape">
       <g id="id80"/>
      </g>
     </g>
     <g class="Group">
      <g class="com.sun.star.drawing.PolyPolygonShape">
       <g id="id81">
        <path fill="rgb(255,255,255)" stroke="none" d="M 7620,11761 L 7620,11761 4445,11761 4445,11761 7620,11761 Z"/>
       </g>
      </g>
      <g class="com.sun.star.drawing.TextShape">
       <g id="id82"/>
      </g>
     </g>
     <g class="Group">
      <g class="Group">
       <g class="com.sun.star.drawing.PolyPolygonShape">
        <g id="id83">
         <path fill="rgb(255,255,255)" stroke="none" d="M 7620,11761 L 7620,10174 4445,10174 4445,11761 7620,11761 Z M 4445,10174 L 4445,10174 Z M 4445,11761 L 4445,11761 4445,10174 4445,11761 Z M 4445,10174 L 4445,10174 Z M 7620,10174 L 7620,10174 7620,11761 7620,11761 7620,10174 Z"/>
        </g>
       </g>
       <g class="com.sun.star.drawing.PolyLineShape">
        <g id="id84">
         <path fill="none" stroke="rgb(0,0,0)" stroke-width="8" d="M 4445,10174 L 4445,10174 Z"/>
         <path fill="none" stroke="rgb(0,0,0)" stroke-width="8" d="M 7620,11761 L 7620,10174"/>
         <path fill="none" stroke="rgb(0,0,0)" stroke-width="8" d="M 4445,11761 L 4445,10174"/>
         <path fill="none" stroke="rgb(0,0,0)" stroke-width="8" d="M 4445,10174 L 7620,10174"/>
         <path fill="none" stroke="rgb(0,0,0)" stroke-width="8" d="M 4445,11761 L 7620,11761"/>
        </g>
       </g>
      </g>
      <g class="com.sun.star.drawing.TextShape">
       <g id="id85">
        <text class="TextShape"><tspan class="TextParagraph" font-family="Tahoma, sans-serif" font-size="353px" font-weight="400"><tspan class="TextPosition" x="5245" y="11108"><tspan fill="rgb(0,0,0)" stroke="none">w : Wheel</tspan></tspan></tspan></text>
       </g>
      </g>
     </g>
     <g class="Group">
      <g class="Group">
       <g class="com.sun.star.drawing.PolyPolygonShape">
        <g id="id86">
         <path fill="rgb(255,255,255)" stroke="none" d="M 7501,10848 L 7501,11086 7739,11086 7739,10848 7501,10848 Z"/>
        </g>
       </g>
       <g class="com.sun.star.drawing.PolyPolygonShape">
        <g id="id87">
         <path fill="none" stroke="rgb(0,0,0)" stroke-width="8" d="M 7501,10848 L 7501,11086 7739,11086 7739,10848 7501,10848 Z"/>
        </g>
       </g>
      </g>
      <g class="com.sun.star.drawing.TextShape">
       <g id="id88"/>
      </g>
     </g>
     <g class="Group">
      <g class="com.sun.star.drawing.LineShape">
       <g id="id89">
        <path fill="none" stroke="rgb(0,0,0)" stroke-width="8" d="M 7739,10967 L 8176,10967"/>
        <path fill="rgb(0,0,0)" stroke="none" d="M 8572,10967 L 8158,10829 8158,11105 8572,10967 Z"/>
       </g>
      </g>
      <g class="com.sun.star.drawing.TextShape">
       <g id="id90"/>
      </g>
     </g>
     <g class="Group">
      <g class="com.sun.star.drawing.PolyPolygonShape">
       <g id="id91">
        <path fill="rgb(255,255,255)" stroke="none" d="M 15081,11761 L 15081,11761 15081,10174 15081,10174 15081,11761 Z"/>
       </g>
      </g>
      <g class="com.sun.star.drawing.TextShape">
       <g id="id92"/>
      </g>
     </g>
     <g class="Group">
      <g class="com.sun.star.drawing.PolyPolygonShape">
       <g id="id93">
        <path fill="rgb(255,255,255)" stroke="none" d="M 15081,11761 L 15081,11761 12065,11761 12065,11761 15081,11761 Z"/>
       </g>
      </g>
      <g class="com.sun.star.drawing.TextShape">
       <g id="id94"/>
      </g>
     </g>
     <g class="Group">
      <g class="com.sun.star.drawing.PolyPolygonShape">
       <g id="id95">
        <path fill="rgb(255,255,255)" stroke="none" d="M 15081,11761 L 15081,11761 12065,11761 12065,11761 15081,11761 Z"/>
       </g>
      </g>
      <g class="com.sun.star.drawing.TextShape">
       <g id="id96"/>
      </g>
     </g>
     <g class="Group">
      <g class="com.sun.star.drawing.PolyPolygonShape">
       <g id="id97">
        <path fill="rgb(255,255,255)" stroke="none" d="M 15081,11761 L 15081,11761 12065,11761 12065,11761 15081,11761 Z"/>
       </g>
      </g>
      <g class="com.sun.star.drawing.TextShape">
       <g id="id98"/>
      </g>
     </g>
     <g class="Group">
      <g class="Group">
       <g class="com.sun.star.drawing.PolyPolygonShape">
        <g id="id99">
         <path fill="rgb(255,255,255)" stroke="none" d="M 15081,11761 L 15081,10174 12065,10174 12065,11761 15081,11761 Z M 12065,10174 L 12065,10174 Z M 12065,11761 L 12065,11761 12065,10174 12065,11761 Z M 12065,10174 L 12065,10174 Z M 15081,10174 L 15081,10174 15081,11761 15081,11761 15081,10174 Z"/>
        </g>
       </g>
       <g class="com.sun.star.drawing.PolyLineShape">
        <g id="id100">
         <path fill="none" stroke="rgb(0,0,0)" stroke-width="8" d="M 15081,11761 L 15081,11713"/>
         <path fill="none" stroke="rgb(0,0,0)" stroke-width="8" d="M 15081,11689 L 15081,11641"/>
         <path fill="none" stroke="rgb(0,0,0)" stroke-width="8" d="M 15081,11617 L 15081,11569"/>
         <path fill="none" stroke="rgb(0,0,0)" stroke-width="8" d="M 15081,11545 L 15081,11497"/>
         <path fill="none" stroke="rgb(0,0,0)" stroke-width="8" d="M 15081,11473 L 15081,11425"/>
         <path fill="none" stroke="rgb(0,0,0)" stroke-width="8" d="M 15081,11401 L 15081,11353"/>
         <path fill="none" stroke="rgb(0,0,0)" stroke-width="8" d="M 15081,11329 L 15081,11281"/>
         <path fill="none" stroke="rgb(0,0,0)" stroke-width="8" d="M 15081,11257 L 15081,11209"/>
         <path fill="none" stroke="rgb(0,0,0)" stroke-width="8" d="M 15081,11185 L 15081,11137"/>
         <path fill="none" stroke="rgb(0,0,0)" stroke-width="8" d="M 15081,11113 L 15081,11065"/>
         <path fill="none" stroke="rgb(0,0,0)" stroke-width="8" d="M 15081,11041 L 15081,10993"/>
         <path fill="none" stroke="rgb(0,0,0)" stroke-width="8" d="M 15081,10969 L 15081,10921"/>
         <path fill="none" stroke="rgb(0,0,0)" stroke-width="8" d="M 15081,10897 L 15081,10849"/>
         <path fill="none" stroke="rgb(0,0,0)" stroke-width="8" d="M 15081,10825 L 15081,10777"/>
         <path fill="none" stroke="rgb(0,0,0)" stroke-width="8" d="M 15081,10753 L 15081,10705"/>
         <path fill="none" stroke="rgb(0,0,0)" stroke-width="8" d="M 15081,10681 L 15081,10633"/>
         <path fill="none" stroke="rgb(0,0,0)" stroke-width="8" d="M 15081,10609 L 15081,10561"/>
         <path fill="none" stroke="rgb(0,0,0)" stroke-width="8" d="M 15081,10537 L 15081,10489"/>
         <path fill="none" stroke="rgb(0,0,0)" stroke-width="8" d="M 15081,10465 L 15081,10417"/>
         <path fill="none" stroke="rgb(0,0,0)" stroke-width="8" d="M 15081,10393 L 15081,10345"/>
         <path fill="none" stroke="rgb(0,0,0)" stroke-width="8" d="M 15081,10321 L 15081,10273"/>
         <path fill="none" stroke="rgb(0,0,0)" stroke-width="8" d="M 15081,10249 L 15081,10201"/>
         <path fill="none" stroke="rgb(0,0,0)" stroke-width="8" d="M 15081,10177 L 15081,10174"/>
         <path fill="none" stroke="rgb(0,0,0)" stroke-width="8" d="M 12065,11761 L 12065,11713"/>
         <path fill="none" stroke="rgb(0,0,0)" stroke-width="8" d="M 12065,11689 L 12065,11641"/>
         <path fill="none" stroke="rgb(0,0,0)" stroke-width="8" d="M 12065,11617 L 12065,11569"/>
         <path fill="none" stroke="rgb(0,0,0)" stroke-width="8" d="M 12065,11545 L 12065,11497"/>
         <path fill="none" stroke="rgb(0,0,0)" stroke-width="8" d="M 12065,11473 L 12065,11425"/>
         <path fill="none" stroke="rgb(0,0,0)" stroke-width="8" d="M 12065,11401 L 12065,11353"/>
         <path fill="none" stroke="rgb(0,0,0)" stroke-width="8" d="M 12065,11329 L 12065,11281"/>
         <path fill="none" stroke="rgb(0,0,0)" stroke-width="8" d="M 12065,11257 L 12065,11209"/>
         <path fill="none" stroke="rgb(0,0,0)" stroke-width="8" d="M 12065,11185 L 12065,11137"/>
         <path fill="none" stroke="rgb(0,0,0)" stroke-width="8" d="M 12065,11113 L 12065,11065"/>
         <path fill="none" stroke="rgb(0,0,0)" stroke-width="8" d="M 12065,11041 L 12065,10993"/>
         <path fill="none" stroke="rgb(0,0,0)" stroke-width="8" d="M 12065,10969 L 12065,10921"/>
         <path fill="none" stroke="rgb(0,0,0)" stroke-width="8" d="M 12065,10897 L 12065,10849"/>
         <path fill="none" stroke="rgb(0,0,0)" stroke-width="8" d="M 12065,10825 L 12065,10777"/>
         <path fill="none" stroke="rgb(0,0,0)" stroke-width="8" d="M 12065,10753 L 12065,10705"/>
         <path fill="none" stroke="rgb(0,0,0)" stroke-width="8" d="M 12065,10681 L 12065,10633"/>
         <path fill="none" stroke="rgb(0,0,0)" stroke-width="8" d="M 12065,10609 L 12065,10561"/>
         <path fill="none" stroke="rgb(0,0,0)" stroke-width="8" d="M 12065,10537 L 12065,10489"/>
         <path fill="none" stroke="rgb(0,0,0)" stroke-width="8" d="M 12065,10465 L 12065,10417"/>
         <path fill="none" stroke="rgb(0,0,0)" stroke-width="8" d="M 12065,10393 L 12065,10345"/>
         <path fill="none" stroke="rgb(0,0,0)" stroke-width="8" d="M 12065,10321 L 12065,10273"/>
         <path fill="none" stroke="rgb(0,0,0)" stroke-width="8" d="M 12065,10249 L 12065,10201"/>
         <path fill="none" stroke="rgb(0,0,0)" stroke-width="8" d="M 12065,10177 L 12065,10174"/>
         <path fill="none" stroke="rgb(0,0,0)" stroke-width="8" d="M 12065,10174 L 12113,10174"/>
         <path fill="none" stroke="rgb(0,0,0)" stroke-width="8" d="M 12137,10174 L 12185,10174"/>
         <path fill="none" stroke="rgb(0,0,0)" stroke-width="8" d="M 12209,10174 L 12257,10174"/>
         <path fill="none" stroke="rgb(0,0,0)" stroke-width="8" d="M 12281,10174 L 12329,10174"/>
         <path fill="none" stroke="rgb(0,0,0)" stroke-width="8" d="M 12353,10174 L 12401,10174"/>
         <path fill="none" stroke="rgb(0,0,0)" stroke-width="8" d="M 12425,10174 L 12473,10174"/>
         <path fill="none" stroke="rgb(0,0,0)" stroke-width="8" d="M 12497,10174 L 12545,10174"/>
         <path fill="none" stroke="rgb(0,0,0)" stroke-width="8" d="M 12569,10174 L 12617,10174"/>
         <path fill="none" stroke="rgb(0,0,0)" stroke-width="8" d="M 12641,10174 L 12689,10174"/>
         <path fill="none" stroke="rgb(0,0,0)" stroke-width="8" d="M 12713,10174 L 12761,10174"/>
         <path fill="none" stroke="rgb(0,0,0)" stroke-width="8" d="M 12785,10174 L 12833,10174"/>
         <path fill="none" stroke="rgb(0,0,0)" stroke-width="8" d="M 12857,10174 L 12905,10174"/>
         <path fill="none" stroke="rgb(0,0,0)" stroke-width="8" d="M 12929,10174 L 12977,10174"/>
         <path fill="none" stroke="rgb(0,0,0)" stroke-width="8" d="M 13001,10174 L 13049,10174"/>
         <path fill="none" stroke="rgb(0,0,0)" stroke-width="8" d="M 13073,10174 L 13121,10174"/>
         <path fill="none" stroke="rgb(0,0,0)" stroke-width="8" d="M 13145,10174 L 13193,10174"/>
         <path fill="none" stroke="rgb(0,0,0)" stroke-width="8" d="M 13217,10174 L 13265,10174"/>
         <path fill="none" stroke="rgb(0,0,0)" stroke-width="8" d="M 13289,10174 L 13337,10174"/>
         <path fill="none" stroke="rgb(0,0,0)" stroke-width="8" d="M 13361,10174 L 13409,10174"/>
         <path fill="none" stroke="rgb(0,0,0)" stroke-width="8" d="M 13433,10174 L 13481,10174"/>
         <path fill="none" stroke="rgb(0,0,0)" stroke-width="8" d="M 13505,10174 L 13553,10174"/>
         <path fill="none" stroke="rgb(0,0,0)" stroke-width="8" d="M 13577,10174 L 13625,10174"/>
         <path fill="none" stroke="rgb(0,0,0)" stroke-width="8" d="M 13649,10174 L 13697,10174"/>
         <path fill="none" stroke="rgb(0,0,0)" stroke-width="8" d="M 13721,10174 L 13769,10174"/>
         <path fill="none" stroke="rgb(0,0,0)" stroke-width="8" d="M 13793,10174 L 13841,10174"/>
         <path fill="none" stroke="rgb(0,0,0)" stroke-width="8" d="M 13865,10174 L 13913,10174"/>
         <path fill="none" stroke="rgb(0,0,0)" stroke-width="8" d="M 13937,10174 L 13985,10174"/>
         <path fill="none" stroke="rgb(0,0,0)" stroke-width="8" d="M 14009,10174 L 14057,10174"/>
         <path fill="none" stroke="rgb(0,0,0)" stroke-width="8" d="M 14081,10174 L 14129,10174"/>
         <path fill="none" stroke="rgb(0,0,0)" stroke-width="8" d="M 14153,10174 L 14201,10174"/>
         <path fill="none" stroke="rgb(0,0,0)" stroke-width="8" d="M 14225,10174 L 14273,10174"/>
         <path fill="none" stroke="rgb(0,0,0)" stroke-width="8" d="M 14297,10174 L 14345,10174"/>
         <path fill="none" stroke="rgb(0,0,0)" stroke-width="8" d="M 14369,10174 L 14417,10174"/>
         <path fill="none" stroke="rgb(0,0,0)" stroke-width="8" d="M 14441,10174 L 14489,10174"/>
         <path fill="none" stroke="rgb(0,0,0)" stroke-width="8" d="M 14513,10174 L 14561,10174"/>
         <path fill="none" stroke="rgb(0,0,0)" stroke-width="8" d="M 14585,10174 L 14633,10174"/>
         <path fill="none" stroke="rgb(0,0,0)" stroke-width="8" d="M 14657,10174 L 14705,10174"/>
         <path fill="none" stroke="rgb(0,0,0)" stroke-width="8" d="M 14729,10174 L 14777,10174"/>
         <path fill="none" stroke="rgb(0,0,0)" stroke-width="8" d="M 14801,10174 L 14849,10174"/>
         <path fill="none" stroke="rgb(0,0,0)" stroke-width="8" d="M 14873,10174 L 14921,10174"/>
         <path fill="none" stroke="rgb(0,0,0)" stroke-width="8" d="M 14945,10174 L 14993,10174"/>
         <path fill="none" stroke="rgb(0,0,0)" stroke-width="8" d="M 15017,10174 L 15065,10174"/>
         <path fill="none" stroke="rgb(0,0,0)" stroke-width="8" d="M 12065,11761 L 12113,11761"/>
         <path fill="none" stroke="rgb(0,0,0)" stroke-width="8" d="M 12137,11761 L 12185,11761"/>
         <path fill="none" stroke="rgb(0,0,0)" stroke-width="8" d="M 12209,11761 L 12257,11761"/>
         <path fill="none" stroke="rgb(0,0,0)" stroke-width="8" d="M 12281,11761 L 12329,11761"/>
         <path fill="none" stroke="rgb(0,0,0)" stroke-width="8" d="M 12353,11761 L 12401,11761"/>
         <path fill="none" stroke="rgb(0,0,0)" stroke-width="8" d="M 12425,11761 L 12473,11761"/>
         <path fill="none" stroke="rgb(0,0,0)" stroke-width="8" d="M 12497,11761 L 12545,11761"/>
         <path fill="none" stroke="rgb(0,0,0)" stroke-width="8" d="M 12569,11761 L 12617,11761"/>
         <path fill="none" stroke="rgb(0,0,0)" stroke-width="8" d="M 12641,11761 L 12689,11761"/>
         <path fill="none" stroke="rgb(0,0,0)" stroke-width="8" d="M 12713,11761 L 12761,11761"/>
         <path fill="none" stroke="rgb(0,0,0)" stroke-width="8" d="M 12785,11761 L 12833,11761"/>
         <path fill="none" stroke="rgb(0,0,0)" stroke-width="8" d="M 12857,11761 L 12905,11761"/>
         <path fill="none" stroke="rgb(0,0,0)" stroke-width="8" d="M 12929,11761 L 12977,11761"/>
         <path fill="none" stroke="rgb(0,0,0)" stroke-width="8" d="M 13001,11761 L 13049,11761"/>
         <path fill="none" stroke="rgb(0,0,0)" stroke-width="8" d="M 13073,11761 L 13121,11761"/>
         <path fill="none" stroke="rgb(0,0,0)" stroke-width="8" d="M 13145,11761 L 13193,11761"/>
         <path fill="none" stroke="rgb(0,0,0)" stroke-width="8" d="M 13217,11761 L 13265,11761"/>
         <path fill="none" stroke="rgb(0,0,0)" stroke-width="8" d="M 13289,11761 L 13337,11761"/>
         <path fill="none" stroke="rgb(0,0,0)" stroke-width="8" d="M 13361,11761 L 13409,11761"/>
         <path fill="none" stroke="rgb(0,0,0)" stroke-width="8" d="M 13433,11761 L 13481,11761"/>
         <path fill="none" stroke="rgb(0,0,0)" stroke-width="8" d="M 13505,11761 L 13553,11761"/>
         <path fill="none" stroke="rgb(0,0,0)" stroke-width="8" d="M 13577,11761 L 13625,11761"/>
         <path fill="none" stroke="rgb(0,0,0)" stroke-width="8" d="M 13649,11761 L 13697,11761"/>
         <path fill="none" stroke="rgb(0,0,0)" stroke-width="8" d="M 13721,11761 L 13769,11761"/>
         <path fill="none" stroke="rgb(0,0,0)" stroke-width="8" d="M 13793,11761 L 13841,11761"/>
         <path fill="none" stroke="rgb(0,0,0)" stroke-width="8" d="M 13865,11761 L 13913,11761"/>
         <path fill="none" stroke="rgb(0,0,0)" stroke-width="8" d="M 13937,11761 L 13985,11761"/>
         <path fill="none" stroke="rgb(0,0,0)" stroke-width="8" d="M 14009,11761 L 14057,11761"/>
         <path fill="none" stroke="rgb(0,0,0)" stroke-width="8" d="M 14081,11761 L 14129,11761"/>
         <path fill="none" stroke="rgb(0,0,0)" stroke-width="8" d="M 14153,11761 L 14201,11761"/>
         <path fill="none" stroke="rgb(0,0,0)" stroke-width="8" d="M 14225,11761 L 14273,11761"/>
         <path fill="none" stroke="rgb(0,0,0)" stroke-width="8" d="M 14297,11761 L 14345,11761"/>
         <path fill="none" stroke="rgb(0,0,0)" stroke-width="8" d="M 14369,11761 L 14417,11761"/>
         <path fill="none" stroke="rgb(0,0,0)" stroke-width="8" d="M 14441,11761 L 14489,11761"/>
         <path fill="none" stroke="rgb(0,0,0)" stroke-width="8" d="M 14513,11761 L 14561,11761"/>
         <path fill="none" stroke="rgb(0,0,0)" stroke-width="8" d="M 14585,11761 L 14633,11761"/>
         <path fill="none" stroke="rgb(0,0,0)" stroke-width="8" d="M 14657,11761 L 14705,11761"/>
         <path fill="none" stroke="rgb(0,0,0)" stroke-width="8" d="M 14729,11761 L 14777,11761"/>
         <path fill="none" stroke="rgb(0,0,0)" stroke-width="8" d="M 14801,11761 L 14849,11761"/>
         <path fill="none" stroke="rgb(0,0,0)" stroke-width="8" d="M 14873,11761 L 14921,11761"/>
         <path fill="none" stroke="rgb(0,0,0)" stroke-width="8" d="M 14945,11761 L 14993,11761"/>
         <path fill="none" stroke="rgb(0,0,0)" stroke-width="8" d="M 15017,11761 L 15065,11761"/>
        </g>
       </g>
      </g>
      <g class="com.sun.star.drawing.TextShape">
       <g id="id101">
        <text class="TextShape"><tspan class="TextParagraph" font-family="Calibri, sans-serif" font-size="282px" font-weight="400"><tspan class="TextPosition" x="13017" y="11064"><tspan fill="rgb(0,0,0)" stroke="none">e : Engine</tspan></tspan></tspan></text>
       </g>
      </g>
     </g>
     <g class="Group">
      <g class="Group">
       <g class="com.sun.star.drawing.PolyPolygonShape">
        <g id="id102">
         <path fill="rgb(255,255,255)" stroke="none" d="M 12184,11086 L 12184,10848 11946,10848 11946,11086 12184,11086 Z"/>
        </g>
       </g>
       <g class="com.sun.star.drawing.PolyPolygonShape">
        <g id="id103">
         <path fill="none" stroke="rgb(0,0,0)" stroke-width="8" d="M 12184,11086 L 12184,10848 11946,10848 11946,11086 12184,11086 Z"/>
        </g>
       </g>
      </g>
      <g class="com.sun.star.drawing.TextShape">
       <g id="id104"/>
      </g>
     </g>
     <g class="Group">
      <g class="com.sun.star.drawing.OpenBezierShape">
       <g id="id105">
        <path fill="none" stroke="rgb(0,0,0)" stroke-width="8" d="M 11946,10968 L 11307,10968"/>
        <path fill="none" stroke="rgb(0,0,0)" stroke-width="8" d="M 11075,11158 L 11075,11158 C 11088,11160 11099,11162 11112,11162 11147,11162 11178,11153 11209,11136 11240,11118 11262,11095 11280,11065 11298,11034 11306,11003 11306,10967 11306,10932 11298,10901 11280,10870 11262,10840 11240,10817 11209,10799 11178,10782 11147,10773 11112,10773 11099,10773 11088,10775 11075,10777"/>
       </g>
      </g>
      <g class="com.sun.star.drawing.TextShape">
       <g id="id106"/>
      </g>
     </g>
     <g class="Group">
      <g class="com.sun.star.drawing.LineShape">
       <g id="id107">
        <path fill="none" stroke="rgb(0,0,0)" stroke-width="8" d="M 8680,10967 L 11112,10967"/>
       </g>
      </g>
      <g class="com.sun.star.drawing.TextShape">
       <g id="id108"/>
      </g>
      <g class="com.sun.star.drawing.TextShape">
       <g id="id109"/>
      </g>
      <g class="com.sun.star.drawing.TextShape">
       <g id="id110"/>
      </g>
      <g class="com.sun.star.drawing.TextShape">
       <g id="id111"/>
      </g>
      <g class="com.sun.star.drawing.TextShape">
       <g id="id112"/>
      </g>
     </g>
     <g class="Group">
      <g class="com.sun.star.drawing.PolyPolygonShape">
       <g id="id113">
        <path fill="rgb(255,255,255)" stroke="none" d="M 7620,13824 L 7620,13824 7620,12237 7620,12237 7620,13824 Z"/>
       </g>
      </g>
      <g class="com.sun.star.drawing.TextShape">
       <g id="id114"/>
      </g>
     </g>
     <g class="Group">
      <g class="com.sun.star.drawing.PolyPolygonShape">
       <g id="id115">
        <path fill="rgb(255,255,255)" stroke="none" d="M 7620,13825 L 7620,13825 4445,13825 4445,13825 7620,13825 Z"/>
       </g>
      </g>
      <g class="com.sun.star.drawing.TextShape">
       <g id="id116"/>
      </g>
     </g>
     <g class="Group">
      <g class="com.sun.star.drawing.PolyPolygonShape">
       <g id="id117">
        <path fill="rgb(255,255,255)" stroke="none" d="M 7620,13825 L 7620,13825 4445,13825 4445,13825 7620,13825 Z"/>
       </g>
      </g>
      <g class="com.sun.star.drawing.TextShape">
       <g id="id118"/>
      </g>
     </g>
     <g class="Group">
      <g class="com.sun.star.drawing.PolyPolygonShape">
       <g id="id119">
        <path fill="rgb(255,255,255)" stroke="none" d="M 7620,13825 L 7620,13825 4445,13825 4445,13825 7620,13825 Z"/>
       </g>
      </g>
      <g class="com.sun.star.drawing.TextShape">
       <g id="id120"/>
      </g>
     </g>
     <g class="Group">
      <g class="Group">
       <g class="com.sun.star.drawing.PolyPolygonShape">
        <g id="id121">
         <path fill="rgb(255,255,255)" stroke="none" d="M 7620,13824 L 7620,12237 4445,12237 4445,13824 7620,13824 Z M 4445,12237 L 4445,12237 Z M 4445,13824 L 4445,13824 4445,12237 4445,13824 Z M 4445,12237 L 4445,12237 Z M 7620,12237 L 7620,12237 7620,13824 7620,13824 7620,12237 Z"/>
        </g>
       </g>
       <g class="com.sun.star.drawing.PolyLineShape">
        <g id="id122">
         <path fill="none" stroke="rgb(0,0,0)" stroke-width="8" d="M 4445,12237 L 4445,12237 Z"/>
         <path fill="none" stroke="rgb(0,0,0)" stroke-width="8" d="M 7620,13824 L 7620,12237"/>
         <path fill="none" stroke="rgb(0,0,0)" stroke-width="8" d="M 4445,13824 L 4445,12237"/>
         <path fill="none" stroke="rgb(0,0,0)" stroke-width="8" d="M 4445,12237 L 7620,12237"/>
         <path fill="none" stroke="rgb(0,0,0)" stroke-width="8" d="M 4445,13824 L 7620,13824"/>
        </g>
       </g>
      </g>
      <g class="com.sun.star.drawing.TextShape">
       <g id="id123">
        <text class="TextShape"><tspan class="TextParagraph" font-family="Tahoma, sans-serif" font-size="353px" font-weight="400"><tspan class="TextPosition" x="5245" y="13171"><tspan fill="rgb(0,0,0)" stroke="none">w : Wheel</tspan></tspan></tspan></text>
       </g>
      </g>
     </g>
     <g class="Group">
      <g class="Group">
       <g class="com.sun.star.drawing.PolyPolygonShape">
        <g id="id124">
         <path fill="rgb(255,255,255)" stroke="none" d="M 7501,12912 L 7501,13150 7739,13150 7739,12912 7501,12912 Z"/>
        </g>
       </g>
       <g class="com.sun.star.drawing.PolyPolygonShape">
        <g id="id125">
         <path fill="none" stroke="rgb(0,0,0)" stroke-width="8" d="M 7501,12912 L 7501,13150 7739,13150 7739,12912 7501,12912 Z"/>
        </g>
       </g>
      </g>
      <g class="com.sun.star.drawing.TextShape">
       <g id="id126"/>
      </g>
     </g>
     <g class="Group">
      <g class="com.sun.star.drawing.LineShape">
       <g id="id127">
        <path fill="none" stroke="rgb(0,0,0)" stroke-width="8" d="M 7739,13031 L 9446,13031"/>
        <path fill="rgb(0,0,0)" stroke="none" d="M 9842,13031 L 9428,12893 9428,13169 9842,13031 Z"/>
       </g>
      </g>
      <g class="com.sun.star.drawing.TextShape">
       <g id="id128"/>
      </g>
     </g>
     <g class="Group">
      <g class="com.sun.star.drawing.PolyPolygonShape">
       <g id="id129">
        <path fill="rgb(255,255,255)" stroke="none" d="M 15081,13824 L 15081,13824 15081,12237 15081,12237 15081,13824 Z"/>
       </g>
      </g>
      <g class="com.sun.star.drawing.TextShape">
       <g id="id130"/>
      </g>
     </g>
     <g class="Group">
      <g class="com.sun.star.drawing.PolyPolygonShape">
       <g id="id131">
        <path fill="rgb(255,255,255)" stroke="none" d="M 15081,13825 L 15081,13825 12065,13825 12065,13825 15081,13825 Z"/>
       </g>
      </g>
      <g class="com.sun.star.drawing.TextShape">
       <g id="id132"/>
      </g>
     </g>
     <g class="Group">
      <g class="com.sun.star.drawing.PolyPolygonShape">
       <g id="id133">
        <path fill="rgb(255,255,255)" stroke="none" d="M 15081,13825 L 15081,13825 12065,13825 12065,13825 15081,13825 Z"/>
       </g>
      </g>
      <g class="com.sun.star.drawing.TextShape">
       <g id="id134"/>
      </g>
     </g>
     <g class="Group">
      <g class="com.sun.star.drawing.PolyPolygonShape">
       <g id="id135">
        <path fill="rgb(255,255,255)" stroke="none" d="M 15081,13825 L 15081,13825 12065,13825 12065,13825 15081,13825 Z"/>
       </g>
      </g>
      <g class="com.sun.star.drawing.TextShape">
       <g id="id136"/>
      </g>
     </g>
     <g class="Group">
      <g class="Group">
       <g class="com.sun.star.drawing.PolyPolygonShape">
        <g id="id137">
         <path fill="rgb(255,255,255)" stroke="none" d="M 15081,13824 L 15081,12237 12065,12237 12065,13824 15081,13824 Z M 12065,12237 L 12065,12237 Z M 12065,13824 L 12065,13824 12065,12237 12065,13824 Z M 12065,12237 L 12065,12237 Z M 15081,12237 L 15081,12237 15081,13824 15081,13824 15081,12237 Z"/>
        </g>
       </g>
       <g class="com.sun.star.drawing.PolyLineShape">
        <g id="id138">
         <path fill="none" stroke="rgb(0,0,0)" stroke-width="8" d="M 15081,13824 L 15081,13776"/>
         <path fill="none" stroke="rgb(0,0,0)" stroke-width="8" d="M 15081,13752 L 15081,13704"/>
         <path fill="none" stroke="rgb(0,0,0)" stroke-width="8" d="M 15081,13680 L 15081,13632"/>
         <path fill="none" stroke="rgb(0,0,0)" stroke-width="8" d="M 15081,13608 L 15081,13560"/>
         <path fill="none" stroke="rgb(0,0,0)" stroke-width="8" d="M 15081,13536 L 15081,13488"/>
         <path fill="none" stroke="rgb(0,0,0)" stroke-width="8" d="M 15081,13464 L 15081,13416"/>
         <path fill="none" stroke="rgb(0,0,0)" stroke-width="8" d="M 15081,13392 L 15081,13344"/>
         <path fill="none" stroke="rgb(0,0,0)" stroke-width="8" d="M 15081,13320 L 15081,13272"/>
         <path fill="none" stroke="rgb(0,0,0)" stroke-width="8" d="M 15081,13248 L 15081,13200"/>
         <path fill="none" stroke="rgb(0,0,0)" stroke-width="8" d="M 15081,13176 L 15081,13128"/>
         <path fill="none" stroke="rgb(0,0,0)" stroke-width="8" d="M 15081,13104 L 15081,13056"/>
         <path fill="none" stroke="rgb(0,0,0)" stroke-width="8" d="M 15081,13032 L 15081,12984"/>
         <path fill="none" stroke="rgb(0,0,0)" stroke-width="8" d="M 15081,12960 L 15081,12912"/>
         <path fill="none" stroke="rgb(0,0,0)" stroke-width="8" d="M 15081,12888 L 15081,12840"/>
         <path fill="none" stroke="rgb(0,0,0)" stroke-width="8" d="M 15081,12816 L 15081,12768"/>
         <path fill="none" stroke="rgb(0,0,0)" stroke-width="8" d="M 15081,12744 L 15081,12696"/>
         <path fill="none" stroke="rgb(0,0,0)" stroke-width="8" d="M 15081,12672 L 15081,12624"/>
         <path fill="none" stroke="rgb(0,0,0)" stroke-width="8" d="M 15081,12600 L 15081,12552"/>
         <path fill="none" stroke="rgb(0,0,0)" stroke-width="8" d="M 15081,12528 L 15081,12480"/>
         <path fill="none" stroke="rgb(0,0,0)" stroke-width="8" d="M 15081,12456 L 15081,12408"/>
         <path fill="none" stroke="rgb(0,0,0)" stroke-width="8" d="M 15081,12384 L 15081,12336"/>
         <path fill="none" stroke="rgb(0,0,0)" stroke-width="8" d="M 15081,12312 L 15081,12264"/>
         <path fill="none" stroke="rgb(0,0,0)" stroke-width="8" d="M 15081,12240 L 15081,12237"/>
         <path fill="none" stroke="rgb(0,0,0)" stroke-width="8" d="M 12065,13824 L 12065,13776"/>
         <path fill="none" stroke="rgb(0,0,0)" stroke-width="8" d="M 12065,13752 L 12065,13704"/>
         <path fill="none" stroke="rgb(0,0,0)" stroke-width="8" d="M 12065,13680 L 12065,13632"/>
         <path fill="none" stroke="rgb(0,0,0)" stroke-width="8" d="M 12065,13608 L 12065,13560"/>
         <path fill="none" stroke="rgb(0,0,0)" stroke-width="8" d="M 12065,13536 L 12065,13488"/>
         <path fill="none" stroke="rgb(0,0,0)" stroke-width="8" d="M 12065,13464 L 12065,13416"/>
         <path fill="none" stroke="rgb(0,0,0)" stroke-width="8" d="M 12065,13392 L 12065,13344"/>
         <path fill="none" stroke="rgb(0,0,0)" stroke-width="8" d="M 12065,13320 L 12065,13272"/>
         <path fill="none" stroke="rgb(0,0,0)" stroke-width="8" d="M 12065,13248 L 12065,13200"/>
         <path fill="none" stroke="rgb(0,0,0)" stroke-width="8" d="M 12065,13176 L 12065,13128"/>
         <path fill="none" stroke="rgb(0,0,0)" stroke-width="8" d="M 12065,13104 L 12065,13056"/>
         <path fill="none" stroke="rgb(0,0,0)" stroke-width="8" d="M 12065,13032 L 12065,12984"/>
         <path fill="none" stroke="rgb(0,0,0)" stroke-width="8" d="M 12065,12960 L 12065,12912"/>
         <path fill="none" stroke="rgb(0,0,0)" stroke-width="8" d="M 12065,12888 L 12065,12840"/>
         <path fill="none" stroke="rgb(0,0,0)" stroke-width="8" d="M 12065,12816 L 12065,12768"/>
         <path fill="none" stroke="rgb(0,0,0)" stroke-width="8" d="M 12065,12744 L 12065,12696"/>
         <path fill="none" stroke="rgb(0,0,0)" stroke-width="8" d="M 12065,12672 L 12065,12624"/>
         <path fill="none" stroke="rgb(0,0,0)" stroke-width="8" d="M 12065,12600 L 12065,12552"/>
         <path fill="none" stroke="rgb(0,0,0)" stroke-width="8" d="M 12065,12528 L 12065,12480"/>
         <path fill="none" stroke="rgb(0,0,0)" stroke-width="8" d="M 12065,12456 L 12065,12408"/>
         <path fill="none" stroke="rgb(0,0,0)" stroke-width="8" d="M 12065,12384 L 12065,12336"/>
         <path fill="none" stroke="rgb(0,0,0)" stroke-width="8" d="M 12065,12312 L 12065,12264"/>
         <path fill="none" stroke="rgb(0,0,0)" stroke-width="8" d="M 12065,12240 L 12065,12237"/>
         <path fill="none" stroke="rgb(0,0,0)" stroke-width="8" d="M 12065,12237 L 12113,12237"/>
         <path fill="none" stroke="rgb(0,0,0)" stroke-width="8" d="M 12137,12237 L 12185,12237"/>
         <path fill="none" stroke="rgb(0,0,0)" stroke-width="8" d="M 12209,12237 L 12257,12237"/>
         <path fill="none" stroke="rgb(0,0,0)" stroke-width="8" d="M 12281,12237 L 12329,12237"/>
         <path fill="none" stroke="rgb(0,0,0)" stroke-width="8" d="M 12353,12237 L 12401,12237"/>
         <path fill="none" stroke="rgb(0,0,0)" stroke-width="8" d="M 12425,12237 L 12473,12237"/>
         <path fill="none" stroke="rgb(0,0,0)" stroke-width="8" d="M 12497,12237 L 12545,12237"/>
         <path fill="none" stroke="rgb(0,0,0)" stroke-width="8" d="M 12569,12237 L 12617,12237"/>
         <path fill="none" stroke="rgb(0,0,0)" stroke-width="8" d="M 12641,12237 L 12689,12237"/>
         <path fill="none" stroke="rgb(0,0,0)" stroke-width="8" d="M 12713,12237 L 12761,12237"/>
         <path fill="none" stroke="rgb(0,0,0)" stroke-width="8" d="M 12785,12237 L 12833,12237"/>
         <path fill="none" stroke="rgb(0,0,0)" stroke-width="8" d="M 12857,12237 L 12905,12237"/>
         <path fill="none" stroke="rgb(0,0,0)" stroke-width="8" d="M 12929,12237 L 12977,12237"/>
         <path fill="none" stroke="rgb(0,0,0)" stroke-width="8" d="M 13001,12237 L 13049,12237"/>
         <path fill="none" stroke="rgb(0,0,0)" stroke-width="8" d="M 13073,12237 L 13121,12237"/>
         <path fill="none" stroke="rgb(0,0,0)" stroke-width="8" d="M 13145,12237 L 13193,12237"/>
         <path fill="none" stroke="rgb(0,0,0)" stroke-width="8" d="M 13217,12237 L 13265,12237"/>
         <path fill="none" stroke="rgb(0,0,0)" stroke-width="8" d="M 13289,12237 L 13337,12237"/>
         <path fill="none" stroke="rgb(0,0,0)" stroke-width="8" d="M 13361,12237 L 13409,12237"/>
         <path fill="none" stroke="rgb(0,0,0)" stroke-width="8" d="M 13433,12237 L 13481,12237"/>
         <path fill="none" stroke="rgb(0,0,0)" stroke-width="8" d="M 13505,12237 L 13553,12237"/>
         <path fill="none" stroke="rgb(0,0,0)" stroke-width="8" d="M 13577,12237 L 13625,12237"/>
         <path fill="none" stroke="rgb(0,0,0)" stroke-width="8" d="M 13649,12237 L 13697,12237"/>
         <path fill="none" stroke="rgb(0,0,0)" stroke-width="8" d="M 13721,12237 L 13769,12237"/>
         <path fill="none" stroke="rgb(0,0,0)" stroke-width="8" d="M 13793,12237 L 13841,12237"/>
         <path fill="none" stroke="rgb(0,0,0)" stroke-width="8" d="M 13865,12237 L 13913,12237"/>
         <path fill="none" stroke="rgb(0,0,0)" stroke-width="8" d="M 13937,12237 L 13985,12237"/>
         <path fill="none" stroke="rgb(0,0,0)" stroke-width="8" d="M 14009,12237 L 14057,12237"/>
         <path fill="none" stroke="rgb(0,0,0)" stroke-width="8" d="M 14081,12237 L 14129,12237"/>
         <path fill="none" stroke="rgb(0,0,0)" stroke-width="8" d="M 14153,12237 L 14201,12237"/>
         <path fill="none" stroke="rgb(0,0,0)" stroke-width="8" d="M 14225,12237 L 14273,12237"/>
         <path fill="none" stroke="rgb(0,0,0)" stroke-width="8" d="M 14297,12237 L 14345,12237"/>
         <path fill="none" stroke="rgb(0,0,0)" stroke-width="8" d="M 14369,12237 L 14417,12237"/>
         <path fill="none" stroke="rgb(0,0,0)" stroke-width="8" d="M 14441,12237 L 14489,12237"/>
         <path fill="none" stroke="rgb(0,0,0)" stroke-width="8" d="M 14513,12237 L 14561,12237"/>
         <path fill="none" stroke="rgb(0,0,0)" stroke-width="8" d="M 14585,12237 L 14633,12237"/>
         <path fill="none" stroke="rgb(0,0,0)" stroke-width="8" d="M 14657,12237 L 14705,12237"/>
         <path fill="none" stroke="rgb(0,0,0)" stroke-width="8" d="M 14729,12237 L 14777,12237"/>
         <path fill="none" stroke="rgb(0,0,0)" stroke-width="8" d="M 14801,12237 L 14849,12237"/>
         <path fill="none" stroke="rgb(0,0,0)" stroke-width="8" d="M 14873,12237 L 14921,12237"/>
         <path fill="none" stroke="rgb(0,0,0)" stroke-width="8" d="M 14945,12237 L 14993,12237"/>
         <path fill="none" stroke="rgb(0,0,0)" stroke-width="8" d="M 15017,12237 L 15065,12237"/>
         <path fill="none" stroke="rgb(0,0,0)" stroke-width="8" d="M 12065,13824 L 12113,13824"/>
         <path fill="none" stroke="rgb(0,0,0)" stroke-width="8" d="M 12137,13824 L 12185,13824"/>
         <path fill="none" stroke="rgb(0,0,0)" stroke-width="8" d="M 12209,13824 L 12257,13824"/>
         <path fill="none" stroke="rgb(0,0,0)" stroke-width="8" d="M 12281,13824 L 12329,13824"/>
         <path fill="none" stroke="rgb(0,0,0)" stroke-width="8" d="M 12353,13824 L 12401,13824"/>
         <path fill="none" stroke="rgb(0,0,0)" stroke-width="8" d="M 12425,13824 L 12473,13824"/>
         <path fill="none" stroke="rgb(0,0,0)" stroke-width="8" d="M 12497,13824 L 12545,13824"/>
         <path fill="none" stroke="rgb(0,0,0)" stroke-width="8" d="M 12569,13824 L 12617,13824"/>
         <path fill="none" stroke="rgb(0,0,0)" stroke-width="8" d="M 12641,13824 L 12689,13824"/>
         <path fill="none" stroke="rgb(0,0,0)" stroke-width="8" d="M 12713,13824 L 12761,13824"/>
         <path fill="none" stroke="rgb(0,0,0)" stroke-width="8" d="M 12785,13824 L 12833,13824"/>
         <path fill="none" stroke="rgb(0,0,0)" stroke-width="8" d="M 12857,13824 L 12905,13824"/>
         <path fill="none" stroke="rgb(0,0,0)" stroke-width="8" d="M 12929,13824 L 12977,13824"/>
         <path fill="none" stroke="rgb(0,0,0)" stroke-width="8" d="M 13001,13824 L 13049,13824"/>
         <path fill="none" stroke="rgb(0,0,0)" stroke-width="8" d="M 13073,13824 L 13121,13824"/>
         <path fill="none" stroke="rgb(0,0,0)" stroke-width="8" d="M 13145,13824 L 13193,13824"/>
         <path fill="none" stroke="rgb(0,0,0)" stroke-width="8" d="M 13217,13824 L 13265,13824"/>
         <path fill="none" stroke="rgb(0,0,0)" stroke-width="8" d="M 13289,13824 L 13337,13824"/>
         <path fill="none" stroke="rgb(0,0,0)" stroke-width="8" d="M 13361,13824 L 13409,13824"/>
         <path fill="none" stroke="rgb(0,0,0)" stroke-width="8" d="M 13433,13824 L 13481,13824"/>
         <path fill="none" stroke="rgb(0,0,0)" stroke-width="8" d="M 13505,13824 L 13553,13824"/>
         <path fill="none" stroke="rgb(0,0,0)" stroke-width="8" d="M 13577,13824 L 13625,13824"/>
         <path fill="none" stroke="rgb(0,0,0)" stroke-width="8" d="M 13649,13824 L 13697,13824"/>
         <path fill="none" stroke="rgb(0,0,0)" stroke-width="8" d="M 13721,13824 L 13769,13824"/>
         <path fill="none" stroke="rgb(0,0,0)" stroke-width="8" d="M 13793,13824 L 13841,13824"/>
         <path fill="none" stroke="rgb(0,0,0)" stroke-width="8" d="M 13865,13824 L 13913,13824"/>
         <path fill="none" stroke="rgb(0,0,0)" stroke-width="8" d="M 13937,13824 L 13985,13824"/>
         <path fill="none" stroke="rgb(0,0,0)" stroke-width="8" d="M 14009,13824 L 14057,13824"/>
         <path fill="none" stroke="rgb(0,0,0)" stroke-width="8" d="M 14081,13824 L 14129,13824"/>
         <path fill="none" stroke="rgb(0,0,0)" stroke-width="8" d="M 14153,13824 L 14201,13824"/>
         <path fill="none" stroke="rgb(0,0,0)" stroke-width="8" d="M 14225,13824 L 14273,13824"/>
         <path fill="none" stroke="rgb(0,0,0)" stroke-width="8" d="M 14297,13824 L 14345,13824"/>
         <path fill="none" stroke="rgb(0,0,0)" stroke-width="8" d="M 14369,13824 L 14417,13824"/>
         <path fill="none" stroke="rgb(0,0,0)" stroke-width="8" d="M 14441,13824 L 14489,13824"/>
         <path fill="none" stroke="rgb(0,0,0)" stroke-width="8" d="M 14513,13824 L 14561,13824"/>
         <path fill="none" stroke="rgb(0,0,0)" stroke-width="8" d="M 14585,13824 L 14633,13824"/>
         <path fill="none" stroke="rgb(0,0,0)" stroke-width="8" d="M 14657,13824 L 14705,13824"/>
         <path fill="none" stroke="rgb(0,0,0)" stroke-width="8" d="M 14729,13824 L 14777,13824"/>
         <path fill="none" stroke="rgb(0,0,0)" stroke-width="8" d="M 14801,13824 L 14849,13824"/>
         <path fill="none" stroke="rgb(0,0,0)" stroke-width="8" d="M 14873,13824 L 14921,13824"/>
         <path fill="none" stroke="rgb(0,0,0)" stroke-width="8" d="M 14945,13824 L 14993,13824"/>
         <path fill="none" stroke="rgb(0,0,0)" stroke-width="8" d="M 15017,13824 L 15065,13824"/>
        </g>
       </g>
      </g>
      <g class="com.sun.star.drawing.TextShape">
       <g id="id139">
        <text class="TextShape"><tspan class="TextParagraph" font-family="Calibri, sans-serif" font-size="282px" font-weight="400"><tspan class="TextPosition" x="13017" y="13127"><tspan fill="rgb(0,0,0)" stroke="none">e : Engine</tspan></tspan></tspan></text>
       </g>
      </g>
     </g>
     <g class="Group">
      <g class="Group">
       <g class="com.sun.star.drawing.PolyPolygonShape">
        <g id="id140">
         <path fill="rgb(255,255,255)" stroke="none" d="M 12184,13150 L 12184,12912 11946,12912 11946,13150 12184,13150 Z"/>
        </g>
       </g>
       <g class="com.sun.star.drawing.PolyPolygonShape">
        <g id="id141">
         <path fill="none" stroke="rgb(0,0,0)" stroke-width="8" d="M 12184,13150 L 12184,12912 11946,12912 11946,13150 12184,13150 Z"/>
        </g>
       </g>
      </g>
      <g class="com.sun.star.drawing.TextShape">
       <g id="id142"/>
      </g>
     </g>
     <g class="Group">
      <g class="com.sun.star.drawing.OpenBezierShape">
       <g id="id143">
        <path fill="none" stroke="rgb(0,0,0)" stroke-width="8" d="M 11946,13032 L 10037,13032"/>
        <path fill="none" stroke="rgb(0,0,0)" stroke-width="8" d="M 9805,13222 L 9805,13222 C 9818,13224 9829,13226 9842,13226 9877,13226 9908,13217 9939,13200 9970,13182 9992,13159 10010,13129 10028,13098 10036,13067 10036,13031 10036,12996 10028,12965 10010,12934 9992,12904 9970,12881 9939,12863 9908,12846 9877,12837 9842,12837 9829,12837 9818,12839 9805,12841"/>
       </g>
      </g>
      <g class="com.sun.star.drawing.TextShape">
       <g id="id144"/>
      </g>
     </g>
     <g class="com.sun.star.drawing.TextShape">
      <g id="id145">
       <text class="TextShape"><tspan class="TextParagraph" font-family="Tahoma, sans-serif" font-size="353px" font-weight="400"><tspan class="TextPosition" x="7047" y="10631"><tspan fill="rgb(0,0,0)" stroke="none">4</tspan></tspan></tspan></text>
      </g>
     </g>
     <g class="com.sun.star.drawing.TextShape">
      <g id="id146">
       <text class="TextShape"><tspan class="TextParagraph" font-family="Tahoma, sans-serif" font-size="353px" font-weight="400"><tspan class="TextPosition" x="7122" y="12695"><tspan fill="rgb(0,0,0)" stroke="none">4</tspan></tspan></tspan></text>
      </g>
     </g>
    </g>
   </g>
  </g>
 </g>
</svg>